%!PS-Adobe-2.0 EPSF-2.0
%%BoundingBox:  0 0 567 425
%%Title: ./plots/pT-bal/diff_pTbal.eps: 
%%Creator: ROOT Version 6.06/04
%%CreationDate: Thu Apr 23 12:34:40 2020
%%DocumentNeededResources: ProcSet (FontSetInit)
%%EndComments
%%BeginProlog
80 dict begin
/s {stroke} def /l {lineto} def /m {moveto} def /t {translate} def
/r {rotate} def /rl {roll}  def /R {repeat} def
/d {rlineto} def /rm {rmoveto} def /gr {grestore} def /f {eofill} def
/c {setrgbcolor} def /black {0 setgray} def /sd {setdash} def
/cl {closepath} def /sf {scalefont setfont} def /lw {setlinewidth} def
/box {m dup 0 exch d exch 0 d 0 exch neg d cl} def
/NC{systemdict begin initclip end}def/C{NC box clip newpath}def
/bl {box s} def /bf {gsave box gsave f grestore 1 lw [] 0 sd s grestore} def /Y { 0 exch d} def /X { 0 d} def 
/K {{pop pop 0 moveto} exch kshow} bind def
/ita {/ang 15 def gsave [1 0 ang dup sin exch cos div 1 0 0] concat} def 
/mp {newpath /y exch def /x exch def} def
/side {[w .77 mul w .23 mul] .385 w mul sd w 0 l currentpoint t -144 r} def
/mr {mp x y w2 0 360 arc} def /m24 {mr s} def /m20 {mr f} def
/mb {mp x y w2 add m w2 neg 0 d 0 w neg d w 0 d 0 w d cl} def
/mt {mp x y w2 add m w2 neg w neg d w 0 d cl} def
/m21 {mb f} def /m25 {mb s} def /m22 {mt f} def /m26{mt s} def
/m23 {mp x y w2 sub m w2 w d w neg 0 d cl f} def
/m27 {mp x y w2 add m w3 neg w2 neg d w3 w2 neg d w3 w2 d cl s} def
/m28 {mp x w2 sub y w2 sub w3 add m w3 0 d  0 w3 neg d w3 0 d 0 w3 d w3 0 d  0 w3 d w3 neg 0 d 0 w3 d w3 neg 0 d 0 w3 neg d w3 neg 0 d cl s } def
/m29 {mp gsave x w2 sub y w2 add w3 sub m currentpoint t 4 {side} repeat cl fill gr} def
/m30 {mp gsave x w2 sub y w2 add w3 sub m currentpoint t 4 {side} repeat cl s gr} def
/m31 {mp x y w2 sub m 0 w d x w2 sub y m w 0 d x w2 sub y w2 add m w w neg d x w2 sub y w2 sub m w w d s} def
/m32 {mp x y w2 sub m w2 w d w neg 0 d cl s} def
/m33 {mp x y w2 add m w3 neg w2 neg d w3 w2 neg d w3 w2 d cl f} def
/m34 {mp x w2 sub y w2 sub w3 add m w3 0 d  0 w3 neg d w3 0 d 0 w3 d w3 0 d  0 w3 d w3 neg 0 d 0 w3 d w3 neg 0 d 0 w3 neg d w3 neg 0 d cl f } def
/m2 {mp x y w2 sub m 0 w d x w2 sub y m w 0 d s} def
/m5 {mp x w2 sub y w2 sub m w w d x w2 sub y w2 add m w w neg d s} def
%%IncludeResource: ProcSet (FontSetInit)
%%IncludeResource: font Times-Roman
%%IncludeResource: font Times-Italic
%%IncludeResource: font Times-Bold
%%IncludeResource: font Times-BoldItalic
%%IncludeResource: font Helvetica
%%IncludeResource: font Helvetica-Oblique
%%IncludeResource: font Helvetica-Bold
%%IncludeResource: font Helvetica-BoldOblique
%%IncludeResource: font Courier
%%IncludeResource: font Courier-Oblique
%%IncludeResource: font Courier-Bold
%%IncludeResource: font Courier-BoldOblique
%%IncludeResource: font Symbol
%%IncludeResource: font ZapfDingbats
/reEncode {exch findfont dup length dict begin {1 index /FID eq  {pop pop} {def} ifelse } forall /Encoding exch def currentdict end dup /FontName get exch definefont pop } def [/Times-Bold /Times-Italic /Times-BoldItalic /Helvetica /Helvetica-Oblique
 /Helvetica-Bold /Helvetica-BoldOblique /Courier /Courier-Oblique /Courier-Bold /Courier-BoldOblique /Times-Roman /AvantGarde-Book /AvantGarde-BookOblique /AvantGarde-Demi /AvantGarde-DemiOblique /Bookman-Demi /Bookman-DemiItalic /Bookman-Light
 /Bookman-LightItalic /Helvetica-Narrow /Helvetica-Narrow-Bold /Helvetica-Narrow-BoldOblique /Helvetica-Narrow-Oblique /NewCenturySchlbk-Roman /NewCenturySchlbk-Bold /NewCenturySchlbk-BoldItalic /NewCenturySchlbk-Italic /Palatino-Bold
 /Palatino-BoldItalic /Palatino-Italic /Palatino-Roman ] {ISOLatin1Encoding reEncode } forall
%%EndProlog
%%BeginSetup
%%EndSetup
newpath  gsave  .25 .25 scale  gsave  0 0 t black[  ] 0 sd 3 lw 1 1 1 c 2268 1701 0 0 bf black 1 1 1 c 1746 1310 295 221 bf black 1746 1310 295 221 bl 1 1 1 c black 359 280 m 576 Y s 359 893 m 575 Y s 295 874 m 46 X s 378 874 m 38 X s /w 37 def /w2
 {w 2 div} def /w3 {w 3 div} def 359 874 m20 468 401 m 433 Y s 468 871 m 432 Y s 416 852 m 34 X s 486 852 m 29 X s 468 852 m20 572 584 m 280 Y s 572 901 m 280 Y s 515 883 m 39 X s 591 883 m 33 X s 572 883 m20 692 655 m 191 Y s 692 882 m 190 Y s 624
 864 m 49 X s 710 864 m 41 X s 692 864 m20 811 720 m 152 Y s 811 909 m 152 Y s 751 891 m 41 X s 829 891 m 35 X s 811 891 m20 921 738 m 128 Y s 921 903 m 128 Y s 864 885 m 39 X s 940 885 m 33 X s 921 885 m20 1041 763 m 102 Y s 1041 901 m 102 Y s 973
 883 m 49 X s 1059 883 m 41 X s 1041 883 m20 1170 784 m 89 Y s 1170 909 m 88 Y s 1100 891 m 52 X s 1188 891 m 43 X s 1170 891 m20 1300 779 m 84 Y s 1300 899 m 83 Y s 1231 881 m 51 X s 1318 881 m 43 X s 1300 881 m20 1428 776 m 83 Y s 1428 896 m 83 Y s
 1361 878 m 48 X s 1446 878 m 41 X s 1428 878 m20 1550 784 m 88 Y s 1550 909 m 88 Y s 1487 890 m 45 X s 1569 890 m 38 X s 1550 890 m20 1684 780 m 84 Y s 1684 901 m 84 Y s 1607 883 m 58 X s 1702 883 m 48 X s 1684 883 m20 1836 762 m 99 Y s 1836 897 m
 98 Y s 1750 879 m 68 X s 1854 879 m 54 X s 1836 879 m20 1979 718 m 134 Y s 1979 889 m 135 Y s 1908 871 m 53 X s 1998 871 m 43 X s 1979 871 m20 295 221 m 1746 X s
 gsave  2268 1701 0 0 C 1815.09 68.5801 t 0 r /Helvetica findfont 77.7242 sf 0 0 m ( \(GeV\)) show NC gr 
 gsave  2268 1701 0 0 C 1691.64 100.584 t 0 r /Helvetica findfont 54.8641 sf 0 0 m (reco) show NC gr 
 gsave  2268 1701 0 0 C 1691.64 22.86 t 0 r /Helvetica findfont 54.8641 sf 0 0 m (T,tag) show NC gr 
 gsave  2268 1701 0 0 C 1650.5 68.5801 t 0 r /Helvetica findfont 77.7242 sf 0 0 m (p) show NC gr  404 241 m -20 Y s
 gsave  2268 1701 0 0 C 370.333 164.592 t 0 r /Helvetica findfont 54.8641 sf 0 0 m (40) show NC gr  510 241 m -20 Y s
 gsave  2268 1701 0 0 C 475.489 164.592 t 0 r /Helvetica findfont 54.8641 sf 0 0 m (50) show NC gr  597 241 m -20 Y s
 gsave  2268 1701 0 0 C 562.357 164.592 t 0 r /Helvetica findfont 54.8641 sf 0 0 m (60) show NC gr  670 241 m -20 Y s 733 241 m -20 Y s 789 241 m -20 Y s 839 260 m -39 Y s
 gsave  2268 1701 0 0 C 839.241 163.786 t 0 r  -46 0 t /Helvetica findfont 54.8641 sf 0 0 m (100) show NC gr  1168 241 m -20 Y s
 gsave  2268 1701 0 0 C 1120.14 164.592 t 0 r /Helvetica findfont 54.8641 sf 0 0 m (200) show NC gr  1361 241 m -20 Y s
 gsave  2268 1701 0 0 C 1312.17 164.592 t 0 r /Helvetica findfont 54.8641 sf 0 0 m (300) show NC gr  1497 241 m -20 Y s
 gsave  2268 1701 0 0 C 1449.33 164.592 t 0 r /Helvetica findfont 54.8641 sf 0 0 m (400) show NC gr  1603 241 m -20 Y s 1690 241 m -20 Y s 1763 241 m -20 Y s 1826 241 m -20 Y s 1882 241 m -20 Y s 1932 260 m -39 Y s
 gsave  2268 1701 0 0 C 1931.93 163.786 t 0 r  -61 0 t /Helvetica findfont 54.8641 sf 0 0 m (1000) show NC gr  295 1531 m 1746 X s 404 1511 m 20 Y s 510 1511 m 20 Y s 597 1511 m 20 Y s 670 1511 m 20 Y s 733 1511 m 20 Y s 789 1511 m 20 Y s 839 1491 m
 40 Y s 1168 1511 m 20 Y s 1361 1511 m 20 Y s 1497 1511 m 20 Y s 1603 1511 m 20 Y s 1690 1511 m 20 Y s 1763 1511 m 20 Y s 1826 1511 m 20 Y s 1882 1511 m 20 Y s 1932 1491 m 40 Y s 295 221 m 1310 Y s
 gsave  2268 1701 0 0 C 50.2921 1376.17 t 90 r /Helvetica findfont 41.1481 sf 0 0 m (tag) show NC gr 
 gsave  2268 1701 0 0 C 123.444 1376.17 t 90 r /Helvetica findfont 41.1481 sf 0 0 m (T,scaled) show NC gr 
 gsave  2268 1701 0 0 C 86.8682 1316.74 t 90 r /Helvetica findfont 64.0081 sf 0 0 m (/p) show NC gr 
 gsave  2268 1701 0 0 C 54.8641 1161.29 t 90 r /Helvetica findfont 41.1481 sf 0 0 m (probe) show NC gr 
 gsave  2268 1701 0 0 C 123.444 1161.29 t 90 r /Helvetica findfont 41.1481 sf 0 0 m (T,scaled) show NC gr 
 gsave  2268 1701 0 0 C 86.8682 1069.85 t 90 r /Helvetica findfont 64.0081 sf 0 0 m ( \255 p) show NC gr 
 gsave  2268 1701 0 0 C 50.2921 1014.99 t 90 r /Helvetica findfont 41.1481 sf 0 0 m (tag) show NC gr 
 gsave  2268 1701 0 0 C 123.444 1014.99 t 90 r /Helvetica findfont 41.1481 sf 0 0 m (T) show NC gr 
 gsave  2268 1701 0 0 C 86.8682 955.55 t 90 r /Helvetica findfont 64.0081 sf 0 0 m (/p) show NC gr 
 gsave  2268 1701 0 0 C 54.8641 850.394 t 90 r /Helvetica findfont 41.1481 sf 0 0 m (probe) show NC gr 
 gsave  2268 1701 0 0 C 123.444 850.394 t 90 r /Helvetica findfont 41.1481 sf 0 0 m (T) show NC gr 
 gsave  2268 1701 0 0 C 86.8682 813.818 t 90 r /Helvetica findfont 64.0081 sf 0 0 m (p) show NC gr  347 373 m -52 X s 321 415 m -26 X s 321 457 m -26 X s 321 499 m -26 X s 347 542 m -52 X s 321 584 m -26 X s 321 626 m -26 X s 321 668 m -26 X s 347
 710 m -52 X s 321 753 m -26 X s 321 795 m -26 X s 321 837 m -26 X s 347 879 m -52 X s 321 921 m -26 X s 321 964 m -26 X s 321 1006 m -26 X s 347 1048 m -52 X s 321 1090 m -26 X s 321 1132 m -26 X s 321 1174 m -26 X s 347 1217 m -52 X s 321 1259 m
 -26 X s 321 1301 m -26 X s 321 1343 m -26 X s 347 1385 m -52 X s 347 373 m -52 X s 321 331 m -26 X s 321 289 m -26 X s 321 246 m -26 X s 347 1385 m -52 X s 321 1428 m -26 X s 321 1470 m -26 X s 321 1512 m -26 X s
 gsave  2268 1701 0 0 C 146.304 352.045 t 0 r /Helvetica findfont 54.8641 sf 0 0 m (0.006) show NC gr 
 gsave  2268 1701 0 0 C 114.3 352.045 t 0 r /Symbol findfont 54.8641 sf 0 0 m (-) show NC gr 
 gsave  2268 1701 0 0 C 146.304 521.209 t 0 r /Helvetica findfont 54.8641 sf 0 0 m (0.004) show NC gr 
 gsave  2268 1701 0 0 C 114.3 521.209 t 0 r /Symbol findfont 54.8641 sf 0 0 m (-) show NC gr 
 gsave  2268 1701 0 0 C 146.304 690.373 t 0 r /Helvetica findfont 54.8641 sf 0 0 m (0.002) show NC gr 
 gsave  2268 1701 0 0 C 114.3 690.373 t 0 r /Symbol findfont 54.8641 sf 0 0 m (-) show NC gr 
 gsave  2268 1701 0 0 C 251.461 859.538 t 0 r /Helvetica findfont 54.8641 sf 0 0 m (0) show NC gr 
 gsave  2268 1701 0 0 C 146.304 1028.7 t 0 r /Helvetica findfont 54.8641 sf 0 0 m (0.002) show NC gr 
 gsave  2268 1701 0 0 C 146.304 1197.87 t 0 r /Helvetica findfont 54.8641 sf 0 0 m (0.004) show NC gr 
 gsave  2268 1701 0 0 C 146.304 1367.03 t 0 r /Helvetica findfont 54.8641 sf 0 0 m (0.006) show NC gr  2041 221 m 1310 Y s 1989 373 m 52 X s 2015 415 m 26 X s 2015 457 m 26 X s 2015 499 m 26 X s 1989 542 m 52 X s 2015 584 m 26 X s 2015 626 m 26 X s
 2015 668 m 26 X s 1989 710 m 52 X s 2015 753 m 26 X s 2015 795 m 26 X s 2015 837 m 26 X s 1989 879 m 52 X s 2015 921 m 26 X s 2015 964 m 26 X s 2015 1006 m 26 X s 1989 1048 m 52 X s 2015 1090 m 26 X s 2015 1132 m 26 X s 2015 1174 m 26 X s 1989 1217
 m 52 X s 2015 1259 m 26 X s 2015 1301 m 26 X s 2015 1343 m 26 X s 1989 1385 m 52 X s 1989 373 m 52 X s 2015 331 m 26 X s 2015 289 m 26 X s 2015 246 m 26 X s 1989 1385 m 52 X s 2015 1428 m 26 X s 2015 1470 m 26 X s 2015 1512 m 26 X s
 gr  gr showpage
end
%%EOF
