%!PS-Adobe-2.0 EPSF-2.0
%%BoundingBox:  0 0 567 425
%%Title: ./plots/F/var_F.eps: 
%%Creator: ROOT Version 6.06/04
%%CreationDate: Fri Apr  3 19:46:42 2020
%%DocumentNeededResources: ProcSet (FontSetInit)
%%EndComments
%%BeginProlog
80 dict begin
/s {stroke} def /l {lineto} def /m {moveto} def /t {translate} def
/r {rotate} def /rl {roll}  def /R {repeat} def
/d {rlineto} def /rm {rmoveto} def /gr {grestore} def /f {eofill} def
/c {setrgbcolor} def /black {0 setgray} def /sd {setdash} def
/cl {closepath} def /sf {scalefont setfont} def /lw {setlinewidth} def
/box {m dup 0 exch d exch 0 d 0 exch neg d cl} def
/NC{systemdict begin initclip end}def/C{NC box clip newpath}def
/bl {box s} def /bf {gsave box gsave f grestore 1 lw [] 0 sd s grestore} def /Y { 0 exch d} def /X { 0 d} def 
/K {{pop pop 0 moveto} exch kshow} bind def
/ita {/ang 15 def gsave [1 0 ang dup sin exch cos div 1 0 0] concat} def 
/mp {newpath /y exch def /x exch def} def
/side {[w .77 mul w .23 mul] .385 w mul sd w 0 l currentpoint t -144 r} def
/mr {mp x y w2 0 360 arc} def /m24 {mr s} def /m20 {mr f} def
/mb {mp x y w2 add m w2 neg 0 d 0 w neg d w 0 d 0 w d cl} def
/mt {mp x y w2 add m w2 neg w neg d w 0 d cl} def
/m21 {mb f} def /m25 {mb s} def /m22 {mt f} def /m26{mt s} def
/m23 {mp x y w2 sub m w2 w d w neg 0 d cl f} def
/m27 {mp x y w2 add m w3 neg w2 neg d w3 w2 neg d w3 w2 d cl s} def
/m28 {mp x w2 sub y w2 sub w3 add m w3 0 d  0 w3 neg d w3 0 d 0 w3 d w3 0 d  0 w3 d w3 neg 0 d 0 w3 d w3 neg 0 d 0 w3 neg d w3 neg 0 d cl s } def
/m29 {mp gsave x w2 sub y w2 add w3 sub m currentpoint t 4 {side} repeat cl fill gr} def
/m30 {mp gsave x w2 sub y w2 add w3 sub m currentpoint t 4 {side} repeat cl s gr} def
/m31 {mp x y w2 sub m 0 w d x w2 sub y m w 0 d x w2 sub y w2 add m w w neg d x w2 sub y w2 sub m w w d s} def
/m32 {mp x y w2 sub m w2 w d w neg 0 d cl s} def
/m33 {mp x y w2 add m w3 neg w2 neg d w3 w2 neg d w3 w2 d cl f} def
/m34 {mp x w2 sub y w2 sub w3 add m w3 0 d  0 w3 neg d w3 0 d 0 w3 d w3 0 d  0 w3 d w3 neg 0 d 0 w3 d w3 neg 0 d 0 w3 neg d w3 neg 0 d cl f } def
/m2 {mp x y w2 sub m 0 w d x w2 sub y m w 0 d s} def
/m5 {mp x w2 sub y w2 sub m w w d x w2 sub y w2 add m w w neg d s} def
%%IncludeResource: ProcSet (FontSetInit)
%%IncludeResource: font Times-Roman
%%IncludeResource: font Times-Italic
%%IncludeResource: font Times-Bold
%%IncludeResource: font Times-BoldItalic
%%IncludeResource: font Helvetica
%%IncludeResource: font Helvetica-Oblique
%%IncludeResource: font Helvetica-Bold
%%IncludeResource: font Helvetica-BoldOblique
%%IncludeResource: font Courier
%%IncludeResource: font Courier-Oblique
%%IncludeResource: font Courier-Bold
%%IncludeResource: font Courier-BoldOblique
%%IncludeResource: font Symbol
%%IncludeResource: font ZapfDingbats
/reEncode {exch findfont dup length dict begin {1 index /FID eq  {pop pop} {def} ifelse } forall /Encoding exch def currentdict end dup /FontName get exch definefont pop } def [/Times-Bold /Times-Italic /Times-BoldItalic /Helvetica /Helvetica-Oblique
 /Helvetica-Bold /Helvetica-BoldOblique /Courier /Courier-Oblique /Courier-Bold /Courier-BoldOblique /Times-Roman /AvantGarde-Book /AvantGarde-BookOblique /AvantGarde-Demi /AvantGarde-DemiOblique /Bookman-Demi /Bookman-DemiItalic /Bookman-Light
 /Bookman-LightItalic /Helvetica-Narrow /Helvetica-Narrow-Bold /Helvetica-Narrow-BoldOblique /Helvetica-Narrow-Oblique /NewCenturySchlbk-Roman /NewCenturySchlbk-Bold /NewCenturySchlbk-BoldItalic /NewCenturySchlbk-Italic /Palatino-Bold
 /Palatino-BoldItalic /Palatino-Italic /Palatino-Roman ] {ISOLatin1Encoding reEncode } forall
%%EndProlog
%%BeginSetup
%%EndSetup
newpath  gsave  .25 .25 scale  gsave  0 0 t black[  ] 0 sd 3 lw 1 1 1 c 2268 1701 0 0 bf black 1 1 1 c 1701 1310 340 221 bf black 1701 1310 340 221 bl 0.8 0 0 c 1 1 1 c 0.8 0 0 c 509 549 m 350 Y s 509 926 m 350 Y s 458 912 m 37 X s 523 912 m 32 X s
 /w 29 def /w2 {w 2 div} def /w3 {w 3 div} def 509 912 m20 611 632 m 304 Y s 611 964 m 304 Y s 555 950 m 42 X s 624 950 m 37 X s 611 950 m20 727 437 m 201 Y s 727 666 m 201 Y s 661 652 m 52 X s 740 652 m 44 X s 727 652 m20 842 694 m 161 Y s 842 882 m
 162 Y s 784 869 m 45 X s 856 869 m 38 X s 842 869 m20 950 317 m 149 Y s 950 493 m 149 Y s 894 480 m 43 X s 964 480 m 37 X s 950 480 m20 1067 789 m 120 Y s 1067 937 m 120 Y s 1001 923 m 52 X s 1080 923 m 44 X s 1067 923 m20 1193 651 m 119 Y s 1193
 797 m 118 Y s 1124 783 m 55 X s 1206 783 m 46 X s 1193 783 m20 1319 850 m 120 Y s 1319 998 m 120 Y s 1252 984 m 54 X s 1333 984 m 45 X s 1319 984 m20 1444 364 m 187 Y s 1444 579 m 186 Y s 1378 565 m 52 X s 1457 565 m 44 X s 1444 565 m20 1563 606 m
 168 Y s 1563 801 m 168 Y s 1501 788 m 48 X s 1577 788 m 41 X s 1563 788 m20 1693 895 m 188 Y s 1693 1110 m 188 Y s 1618 1096 m 61 X s 1707 1096 m 51 X s 1693 1096 m20 1981 668 m 238 Y s 1981 933 m 238 Y s 1912 920 m 55 X s 1995 920 m 46 X s 1981 920
 m20 black 340 221 m 1701 X s
 gsave  2268 1701 0 0 C 1815.09 64.0081 t 0 r /Helvetica findfont 77.7242 sf 0 0 m ( \(GeV\)) show NC gr 
 gsave  2268 1701 0 0 C 1705.36 105.156 t 0 r /Helvetica findfont 54.8641 sf 0 0 m (gen) show NC gr 
 gsave  2268 1701 0 0 C 1705.36 18.288 t 0 r /Helvetica findfont 54.8641 sf 0 0 m (T,jet) show NC gr 
 gsave  2268 1701 0 0 C 1664.21 64.0081 t 0 r /Helvetica findfont 77.7242 sf 0 0 m (p) show NC gr  447 240 m -19 Y s
 gsave  2268 1701 0 0 C 411.481 164.592 t 0 r /Helvetica findfont 54.8641 sf 0 0 m (40) show NC gr  550 240 m -19 Y s
 gsave  2268 1701 0 0 C 516.637 164.592 t 0 r /Helvetica findfont 54.8641 sf 0 0 m (50) show NC gr  634 240 m -19 Y s
 gsave  2268 1701 0 0 C 598.933 164.592 t 0 r /Helvetica findfont 54.8641 sf 0 0 m (60) show NC gr  706 240 m -19 Y s 767 240 m -19 Y s 822 240 m -19 Y s 870 259 m -38 Y s
 gsave  2268 1701 0 0 C 870.454 163.786 t 0 r  -46 0 t /Helvetica findfont 54.8641 sf 0 0 m (100) show NC gr  1191 240 m -19 Y s
 gsave  2268 1701 0 0 C 1143 164.592 t 0 r /Helvetica findfont 54.8641 sf 0 0 m (200) show NC gr  1378 240 m -19 Y s
 gsave  2268 1701 0 0 C 1330.45 164.592 t 0 r /Helvetica findfont 54.8641 sf 0 0 m (300) show NC gr  1511 240 m -19 Y s
 gsave  2268 1701 0 0 C 1463.04 164.592 t 0 r /Helvetica findfont 54.8641 sf 0 0 m (400) show NC gr  1614 240 m -19 Y s 1699 240 m -19 Y s 1770 240 m -19 Y s 1832 240 m -19 Y s 1886 240 m -19 Y s 1935 259 m -38 Y s
 gsave  2268 1701 0 0 C 1934.76 163.786 t 0 r  -61 0 t /Helvetica findfont 54.8641 sf 0 0 m (1000) show NC gr  340 1531 m 1701 X s 447 1512 m 19 Y s 550 1512 m 19 Y s 634 1512 m 19 Y s 706 1512 m 19 Y s 767 1512 m 19 Y s 822 1512 m 19 Y s 870 1492 m
 39 Y s 1191 1512 m 19 Y s 1378 1512 m 19 Y s 1511 1512 m 19 Y s 1614 1512 m 19 Y s 1699 1512 m 19 Y s 1770 1512 m 19 Y s 1832 1512 m 19 Y s 1886 1512 m 19 Y s 1935 1492 m 39 Y s 340 221 m 1310 Y s
 gsave  2268 1701 0 0 C 169.164 1485.9 t 90 r /Helvetica findfont 77.7242 sf 0 0 m (F) show NC gr  393 221 m -53 X s 366 254 m -26 X s 366 287 m -26 X s 366 319 m -26 X s 366 352 m -26 X s 393 385 m -53 X s 366 418 m -26 X s 366 450 m -26 X s 366 483
 m -26 X s 366 516 m -26 X s 393 549 m -53 X s 366 581 m -26 X s 366 614 m -26 X s 366 647 m -26 X s 366 679 m -26 X s 393 712 m -53 X s 366 745 m -26 X s 366 778 m -26 X s 366 810 m -26 X s 366 843 m -26 X s 393 876 m -53 X s 366 909 m -26 X s 366
 941 m -26 X s 366 974 m -26 X s 366 1007 m -26 X s 393 1040 m -53 X s 366 1072 m -26 X s 366 1105 m -26 X s 366 1138 m -26 X s 366 1171 m -26 X s 393 1203 m -53 X s 366 1236 m -26 X s 366 1269 m -26 X s 366 1302 m -26 X s 366 1334 m -26 X s 393 1367
 m -53 X s 366 1400 m -26 X s 366 1432 m -26 X s 366 1465 m -26 X s 366 1498 m -26 X s 393 1531 m -53 X s
 gsave  2268 1701 0 0 C 219.456 201.168 t 0 r /Helvetica findfont 54.8641 sf 0 0 m (0.98) show NC gr 
 gsave  2268 1701 0 0 C 187.452 365.761 t 0 r /Helvetica findfont 54.8641 sf 0 0 m (0.985) show NC gr 
 gsave  2268 1701 0 0 C 219.456 525.781 t 0 r /Helvetica findfont 54.8641 sf 0 0 m (0.99) show NC gr 
 gsave  2268 1701 0 0 C 187.452 690.373 t 0 r /Helvetica findfont 54.8641 sf 0 0 m (0.995) show NC gr 
 gsave  2268 1701 0 0 C 301.753 854.966 t 0 r /Helvetica findfont 54.8641 sf 0 0 m (1) show NC gr 
 gsave  2268 1701 0 0 C 187.452 1019.56 t 0 r /Helvetica findfont 54.8641 sf 0 0 m (1.005) show NC gr 
 gsave  2268 1701 0 0 C 228.6 1184.15 t 0 r /Helvetica findfont 54.8641 sf 0 0 m (1.01) show NC gr 
 gsave  2268 1701 0 0 C 187.452 1344.17 t 0 r /Helvetica findfont 54.8641 sf 0 0 m (1.015) show NC gr 
 gsave  2268 1701 0 0 C 219.456 1508.76 t 0 r /Helvetica findfont 54.8641 sf 0 0 m (1.02) show NC gr  2041 221 m 1310 Y s 1989 221 m 52 X s 2015 254 m 26 X s 2015 287 m 26 X s 2015 319 m 26 X s 2015 352 m 26 X s 1989 385 m 52 X s 2015 418 m 26 X s
 2015 450 m 26 X s 2015 483 m 26 X s 2015 516 m 26 X s 1989 549 m 52 X s 2015 581 m 26 X s 2015 614 m 26 X s 2015 647 m 26 X s 2015 679 m 26 X s 1989 712 m 52 X s 2015 745 m 26 X s 2015 778 m 26 X s 2015 810 m 26 X s 2015 843 m 26 X s 1989 876 m 52 X
 s 2015 909 m 26 X s 2015 941 m 26 X s 2015 974 m 26 X s 2015 1007 m 26 X s 1989 1040 m 52 X s 2015 1072 m 26 X s 2015 1105 m 26 X s 2015 1138 m 26 X s 2015 1171 m 26 X s 1989 1203 m 52 X s 2015 1236 m 26 X s 2015 1269 m 26 X s 2015 1302 m 26 X s
 2015 1334 m 26 X s 1989 1367 m 52 X s 2015 1400 m 26 X s 2015 1432 m 26 X s 2015 1465 m 26 X s 2015 1498 m 26 X s 1989 1531 m 52 X s 0 0.6 0 c 1 1 1 c 0 0.6 0 c 509 370 m 366 Y s 509 763 m 366 Y s 458 750 m 37 X s 523 750 m 32 X s 509 750 m23 611
 467 m 328 Y s 611 823 m 328 Y s 555 809 m 42 X s 624 809 m 37 X s 611 809 m23 727 418 m 199 Y s 727 645 m 199 Y s 661 631 m 52 X s 740 631 m 44 X s 727 631 m23 842 701 m 161 Y s 842 889 m 161 Y s 784 876 m 45 X s 856 876 m 38 X s 842 876 m23 950 304
 m 153 Y s 950 484 m 152 Y s 894 470 m 43 X s 964 470 m 37 X s 950 470 m23 1067 737 m 124 Y s 1067 888 m 124 Y s 1001 875 m 52 X s 1080 875 m 44 X s 1067 875 m23 1193 641 m 119 Y s 1193 787 m 119 Y s 1124 774 m 55 X s 1206 774 m 46 X s 1193 774 m23
 1319 856 m 124 Y s 1319 1007 m 124 Y s 1252 994 m 54 X s 1333 994 m 45 X s 1319 994 m23 1444 293 m 194 Y s 1444 514 m 194 Y s 1378 500 m 52 X s 1457 500 m 44 X s 1444 500 m23 1563 618 m 166 Y s 1563 811 m 166 Y s 1501 797 m 48 X s 1577 797 m 41 X s
 1563 797 m23 1693 894 m 189 Y s 1693 1110 m 188 Y s 1618 1096 m 61 X s 1707 1096 m 51 X s 1693 1096 m23 1981 682 m 238 Y s 1981 947 m 238 Y s 1912 933 m 55 X s 1995 933 m 46 X s 1981 933 m23 black 1 1 1 c 476 221 1497 1276 bf black
 gsave  2268 1701 0 0 C 1613.92 1431.04 t 0 r /Helvetica findfont 45.7201 sf 0 0 m (b\255jet original) show NC gr  0.8 0 0 c 1556 1441 m20 black
 gsave  2268 1701 0 0 C 1613.92 1321.31 t 0 r /Helvetica findfont 45.7201 sf 0 0 m (b\255jet with scaling) show NC gr  0 0.6 0 c 1556 1331 m23
 gr  gr showpage
end
%%EOF
