%!PS-Adobe-2.0 EPSF-2.0
%%BoundingBox:  0 0 567 368
%%Title: ./plots/pT-bal/MC_diff_pTbal.eps: canvas
%%Creator: ROOT Version 6.06/04
%%CreationDate: Thu Apr 23 11:30:46 2020
%%DocumentNeededResources: ProcSet (FontSetInit)
%%EndComments
%%BeginProlog
80 dict begin
/s {stroke} def /l {lineto} def /m {moveto} def /t {translate} def
/r {rotate} def /rl {roll}  def /R {repeat} def
/d {rlineto} def /rm {rmoveto} def /gr {grestore} def /f {eofill} def
/c {setrgbcolor} def /black {0 setgray} def /sd {setdash} def
/cl {closepath} def /sf {scalefont setfont} def /lw {setlinewidth} def
/box {m dup 0 exch d exch 0 d 0 exch neg d cl} def
/NC{systemdict begin initclip end}def/C{NC box clip newpath}def
/bl {box s} def /bf {gsave box gsave f grestore 1 lw [] 0 sd s grestore} def /Y { 0 exch d} def /X { 0 d} def 
/K {{pop pop 0 moveto} exch kshow} bind def
/ita {/ang 15 def gsave [1 0 ang dup sin exch cos div 1 0 0] concat} def 
/mp {newpath /y exch def /x exch def} def
/side {[w .77 mul w .23 mul] .385 w mul sd w 0 l currentpoint t -144 r} def
/mr {mp x y w2 0 360 arc} def /m24 {mr s} def /m20 {mr f} def
/mb {mp x y w2 add m w2 neg 0 d 0 w neg d w 0 d 0 w d cl} def
/mt {mp x y w2 add m w2 neg w neg d w 0 d cl} def
/m21 {mb f} def /m25 {mb s} def /m22 {mt f} def /m26{mt s} def
/m23 {mp x y w2 sub m w2 w d w neg 0 d cl f} def
/m27 {mp x y w2 add m w3 neg w2 neg d w3 w2 neg d w3 w2 d cl s} def
/m28 {mp x w2 sub y w2 sub w3 add m w3 0 d  0 w3 neg d w3 0 d 0 w3 d w3 0 d  0 w3 d w3 neg 0 d 0 w3 d w3 neg 0 d 0 w3 neg d w3 neg 0 d cl s } def
/m29 {mp gsave x w2 sub y w2 add w3 sub m currentpoint t 4 {side} repeat cl fill gr} def
/m30 {mp gsave x w2 sub y w2 add w3 sub m currentpoint t 4 {side} repeat cl s gr} def
/m31 {mp x y w2 sub m 0 w d x w2 sub y m w 0 d x w2 sub y w2 add m w w neg d x w2 sub y w2 sub m w w d s} def
/m32 {mp x y w2 sub m w2 w d w neg 0 d cl s} def
/m33 {mp x y w2 add m w3 neg w2 neg d w3 w2 neg d w3 w2 d cl f} def
/m34 {mp x w2 sub y w2 sub w3 add m w3 0 d  0 w3 neg d w3 0 d 0 w3 d w3 0 d  0 w3 d w3 neg 0 d 0 w3 d w3 neg 0 d 0 w3 neg d w3 neg 0 d cl f } def
/m2 {mp x y w2 sub m 0 w d x w2 sub y m w 0 d s} def
/m5 {mp x w2 sub y w2 sub m w w d x w2 sub y w2 add m w w neg d s} def
%%IncludeResource: ProcSet (FontSetInit)
%%IncludeResource: font Times-Roman
%%IncludeResource: font Times-Italic
%%IncludeResource: font Times-Bold
%%IncludeResource: font Times-BoldItalic
%%IncludeResource: font Helvetica
%%IncludeResource: font Helvetica-Oblique
%%IncludeResource: font Helvetica-Bold
%%IncludeResource: font Helvetica-BoldOblique
%%IncludeResource: font Courier
%%IncludeResource: font Courier-Oblique
%%IncludeResource: font Courier-Bold
%%IncludeResource: font Courier-BoldOblique
%%IncludeResource: font Symbol
%%IncludeResource: font ZapfDingbats
/reEncode {exch findfont dup length dict begin {1 index /FID eq  {pop pop} {def} ifelse } forall /Encoding exch def currentdict end dup /FontName get exch definefont pop } def [/Times-Bold /Times-Italic /Times-BoldItalic /Helvetica /Helvetica-Oblique
 /Helvetica-Bold /Helvetica-BoldOblique /Courier /Courier-Oblique /Courier-Bold /Courier-BoldOblique /Times-Roman /AvantGarde-Book /AvantGarde-BookOblique /AvantGarde-Demi /AvantGarde-DemiOblique /Bookman-Demi /Bookman-DemiItalic /Bookman-Light
 /Bookman-LightItalic /Helvetica-Narrow /Helvetica-Narrow-Bold /Helvetica-Narrow-BoldOblique /Helvetica-Narrow-Oblique /NewCenturySchlbk-Roman /NewCenturySchlbk-Bold /NewCenturySchlbk-BoldItalic /NewCenturySchlbk-Italic /Palatino-Bold
 /Palatino-BoldItalic /Palatino-Italic /Palatino-Roman ] {ISOLatin1Encoding reEncode } forall
%%EndProlog
%%BeginSetup
%%EndSetup
newpath  gsave  .25 .25 scale  gsave  0 0 t black[  ] 0 sd 3 lw 1 1 1 c 2268 1472 0 0 bf black 1 1 1 c 2268 1472 0 0 bf black 1 1 1 c 1769 1156 272 169 bf black 1769 1156 272 169 bl 1 1 1 c black 337 222 m 524 Y s 337 746 m 524 Y s 272 746 m 65 X s
 337 746 m 58 X s /w 2 def /w2 {w 2 div} def /w3 {w 3 div} def 337 746 m20 448 328 m 398 Y s 448 726 m 398 Y s 395 726 m 53 X s 448 726 m 47 X s 448 726 m20 553 490 m 263 Y s 553 753 m 264 Y s 495 753 m 58 X s 553 753 m 52 X s 553 753 m20 674 553 m
 184 Y s 674 737 m 184 Y s 605 737 m 69 X s 674 737 m 60 X s 674 737 m20 795 610 m 150 Y s 795 760 m 150 Y s 734 760 m 61 X s 795 760 m 53 X s 795 760 m20 907 626 m 129 Y s 907 755 m 129 Y s 848 755 m 59 X s 907 755 m 52 X s 907 755 m20 1028 648 m
 105 Y s 1028 753 m 106 Y s 959 753 m 69 X s 1028 753 m 60 X s 1028 753 m20 1159 666 m 94 Y s 1159 760 m 94 Y s 1088 760 m 71 X s 1159 760 m 61 X s 1159 760 m20 1291 662 m 90 Y s 1291 752 m 89 Y s 1220 752 m 71 X s 1291 752 m 61 X s 1291 752 m20 1420
 659 m 90 Y s 1420 749 m 89 Y s 1352 749 m 68 X s 1420 749 m 59 X s 1420 749 m20 1544 666 m 94 Y s 1544 760 m 94 Y s 1479 760 m 65 X s 1544 760 m 57 X s 1544 760 m20 1679 663 m 90 Y s 1679 753 m 91 Y s 1601 753 m 78 X s 1679 753 m 67 X s 1679 753 m20
 1833 647 m 103 Y s 1833 750 m 103 Y s 1746 750 m 87 X s 1833 750 m 74 X s 1833 750 m20 1978 607 m 135 Y s 1978 742 m 136 Y s 1907 742 m 71 X s 1978 742 m 63 X s 1978 742 m20 272 169 m 1769 X s
 gsave  2268 1472 0 0 C 1901.96 82.2962 t 0 r /Times-Roman findfont 50.2921 sf 0 0 m ( [GeV]) show NC gr 
 gsave  2268 1472 0 0 C 1833.38 100.584 t 0 r /Times-Roman findfont 32.0041 sf 0 0 m (MC) show NC gr 
 gsave  2268 1472 0 0 C 1833.38 54.8641 t 0 r /Times-Roman findfont 32.0041 sf 0 0 m (T,tag) show NC gr 
 gsave  2268 1472 0 0 C 1801.37 82.2962 t 0 r /Times-Italic findfont 50.2921 sf 0 0 m (p) show NC gr  383 187 m -18 Y s 490 187 m -18 Y s 578 187 m -18 Y s 652 187 m -18 Y s 716 187 m -18 Y s 773 187 m -18 Y s 824 204 m -35 Y s
 gsave  2268 1472 0 0 C 841.25 128.016 t 0 r /Helvetica findfont 32.0041 sf 0 0 m (2) show NC gr 
 gsave  2268 1472 0 0 C 786.386 105.156 t 0 r /Helvetica findfont 50.2921 sf 0 0 m (10) show NC gr  1157 187 m -18 Y s 1352 187 m -18 Y s 1490 187 m -18 Y s 1597 187 m -18 Y s 1685 187 m -18 Y s 1759 187 m -18 Y s 1823 187 m -18 Y s 1880 187 m -18 Y
 s 1931 204 m -35 Y s
 gsave  2268 1472 0 0 C 1947.68 132.588 t 0 r /Helvetica findfont 32.0041 sf 0 0 m (3) show NC gr 
 gsave  2268 1472 0 0 C 1892.81 105.156 t 0 r /Helvetica findfont 50.2921 sf 0 0 m (10) show NC gr  272 169 m 1156 Y s
 gsave  2268 1472 0 0 C 123.444 1280.16 t 90 r /Helvetica findfont 32.0041 sf 0 0 m (tag) show NC gr 
 gsave  2268 1472 0 0 C 187.452 1280.16 t 90 r /Helvetica findfont 32.0041 sf 0 0 m (T) show NC gr 
 gsave  2268 1472 0 0 C 155.448 1234.44 t 90 r /Helvetica findfont 50.2921 sf 0 0 m (/p) show NC gr 
 gsave  2268 1472 0 0 C 132.588 1152.15 t 90 r /Helvetica findfont 32.0041 sf 0 0 m (probe) show NC gr 
 gsave  2268 1472 0 0 C 187.452 1152.15 t 90 r /Helvetica findfont 32.0041 sf 0 0 m (T) show NC gr 
 gsave  2268 1472 0 0 C 155.448 1111 t 90 r /Helvetica findfont 50.2921 sf 0 0 m ( p) show NC gr  326 303 m -54 X s 299 341 m -27 X s 299 378 m -27 X s 299 415 m -27 X s 326 452 m -54 X s 299 489 m -27 X s 299 527 m -27 X s 299 564 m -27 X s 326 601
 m -54 X s 299 638 m -27 X s 299 676 m -27 X s 299 713 m -27 X s 326 750 m -54 X s 299 787 m -27 X s 299 824 m -27 X s 299 862 m -27 X s 326 899 m -54 X s 299 936 m -27 X s 299 973 m -27 X s 299 1011 m -27 X s 326 1048 m -54 X s 299 1085 m -27 X s
 299 1122 m -27 X s 299 1160 m -27 X s 326 1197 m -54 X s 326 303 m -54 X s 299 266 m -27 X s 299 229 m -27 X s 299 192 m -27 X s 326 1197 m -54 X s 299 1234 m -27 X s 299 1271 m -27 X s 299 1308 m -27 X s
 gsave  2268 1472 0 0 C 132.588 288.037 t 0 r /Helvetica findfont 50.2921 sf 0 0 m (0.006) show NC gr 
 gsave  2268 1472 0 0 C 105.156 288.037 t 0 r /Symbol findfont 50.2921 sf 0 0 m (-) show NC gr 
 gsave  2268 1472 0 0 C 132.588 434.341 t 0 r /Helvetica findfont 50.2921 sf 0 0 m (0.004) show NC gr 
 gsave  2268 1472 0 0 C 105.156 434.341 t 0 r /Symbol findfont 50.2921 sf 0 0 m (-) show NC gr 
 gsave  2268 1472 0 0 C 132.588 585.217 t 0 r /Helvetica findfont 50.2921 sf 0 0 m (0.002) show NC gr 
 gsave  2268 1472 0 0 C 105.156 585.217 t 0 r /Symbol findfont 50.2921 sf 0 0 m (-) show NC gr 
 gsave  2268 1472 0 0 C 233.172 736.093 t 0 r /Helvetica findfont 50.2921 sf 0 0 m (0) show NC gr 
 gsave  2268 1472 0 0 C 132.588 882.398 t 0 r /Helvetica findfont 50.2921 sf 0 0 m (0.002) show NC gr 
 gsave  2268 1472 0 0 C 132.588 1033.27 t 0 r /Helvetica findfont 50.2921 sf 0 0 m (0.004) show NC gr 
 gsave  2268 1472 0 0 C 132.588 1179.58 t 0 r /Helvetica findfont 50.2921 sf 0 0 m (0.006) show NC gr  1 1 1 c 453 235 1769 1141 bf black 1769 1141 m 453 X s 2222 1141 m 235 Y s 2222 1376 m -453 X s 1769 1376 m -235 Y s 1 1 1 c black
 gsave  2268 1472 0 0 C 1865.38 1330.45 t 0 r /Helvetica findfont 50.2921 sf 0 0 m (prpTbal_px) show NC gr  1769 1318 m 453 X s
 gsave  2268 1472 0 0 C 1787.66 1266.45 t 0 r /Helvetica findfont 50.2921 sf 0 0 m (Entries ) show NC gr 
 gsave  2268 1472 0 0 C 2157.99 1271.02 t 0 r /Helvetica findfont 50.2921 sf 0 0 m ( 0) show NC gr 
 gsave  2268 1472 0 0 C 1787.66 1207.01 t 0 r /Helvetica findfont 50.2921 sf 0 0 m (Mean  ) show NC gr 
 gsave  2268 1472 0 0 C 2043.69 1211.58 t 0 r /Helvetica findfont 50.2921 sf 0 0 m (  82.77) show NC gr 
 gsave  2268 1472 0 0 C 1787.66 1147.57 t 0 r /Helvetica findfont 50.2921 sf 0 0 m (Std Dev   ) show NC gr 
 gsave  2268 1472 0 0 C 2052.83 1152.15 t 0 r /Helvetica findfont 50.2921 sf 0 0 m (   1161) show NC gr 
 gr  gr showpage
end
%%EOF
