0.116626
0.0785424
0.0524663
0.0382364
0.0296189
0.0244587
0.0196015
0.0175926
0.0149189
0.0126221
0.0108007
0.00907551
0.00698437
0.00528746
0.00400462
0.00323065
0.00286513
0.00286785
0.00330308
0.0141111
