%!PS-Adobe-2.0 EPSF-2.0
%%BoundingBox:  0 0 567 540
%%Title: plots/2M_comparison.eps: multigraph
%%Creator: ROOT Version 6.18/04
%%CreationDate: Wed Apr 28 14:55:25 2021
%%DocumentNeededResources: ProcSet (FontSetInit)
%%EndComments
%%BeginProlog
80 dict begin
/s {stroke} def /l {lineto} def /m {moveto} def /t {translate} def
/r {rotate} def /rl {roll}  def /R {repeat} def
/d {rlineto} def /rm {rmoveto} def /gr {grestore} def /f {eofill} def
/c {setrgbcolor} def /black {0 setgray} def /sd {setdash} def
/cl {closepath} def /sf {scalefont setfont} def /lw {setlinewidth} def
/box {m dup 0 exch d exch 0 d 0 exch neg d cl} def
/NC{systemdict begin initclip end}def/C{NC box clip newpath}def
/bl {box s} def /bf {gsave box gsave f grestore 1 lw [] 0 sd s grestore} def /Y { 0 exch d} def /X { 0 d} def 
/K {{pop pop 0 moveto} exch kshow} bind def
/ita {/ang 15 def gsave [1 0 ang dup sin exch cos div 1 0 0] concat} def 
/mp {newpath /y exch def /x exch def} def
/side {[w .77 mul w .23 mul] .385 w mul sd w 0 l currentpoint t -144 r} def
/mr {mp x y w2 0 360 arc} def /m24 {mr s} def /m20 {mr f} def
/mb {mp x y w2 add m w2 neg 0 d 0 w neg d w 0 d 0 w d cl} def
/mt {mp x y w2 add m w2 neg w neg d w 0 d cl} def
/w4 {w 4 div} def
/w6 {w 6 div} def
/w8 {w 8 div} def
/m21 {mb f} def /m25 {mb s} def /m22 {mt f} def /m26{mt s} def
/m23 {mp x y w2 sub m w2 w d w neg 0 d cl f} def
/m27 {mp x y w2 add m w3 neg w2 neg d w3 w2 neg d w3 w2 d cl s} def
/m28 {mp x w2 sub y w2 sub w3 add m w3 0 d  0 w3 neg d w3 0 d 0 w3 d w3 0 d  0 w3 d w3 neg 0 d 0 w3 d w3 neg 0 d 0 w3 neg d w3 neg 0 d cl s } def
/m29 {mp gsave x w2 sub y w2 add w3 sub m currentpoint t 4 {side} repeat cl fill gr} def
/m30 {mp gsave x w2 sub y w2 add w3 sub m currentpoint t 4 {side} repeat cl s gr} def
/m31 {mp x y w2 sub m 0 w d x w2 sub y m w 0 d x w2 sub y w2 add m w w neg d x w2 sub y w2 sub m w w d s} def
/m32 {mp x y w2 sub m w2 w d w neg 0 d cl s} def
/m33 {mp x y w2 add m w3 neg w2 neg d w3 w2 neg d w3 w2 d cl f} def
/m34 {mp x w2 sub y w2 sub w3 add m w3 0 d  0 w3 neg d w3 0 d 0 w3 d w3 0 d  0 w3 d w3 neg 0 d 0 w3 d w3 neg 0 d 0 w3 neg d w3 neg 0 d cl f } def
/m35 {mp x y w2 add m w2 neg w2 neg d w2 w2 neg d w2 w2 d w2 neg w2 d x y w2 sub m 0 w d x w2 sub y m w 0 d s} def
/m36 {mb x w2 sub y w2 add m w w neg d x w2 sub y w2 sub m w w d s} def
/m37 {mp x y m w4 neg w2 d w4 neg w2 neg d w2 0 d  w4 neg w2 neg d w2 0 d w4 neg w2 d w2 0 d w4 neg w2 d w4 neg w2 neg d cl s} def
/m38 {mp x w4 sub y w2 add m w4 neg w4 neg d 0 w2 neg d w4 w4 neg d w2 0 d w4 w4 d 0 w2 d w4 neg w4 d w2 neg 0 d x y w2 sub m 0 w d x w2 sub y m w 0 d cl s} def
/m39 {mp x y m w4 neg w2 d w4 neg w2 neg d w2 0 d  w4 neg w2 neg d w2 0 d w4 neg w2 d w2 0 d w4 neg w2 d w4 neg w2 neg d cl f} def
/m40 {mp x y m w4 w2 d w4 w4 neg d w2 neg w4 neg d w2 w4 neg d w4 neg w4 neg d w4 neg w2 d w4 neg w2 neg d w4 neg w4 d w2 w4 d w2 neg w4 d w4 w4 d w4 w2 neg d cl s} def
/m41 {mp x y m w4 w2 d w4 w4 neg d w2 neg w4 neg d w2 w4 neg d w4 neg w4 neg d w4 neg w2 d w4 neg w2 neg d w4 neg w4 d w2 w4 d w2 neg w4 d w4 w4 d w4 w2 neg d cl f} def
/m42 {mp x y w2 add m w8 neg w2 -3 4 div mul d w2 -3 4 div mul w8 neg d w2 3 4 div mul w8 neg d w8 w2 -3 4 div mul d w8 w2 3 4 div mul d w2 3 4 div mul w8 d w2 -3 4 div mul w8 d w8 neg w2 3 4 div mul d cl s} def
/m43 {mp x y w2 add m w8 neg w2 -3 4 div mul d w2 -3 4 div mul w8 neg d w2 3 4 div mul w8 neg d w8 w2 -3 4 div mul d w8 w2 3 4 div mul d w2 3 4 div mul w8 d w2 -3 4 div mul w8 d w8 neg w2 3 4 div mul d cl f} def
/m44 {mp x y m w6 neg w2 d w2 2 3 div mul 0 d w6 neg w2 neg d w2 w6 d 0 w2 -2 3 div mul d w2 neg w6 d w6 w2 neg d w2 -2 3 div mul 0 d w6 w2 d w2 neg w6 neg d 0 w2 2 3 div mul d w2 w6 neg d cl s} def
/m45 {mp x y m w6 neg w2 d w2 2 3 div mul 0 d w6 neg w2 neg d w2 w6 d 0 w2 -2 3 div mul d w2 neg w6 d w6 w2 neg d w2 -2 3 div mul 0 d w6 w2 d w2 neg w6 neg d 0 w2 2 3 div mul d w2 w6 neg d cl f} def
/m46 {mp x y w4 add m w4 neg w4 d w4 neg w4 neg d  w4 w4 neg d w4 neg w4 neg d w4 w4 neg d w4 w4 d w4 w4 neg d w4 w4 d w4 neg w4 d w4 w4 d w4 neg w4 d w4 neg w4 neg d cl s} def
/m47 {mp x y w4 add m w4 neg w4 d w4 neg w4 neg d w4 w4 neg d w4 neg w4 neg d  w4 w4 neg d w4 w4 d w4 w4 neg d w4 w4 d w4 neg w4 d w4 w4 d w4 neg w4 d w4 neg w4 neg d cl f} def
/m48 {mp x y w4 add m w4 neg w4 d w4 neg w4 neg d w4 w4 neg d  w4 neg w4 neg d w4 w4 neg d w4 w4 d w4 w4 neg d w4 w4 d w4 neg w4 d w4 w4 d w4 neg w4 d w4 neg w4 neg d  w4 w4 neg d w4 neg w4 neg d w4 neg w4 d w4 w4 d cl f} def
/m49 {mp x w2 sub w3 add y w2 sub w3 add m  0 w3 neg d w3 0 d 0 w3 d w3 0 d 0 w3 d w3 neg 0 d 0 w3 d w3 neg 0 d 0 w3 neg d w3 neg 0 d 0 w3 neg d w3 0 d 0 w3 d w3 0 d 0 w3 neg d w3 neg 0 d cl f } def
/m2 {mp x y w2 sub m 0 w d x w2 sub y m w 0 d s} def
/m5 {mp x w2 sub y w2 sub m w w d x w2 sub y w2 add m w w neg d s} def
%%IncludeResource: ProcSet (FontSetInit)
%%IncludeResource: font Times-Roman
%%IncludeResource: font Times-Italic
%%IncludeResource: font Times-Bold
%%IncludeResource: font Times-BoldItalic
%%IncludeResource: font Helvetica
%%IncludeResource: font Helvetica-Oblique
%%IncludeResource: font Helvetica-Bold
%%IncludeResource: font Helvetica-BoldOblique
%%IncludeResource: font Courier
%%IncludeResource: font Courier-Oblique
%%IncludeResource: font Courier-Bold
%%IncludeResource: font Courier-BoldOblique
%%IncludeResource: font Symbol
%%IncludeResource: font ZapfDingbats
/reEncode {exch findfont dup length dict begin {1 index /FID eq  {pop pop} {def} ifelse } forall /Encoding exch def currentdict end dup /FontName get exch definefont pop } def [/Times-Bold /Times-Italic /Times-BoldItalic /Helvetica /Helvetica-Oblique
 /Helvetica-Bold /Helvetica-BoldOblique /Courier /Courier-Oblique /Courier-Bold /Courier-BoldOblique /Times-Roman /AvantGarde-Book /AvantGarde-BookOblique /AvantGarde-Demi /AvantGarde-DemiOblique /Bookman-Demi /Bookman-DemiItalic /Bookman-Light
 /Bookman-LightItalic /Helvetica-Narrow /Helvetica-Narrow-Bold /Helvetica-Narrow-BoldOblique /Helvetica-Narrow-Oblique /NewCenturySchlbk-Roman /NewCenturySchlbk-Bold /NewCenturySchlbk-BoldItalic /NewCenturySchlbk-Italic /Palatino-Bold
 /Palatino-BoldItalic /Palatino-Italic /Palatino-Roman ] {ISOLatin1Encoding reEncode } forall
%%EndProlog
%%BeginSetup
%%EndSetup
newpath  gsave  .25 .25 scale  gsave  0 0 t black[  ] 0 sd 3 lw 1 1 1 c 2268 2158 0 0 bf black 1 1 1 c 1814 1727 227 216 bf black 1814 1727 227 216 bl 0.8 0 0 c 1 1 1 c 0.8 0 0 c 227 216 m 27 X s 290 216 m 27 X s /w 36 def /w2 {w 2 div} def /w3 {w 3
 div} def 272 216 m33 317 217 m 28 X s 381 217 m 27 X s 363 217 m33 408 217 m 27 X s 472 217 m 27 X s 454 217 m33 499 219 m 27 X s 562 219 m 28 X s 544 219 m33 590 221 m 27 X s 653 221 m 27 X s 635 221 m33 680 223 m 27 X s 744 223 m 27 X s 726 223
 m33 771 231 m 27 X s 835 231 m 27 X s 816 231 m33 862 237 m 27 X s 925 237 m 27 X s 907 237 m33 952 252 m 28 X s 1016 252 m 27 X s 998 252 m33 1043 273 m 27 X s 1107 273 m 27 X s 1089 273 m33 1134 307 m 27 X s 1197 307 m 28 X s 1179 307 m33 1225 355
 m 27 X s 1288 355 m 27 X s 1270 355 m33 1315 458 m 27 X s 1379 458 m 27 X s 1361 458 m33 1451 621 m 3 Y s 1451 661 m 3 Y s 1406 643 m 27 X s 1470 643 m 27 X s 1451 643 m33 1542 847 m 8 Y s 1542 891 m 8 Y s 1497 873 m 27 X s 1560 873 m 27 X s 1542
 873 m33 1633 1236 m 15 Y s 1633 1287 m 15 Y s 1587 1269 m 28 X s 1651 1269 m 27 X s 1633 1269 m33 1723 1734 m 23 Y s 1723 1794 m 23 Y s 1678 1775 m 27 X s 1742 1775 m 27 X s 1723 1775 m33 1814 1774 m 25 Y s 1814 1836 m 24 Y s 1769 1817 m 27 X s 1832
 1817 m 28 X s 1814 1817 m33 1905 1427 m 20 Y s 1905 1483 m 20 Y s 1860 1465 m 27 X s 1923 1465 m 27 X s 1905 1465 m33 1950 296 m 27 X s 2014 296 m 27 X s 1996 296 m33 black 227 216 m 1814 X s 227 268 m -52 Y s 313 242 m -26 Y s 400 242 m -26 Y s 486
 242 m -26 Y s 572 268 m -52 Y s 659 242 m -26 Y s 745 242 m -26 Y s 831 242 m -26 Y s 918 268 m -52 Y s 1004 242 m -26 Y s 1091 242 m -26 Y s 1177 242 m -26 Y s 1263 268 m -52 Y s 1350 242 m -26 Y s 1436 242 m -26 Y s 1523 242 m -26 Y s 1609 268 m
 -52 Y s 1695 242 m -26 Y s 1782 242 m -26 Y s 1868 242 m -26 Y s 1955 268 m -52 Y s 1955 268 m -52 Y s
 gsave  2268 2158 0 0 C 204.914 145.717 t 0 r /Helvetica findfont 68.3047 sf 0 0 m (0) show NC gr 
 gsave  2268 2158 0 0 C 519.116 145.717 t 0 r /Helvetica findfont 68.3047 sf 0 0 m (0.2) show NC gr 
 gsave  2268 2158 0 0 C 865.193 145.717 t 0 r /Helvetica findfont 68.3047 sf 0 0 m (0.4) show NC gr 
 gsave  2268 2158 0 0 C 1211.27 145.717 t 0 r /Helvetica findfont 68.3047 sf 0 0 m (0.6) show NC gr 
 gsave  2268 2158 0 0 C 1557.35 145.717 t 0 r /Helvetica findfont 68.3047 sf 0 0 m (0.8) show NC gr 
 gsave  2268 2158 0 0 C 1939.85 145.717 t 0 r /Helvetica findfont 68.3047 sf 0 0 m (1) show NC gr 
 gsave  2268 2158 0 0 C 1903.42 68.3047 t 0 r /Helvetica findfont 81.9657 sf 0 0 m (\(jet\)) show NC gr 
 gsave  2268 2158 0 0 C 1867 27.3219 t 0 r /Helvetica findfont 54.6438 sf 0 0 m (T) show NC gr 
 gsave  2268 2158 0 0 C 1689.4 68.3047 t 0 r /Helvetica findfont 81.9657 sf 0 0 m (\(B\)/p) show NC gr 
 gsave  2268 2158 0 0 C 1652.97 27.3219 t 0 r /Helvetica findfont 54.6438 sf 0 0 m (T) show NC gr 
 gsave  2268 2158 0 0 C 1557.35 68.3047 t 0 r /Helvetica findfont 81.9657 sf 0 0 m (=p) show NC gr 
 gsave  2268 2158 0 0 C 1520.92 45.5365 t 0 r /Helvetica findfont 54.6438 sf 0 0 m (B) show NC gr 
 gsave  2268 2158 0 0 C 1479.94 68.3047 t 0 r /Helvetica findfont 81.9657 sf 0 0 m (x) show NC gr  227 216 m 1727 Y s 281 216 m -54 X s 254 254 m -27 X s 254 292 m -27 X s 254 330 m -27 X s 254 368 m -27 X s 281 406 m -54 X s 254 444 m -27 X s 254
 482 m -27 X s 254 520 m -27 X s 254 558 m -27 X s 281 596 m -54 X s 254 634 m -27 X s 254 672 m -27 X s 254 710 m -27 X s 254 749 m -27 X s 281 787 m -54 X s 254 825 m -27 X s 254 863 m -27 X s 254 901 m -27 X s 254 939 m -27 X s 281 977 m -54 X s
 254 1015 m -27 X s 254 1053 m -27 X s 254 1091 m -27 X s 254 1129 m -27 X s 281 1167 m -54 X s 254 1205 m -27 X s 254 1243 m -27 X s 254 1281 m -27 X s 254 1319 m -27 X s 281 1357 m -54 X s 254 1395 m -27 X s 254 1433 m -27 X s 254 1471 m -27 X s
 254 1509 m -27 X s 281 1547 m -54 X s 254 1586 m -27 X s 254 1624 m -27 X s 254 1662 m -27 X s 254 1700 m -27 X s 281 1738 m -54 X s 254 1776 m -27 X s 254 1814 m -27 X s 254 1852 m -27 X s 254 1890 m -27 X s 281 1928 m -54 X s 281 1928 m -54 X s
 gsave  2268 2158 0 0 C 177.592 191.253 t 0 r /Helvetica findfont 68.3047 sf 0 0 m (0) show NC gr 
 gsave  2268 2158 0 0 C 118.395 382.506 t 0 r /Helvetica findfont 68.3047 sf 0 0 m (0.5) show NC gr 
 gsave  2268 2158 0 0 C 186.7 569.206 t 0 r /Helvetica findfont 68.3047 sf 0 0 m (1) show NC gr 
 gsave  2268 2158 0 0 C 118.395 760.459 t 0 r /Helvetica findfont 68.3047 sf 0 0 m (1.5) show NC gr 
 gsave  2268 2158 0 0 C 177.592 951.712 t 0 r /Helvetica findfont 68.3047 sf 0 0 m (2) show NC gr 
 gsave  2268 2158 0 0 C 118.395 1142.97 t 0 r /Helvetica findfont 68.3047 sf 0 0 m (2.5) show NC gr 
 gsave  2268 2158 0 0 C 177.592 1334.22 t 0 r /Helvetica findfont 68.3047 sf 0 0 m (3) show NC gr 
 gsave  2268 2158 0 0 C 118.395 1520.92 t 0 r /Helvetica findfont 68.3047 sf 0 0 m (3.5) show NC gr 
 gsave  2268 2158 0 0 C 177.592 1712.17 t 0 r /Helvetica findfont 68.3047 sf 0 0 m (4) show NC gr 
 gsave  2268 2158 0 0 C 118.395 1903.42 t 0 r /Helvetica findfont 68.3047 sf 0 0 m (4.5) show NC gr 
 gsave  2268 2158 0 0 C 127.502 1907.98 t 90 r /Helvetica findfont 54.6438 sf 0 0 m (B) show NC gr 
 gsave  2268 2158 0 0 C 95.6266 1543.69 t 90 r /Helvetica findfont 81.9657 sf 0 0 m (1/N dN/dx) show NC gr  1 1 1 c black
 gsave  2268 2158 0 0 C 610.189 2053.7 t 0 r /Helvetica findfont 109.288 sf 0 0 m ( distribution comparison) show NC gr 
 gsave  2268 2158 0 0 C 560.099 2021.82 t 0 r /Helvetica findfont 72.8584 sf 0 0 m (B) show NC gr 
 gsave  2268 2158 0 0 C 505.455 2053.7 t 0 r /Helvetica findfont 109.288 sf 0 0 m (x) show NC gr  1 1 1 c 431 388 476 1425 bf black
 gsave  2268 2158 0 0 C 619.296 1607.44 t 0 r /Helvetica findfont 45.5365 sf 0 0 m ( = 0.843 \(new\)) show NC gr 
 gsave  2268 2158 0 0 C 601.081 1593.78 t 0 r /Helvetica findfont 27.3219 sf 0 0 m (B) show NC gr 
 gsave  2268 2158 0 0 C 582.867 1607.44 t 0 r /Helvetica findfont 45.5365 sf 0 0 m (r) show NC gr  0.8 0 0 c 530 1619 m33 1 1 1 c black
 gsave  2268 2158 0 0 C 610.189 2053.7 t 0 r /Helvetica findfont 109.288 sf 0 0 m ( distribution comparison) show NC gr 
 gsave  2268 2158 0 0 C 560.099 2021.82 t 0 r /Helvetica findfont 72.8584 sf 0 0 m (B) show NC gr 
 gsave  2268 2158 0 0 C 505.455 2053.7 t 0 r /Helvetica findfont 109.288 sf 0 0 m (x) show NC gr 
 gr  gr showpage
end
%%EOF
