%!PS-Adobe-2.0 EPSF-2.0
%%BoundingBox:  0 0 567 425
%%Title: ./plots/Rjet/Rjet.eps: 
%%Creator: ROOT Version 6.06/04
%%CreationDate: Fri Apr  3 19:18:39 2020
%%DocumentNeededResources: ProcSet (FontSetInit)
%%EndComments
%%BeginProlog
80 dict begin
/s {stroke} def /l {lineto} def /m {moveto} def /t {translate} def
/r {rotate} def /rl {roll}  def /R {repeat} def
/d {rlineto} def /rm {rmoveto} def /gr {grestore} def /f {eofill} def
/c {setrgbcolor} def /black {0 setgray} def /sd {setdash} def
/cl {closepath} def /sf {scalefont setfont} def /lw {setlinewidth} def
/box {m dup 0 exch d exch 0 d 0 exch neg d cl} def
/NC{systemdict begin initclip end}def/C{NC box clip newpath}def
/bl {box s} def /bf {gsave box gsave f grestore 1 lw [] 0 sd s grestore} def /Y { 0 exch d} def /X { 0 d} def 
/K {{pop pop 0 moveto} exch kshow} bind def
/ita {/ang 15 def gsave [1 0 ang dup sin exch cos div 1 0 0] concat} def 
/mp {newpath /y exch def /x exch def} def
/side {[w .77 mul w .23 mul] .385 w mul sd w 0 l currentpoint t -144 r} def
/mr {mp x y w2 0 360 arc} def /m24 {mr s} def /m20 {mr f} def
/mb {mp x y w2 add m w2 neg 0 d 0 w neg d w 0 d 0 w d cl} def
/mt {mp x y w2 add m w2 neg w neg d w 0 d cl} def
/m21 {mb f} def /m25 {mb s} def /m22 {mt f} def /m26{mt s} def
/m23 {mp x y w2 sub m w2 w d w neg 0 d cl f} def
/m27 {mp x y w2 add m w3 neg w2 neg d w3 w2 neg d w3 w2 d cl s} def
/m28 {mp x w2 sub y w2 sub w3 add m w3 0 d  0 w3 neg d w3 0 d 0 w3 d w3 0 d  0 w3 d w3 neg 0 d 0 w3 d w3 neg 0 d 0 w3 neg d w3 neg 0 d cl s } def
/m29 {mp gsave x w2 sub y w2 add w3 sub m currentpoint t 4 {side} repeat cl fill gr} def
/m30 {mp gsave x w2 sub y w2 add w3 sub m currentpoint t 4 {side} repeat cl s gr} def
/m31 {mp x y w2 sub m 0 w d x w2 sub y m w 0 d x w2 sub y w2 add m w w neg d x w2 sub y w2 sub m w w d s} def
/m32 {mp x y w2 sub m w2 w d w neg 0 d cl s} def
/m33 {mp x y w2 add m w3 neg w2 neg d w3 w2 neg d w3 w2 d cl f} def
/m34 {mp x w2 sub y w2 sub w3 add m w3 0 d  0 w3 neg d w3 0 d 0 w3 d w3 0 d  0 w3 d w3 neg 0 d 0 w3 d w3 neg 0 d 0 w3 neg d w3 neg 0 d cl f } def
/m2 {mp x y w2 sub m 0 w d x w2 sub y m w 0 d s} def
/m5 {mp x w2 sub y w2 sub m w w d x w2 sub y w2 add m w w neg d s} def
%%IncludeResource: ProcSet (FontSetInit)
%%IncludeResource: font Times-Roman
%%IncludeResource: font Times-Italic
%%IncludeResource: font Times-Bold
%%IncludeResource: font Times-BoldItalic
%%IncludeResource: font Helvetica
%%IncludeResource: font Helvetica-Oblique
%%IncludeResource: font Helvetica-Bold
%%IncludeResource: font Helvetica-BoldOblique
%%IncludeResource: font Courier
%%IncludeResource: font Courier-Oblique
%%IncludeResource: font Courier-Bold
%%IncludeResource: font Courier-BoldOblique
%%IncludeResource: font Symbol
%%IncludeResource: font ZapfDingbats
/reEncode {exch findfont dup length dict begin {1 index /FID eq  {pop pop} {def} ifelse } forall /Encoding exch def currentdict end dup /FontName get exch definefont pop } def [/Times-Bold /Times-Italic /Times-BoldItalic /Helvetica /Helvetica-Oblique
 /Helvetica-Bold /Helvetica-BoldOblique /Courier /Courier-Oblique /Courier-Bold /Courier-BoldOblique /Times-Roman /AvantGarde-Book /AvantGarde-BookOblique /AvantGarde-Demi /AvantGarde-DemiOblique /Bookman-Demi /Bookman-DemiItalic /Bookman-Light
 /Bookman-LightItalic /Helvetica-Narrow /Helvetica-Narrow-Bold /Helvetica-Narrow-BoldOblique /Helvetica-Narrow-Oblique /NewCenturySchlbk-Roman /NewCenturySchlbk-Bold /NewCenturySchlbk-BoldItalic /NewCenturySchlbk-Italic /Palatino-Bold
 /Palatino-BoldItalic /Palatino-Italic /Palatino-Roman ] {ISOLatin1Encoding reEncode } forall
%%EndProlog
%%BeginSetup
%%EndSetup
newpath  gsave  .25 .25 scale  gsave  0 0 t black[  ] 0 sd 3 lw 1 1 1 c 2268 1701 0 0 bf black 1 1 1 c 1701 1310 340 221 bf black 1701 1310 340 221 bl 1 1 1 c black 403 701 m 200 Y s 403 937 m 199 Y s 340 919 m 45 X s 421 919 m 37 X s /w 37 def /w2
 {w 2 div} def /w3 {w 3 div} def 403 919 m24 509 599 m 137 Y s 509 773 m 137 Y s 458 754 m 33 X s 527 754 m 28 X s 509 754 m24 611 854 m 94 Y s 611 984 m 93 Y s 555 966 m 37 X s 629 966 m 32 X s 611 966 m24 727 867 m 61 Y s 727 965 m 61 Y s 661 947 m
 47 X s 745 947 m 39 X s 727 947 m24 842 999 m 46 Y s 842 1081 m 46 Y s 784 1063 m 40 X s 861 1063 m 33 X s 842 1063 m24 950 1194 m 34 Y s 950 1264 m 34 Y s 894 1246 m 38 X s 969 1246 m 32 X s 950 1246 m24 1067 1210 m 24 Y s 1067 1270 m 24 Y s 1001
 1252 m 47 X s 1085 1252 m 39 X s 1067 1252 m24 1193 1250 m 20 Y s 1193 1307 m 20 Y s 1124 1289 m 50 X s 1211 1289 m 41 X s 1193 1289 m24 1319 1294 m 19 Y s 1319 1350 m 19 Y s 1252 1331 m 49 X s 1338 1331 m 40 X s 1319 1331 m24 1444 1247 m 19 Y s
 1444 1303 m 19 Y s 1378 1284 m 47 X s 1462 1284 m 39 X s 1444 1284 m24 1563 1181 m 23 Y s 1563 1241 m 23 Y s 1501 1222 m 44 X s 1581 1222 m 37 X s 1563 1222 m24 1693 1050 m 24 Y s 1693 1111 m 23 Y s 1618 1092 m 57 X s 1711 1092 m 47 X s 1693 1092
 m24 1841 904 m 41 Y s 1841 981 m 41 Y s 1758 963 m 65 X s 1859 963 m 53 X s 1841 963 m24 1981 727 m 55 Y s 1981 819 m 55 Y s 1912 801 m 51 X s 1999 801 m 42 X s 1981 801 m24 340 221 m 1701 X s
 gsave  2268 1701 0 0 C 1815.09 64.0081 t 0 r /Helvetica findfont 77.7242 sf 0 0 m ( \(GeV\)) show NC gr 
 gsave  2268 1701 0 0 C 1705.36 105.156 t 0 r /Helvetica findfont 54.8641 sf 0 0 m (gen) show NC gr 
 gsave  2268 1701 0 0 C 1705.36 18.288 t 0 r /Helvetica findfont 54.8641 sf 0 0 m (T,jet) show NC gr 
 gsave  2268 1701 0 0 C 1664.21 64.0081 t 0 r /Helvetica findfont 77.7242 sf 0 0 m (p) show NC gr  447 240 m -19 Y s
 gsave  2268 1701 0 0 C 411.481 164.592 t 0 r /Helvetica findfont 54.8641 sf 0 0 m (40) show NC gr  550 240 m -19 Y s
 gsave  2268 1701 0 0 C 516.637 164.592 t 0 r /Helvetica findfont 54.8641 sf 0 0 m (50) show NC gr  634 240 m -19 Y s
 gsave  2268 1701 0 0 C 598.933 164.592 t 0 r /Helvetica findfont 54.8641 sf 0 0 m (60) show NC gr  706 240 m -19 Y s 767 240 m -19 Y s 822 240 m -19 Y s 870 259 m -38 Y s
 gsave  2268 1701 0 0 C 870.454 163.786 t 0 r  -46 0 t /Helvetica findfont 54.8641 sf 0 0 m (100) show NC gr  1191 240 m -19 Y s
 gsave  2268 1701 0 0 C 1143 164.592 t 0 r /Helvetica findfont 54.8641 sf 0 0 m (200) show NC gr  1378 240 m -19 Y s
 gsave  2268 1701 0 0 C 1330.45 164.592 t 0 r /Helvetica findfont 54.8641 sf 0 0 m (300) show NC gr  1511 240 m -19 Y s
 gsave  2268 1701 0 0 C 1463.04 164.592 t 0 r /Helvetica findfont 54.8641 sf 0 0 m (400) show NC gr  1614 240 m -19 Y s 1699 240 m -19 Y s 1770 240 m -19 Y s 1832 240 m -19 Y s 1886 240 m -19 Y s 1935 259 m -38 Y s
 gsave  2268 1701 0 0 C 1934.76 163.786 t 0 r  -61 0 t /Helvetica findfont 54.8641 sf 0 0 m (1000) show NC gr  340 1531 m 1701 X s 447 1512 m 19 Y s 550 1512 m 19 Y s 634 1512 m 19 Y s 706 1512 m 19 Y s 767 1512 m 19 Y s 822 1512 m 19 Y s 870 1492 m
 39 Y s 1191 1512 m 19 Y s 1378 1512 m 19 Y s 1511 1512 m 19 Y s 1614 1512 m 19 Y s 1699 1512 m 19 Y s 1770 1512 m 19 Y s 1832 1512 m 19 Y s 1886 1512 m 19 Y s 1935 1492 m 39 Y s 340 221 m 1310 Y s
 gsave  2268 1701 0 0 C 173.736 1467.61 t 90 r /Helvetica findfont 54.8641 sf 0 0 m (jet) show NC gr 
 gsave  2268 1701 0 0 C 150.876 1412.75 t 90 r /Helvetica findfont 77.7242 sf 0 0 m (R) show NC gr  393 221 m -53 X s 366 247 m -26 X s 366 273 m -26 X s 366 300 m -26 X s 366 326 m -26 X s 393 352 m -53 X s 366 378 m -26 X s 366 404 m -26 X s 366
 431 m -26 X s 366 457 m -26 X s 393 483 m -53 X s 366 509 m -26 X s 366 535 m -26 X s 366 562 m -26 X s 366 588 m -26 X s 393 614 m -53 X s 366 640 m -26 X s 366 666 m -26 X s 366 693 m -26 X s 366 719 m -26 X s 393 745 m -53 X s 366 771 m -26 X s
 366 797 m -26 X s 366 824 m -26 X s 366 850 m -26 X s 393 876 m -53 X s 366 902 m -26 X s 366 928 m -26 X s 366 954 m -26 X s 366 981 m -26 X s 393 1007 m -53 X s 366 1033 m -26 X s 366 1059 m -26 X s 366 1085 m -26 X s 366 1112 m -26 X s 393 1138 m
 -53 X s 366 1164 m -26 X s 366 1190 m -26 X s 366 1216 m -26 X s 366 1243 m -26 X s 393 1269 m -53 X s 366 1295 m -26 X s 366 1321 m -26 X s 366 1347 m -26 X s 366 1374 m -26 X s 393 1400 m -53 X s 366 1426 m -26 X s 366 1452 m -26 X s 366 1478 m
 -26 X s 366 1505 m -26 X s 393 1531 m -53 X s 393 1531 m -53 X s
 gsave  2268 1701 0 0 C 246.888 201.168 t 0 r /Helvetica findfont 54.8641 sf 0 0 m (0.9) show NC gr 
 gsave  2268 1701 0 0 C 187.452 333.757 t 0 r /Helvetica findfont 54.8641 sf 0 0 m (0.905) show NC gr 
 gsave  2268 1701 0 0 C 228.6 461.773 t 0 r /Helvetica findfont 54.8641 sf 0 0 m (0.91) show NC gr 
 gsave  2268 1701 0 0 C 187.452 594.361 t 0 r /Helvetica findfont 54.8641 sf 0 0 m (0.915) show NC gr 
 gsave  2268 1701 0 0 C 219.456 722.377 t 0 r /Helvetica findfont 54.8641 sf 0 0 m (0.92) show NC gr 
 gsave  2268 1701 0 0 C 187.452 854.966 t 0 r /Helvetica findfont 54.8641 sf 0 0 m (0.925) show NC gr 
 gsave  2268 1701 0 0 C 219.456 987.554 t 0 r /Helvetica findfont 54.8641 sf 0 0 m (0.93) show NC gr 
 gsave  2268 1701 0 0 C 187.452 1115.57 t 0 r /Helvetica findfont 54.8641 sf 0 0 m (0.935) show NC gr 
 gsave  2268 1701 0 0 C 219.456 1248.16 t 0 r /Helvetica findfont 54.8641 sf 0 0 m (0.94) show NC gr 
 gsave  2268 1701 0 0 C 187.452 1380.75 t 0 r /Helvetica findfont 54.8641 sf 0 0 m (0.945) show NC gr 
 gsave  2268 1701 0 0 C 219.456 1508.76 t 0 r /Helvetica findfont 54.8641 sf 0 0 m (0.95) show NC gr  2041 221 m 1310 Y s 1989 221 m 52 X s 2015 247 m 26 X s 2015 273 m 26 X s 2015 300 m 26 X s 2015 326 m 26 X s 1989 352 m 52 X s 2015 378 m 26 X s
 2015 404 m 26 X s 2015 431 m 26 X s 2015 457 m 26 X s 1989 483 m 52 X s 2015 509 m 26 X s 2015 535 m 26 X s 2015 562 m 26 X s 2015 588 m 26 X s 1989 614 m 52 X s 2015 640 m 26 X s 2015 666 m 26 X s 2015 693 m 26 X s 2015 719 m 26 X s 1989 745 m 52 X
 s 2015 771 m 26 X s 2015 797 m 26 X s 2015 824 m 26 X s 2015 850 m 26 X s 1989 876 m 52 X s 2015 902 m 26 X s 2015 928 m 26 X s 2015 954 m 26 X s 2015 981 m 26 X s 1989 1007 m 52 X s 2015 1033 m 26 X s 2015 1059 m 26 X s 2015 1085 m 26 X s 2015 1112
 m 26 X s 1989 1138 m 52 X s 2015 1164 m 26 X s 2015 1190 m 26 X s 2015 1216 m 26 X s 2015 1243 m 26 X s 1989 1269 m 52 X s 2015 1295 m 26 X s 2015 1321 m 26 X s 2015 1347 m 26 X s 2015 1374 m 26 X s 1989 1400 m 52 X s 2015 1426 m 26 X s 2015 1452 m
 26 X s 2015 1478 m 26 X s 2015 1505 m 26 X s 1989 1531 m 52 X s 1989 1531 m 52 X s 0.8 0 0 c 1 1 1 c 0.8 0 0 c 509 221 m 154 Y s 509 411 m 461 Y s 458 393 m 33 X s 527 393 m 28 X s 509 393 m20 611 911 m 233 Y s 611 1181 m 233 Y s 555 1162 m 37 X s
 629 1162 m 32 X s 611 1162 m20 727 443 m 239 Y s 727 718 m 239 Y s 661 700 m 47 X s 745 700 m 39 X s 727 700 m20 842 1145 m 167 Y s 842 1348 m 168 Y s 784 1330 m 40 X s 861 1330 m 33 X s 842 1330 m20 950 914 m 167 Y s 950 1118 m 166 Y s 894 1099 m
 38 X s 969 1099 m 32 X s 950 1099 m20 1067 897 m 140 Y s 1067 1074 m 140 Y s 1001 1055 m 47 X s 1085 1055 m 39 X s 1067 1055 m20 1193 1072 m 150 Y s 1193 1259 m 151 Y s 1124 1241 m 50 X s 1211 1241 m 41 X s 1193 1241 m20 1319 1193 m 142 Y s 1319
 1371 m 141 Y s 1252 1353 m 49 X s 1338 1353 m 40 X s 1319 1353 m20 1444 659 m 164 Y s 1444 860 m 164 Y s 1378 841 m 47 X s 1462 841 m 39 X s 1444 841 m20 1563 550 m 346 Y s 1563 933 m 347 Y s 1501 915 m 44 X s 1581 915 m 37 X s 1563 915 m20 1693 742
 m 280 Y s 1693 1059 m 280 Y s 1618 1041 m 57 X s 1711 1041 m 47 X s 1693 1041 m20 1841 975 m 484 Y s 1841 1496 m 35 Y s 1758 1478 m 65 X s 1859 1478 m 53 X s 1841 1478 m20 1912 904 m 51 X s 1999 904 m 42 X s 1981 904 m20 0 0 0.8 c 1 1 1 c 0 0 0.8 c
 403 916 m 334 Y s 403 1287 m 244 Y s 340 1268 m 45 X s 421 1268 m 37 X s 403 1268 m21 509 221 m 245 Y s 509 503 m 276 Y s 458 485 m 33 X s 527 485 m 28 X s 509 485 m21 611 377 m 195 Y s 611 609 m 196 Y s 555 591 m 37 X s 629 591 m 32 X s 611 591 m21
 727 329 m 173 Y s 727 539 m 173 Y s 661 520 m 47 X s 745 520 m 39 X s 727 520 m21 842 605 m 128 Y s 842 770 m 128 Y s 784 752 m 40 X s 861 752 m 33 X s 842 752 m21 950 632 m 118 Y s 950 787 m 118 Y s 894 768 m 38 X s 969 768 m 32 X s 950 768 m21
 1067 994 m 84 Y s 1067 1114 m 84 Y s 1001 1096 m 47 X s 1085 1096 m 39 X s 1067 1096 m21 1193 1022 m 65 Y s 1193 1124 m 65 Y s 1124 1106 m 50 X s 1211 1106 m 41 X s 1193 1106 m21 1319 1089 m 69 Y s 1319 1195 m 69 Y s 1252 1176 m 49 X s 1338 1176 m
 40 X s 1319 1176 m21 1444 1003 m 57 Y s 1444 1096 m 57 Y s 1378 1078 m 47 X s 1462 1078 m 39 X s 1444 1078 m21 1563 1126 m 52 Y s 1563 1215 m 52 Y s 1501 1196 m 44 X s 1581 1196 m 37 X s 1563 1196 m21 1693 938 m 43 Y s 1693 1017 m 42 Y s 1618 999 m
 57 X s 1711 999 m 47 X s 1693 999 m21 1841 804 m 55 Y s 1841 896 m 55 Y s 1758 877 m 65 X s 1859 877 m 53 X s 1841 877 m21 1981 683 m 49 Y s 1981 769 m 49 Y s 1912 751 m 51 X s 1999 751 m 42 X s 1981 751 m21 0.6 0 0.6 c 1 1 1 c 0.6 0 0.6 c 403 786 m
 328 Y s 403 1150 m 328 Y s 340 1132 m 45 X s 421 1132 m 37 X s 403 1132 m33 509 749 m 182 Y s 509 968 m 182 Y s 458 950 m 33 X s 527 950 m 28 X s 509 950 m33 611 1046 m 136 Y s 611 1219 m 136 Y s 555 1200 m 37 X s 629 1200 m 32 X s 611 1200 m33 727
 1139 m 84 Y s 727 1259 m 84 Y s 661 1241 m 47 X s 745 1241 m 39 X s 727 1241 m33 842 1177 m 64 Y s 842 1278 m 64 Y s 784 1260 m 40 X s 861 1260 m 33 X s 842 1260 m33 950 1363 m 48 Y s 950 1448 m 48 Y s 894 1430 m 38 X s 969 1430 m 32 X s 950 1430
 m33 1067 1340 m 35 Y s 1067 1411 m 35 Y s 1001 1393 m 47 X s 1085 1393 m 39 X s 1067 1393 m33 1193 1313 m 30 Y s 1193 1380 m 31 Y s 1124 1362 m 50 X s 1211 1362 m 41 X s 1193 1362 m33 1319 1359 m 25 Y s 1319 1421 m 25 Y s 1252 1402 m 49 X s 1338
 1402 m 40 X s 1319 1402 m33 1444 1364 m 29 Y s 1444 1430 m 28 Y s 1378 1411 m 47 X s 1462 1411 m 39 X s 1444 1411 m33 1563 1189 m 37 Y s 1563 1263 m 37 Y s 1501 1245 m 44 X s 1581 1245 m 37 X s 1563 1245 m33 1693 1078 m 43 Y s 1693 1158 m 43 Y s
 1618 1140 m 57 X s 1711 1140 m 47 X s 1693 1140 m33 1841 935 m 78 Y s 1841 1050 m 79 Y s 1758 1032 m 65 X s 1859 1032 m 53 X s 1841 1032 m33 1981 816 m 122 Y s 1981 974 m 123 Y s 1912 956 m 51 X s 1999 956 m 42 X s 1981 956 m33 1 0.6 0.2 c 1 1 1 c 1
 0.6 0.2 c 509 221 m 408 Y s 509 666 m 563 Y s 458 648 m 33 X s 527 648 m 28 X s 509 648 m22 611 221 m 191 Y s 611 448 m 383 Y s 555 430 m 37 X s 629 430 m 32 X s 611 430 m22 727 307 m 212 Y s 727 555 m 212 Y s 661 537 m 47 X s 745 537 m 39 X s 727
 537 m22 842 520 m 183 Y s 842 740 m 183 Y s 784 721 m 40 X s 861 721 m 33 X s 842 721 m22 950 1021 m 125 Y s 950 1182 m 125 Y s 894 1164 m 38 X s 969 1164 m 32 X s 950 1164 m22 1067 644 m 122 Y s 1067 803 m 122 Y s 1001 785 m 47 X s 1085 785 m 39 X
 s 1067 785 m22 1193 872 m 109 Y s 1193 1017 m 109 Y s 1124 999 m 50 X s 1211 999 m 41 X s 1193 999 m22 1319 788 m 159 Y s 1319 984 m 158 Y s 1252 965 m 49 X s 1338 965 m 40 X s 1319 965 m22 1444 928 m 126 Y s 1444 1091 m 125 Y s 1378 1072 m 47 X s
 1462 1072 m 39 X s 1444 1072 m22 1563 833 m 174 Y s 1563 1044 m 174 Y s 1501 1025 m 44 X s 1581 1025 m 37 X s 1563 1025 m22 1693 711 m 155 Y s 1693 903 m 155 Y s 1618 884 m 57 X s 1711 884 m 47 X s 1693 884 m22 1841 727 m 284 Y s 1841 1048 m 284 Y s
 1758 1029 m 65 X s 1859 1029 m 53 X s 1841 1029 m22 0 0.6 0 c 1 1 1 c 0 0.6 0 c 403 262 m 647 Y s 403 946 m 585 Y s 340 927 m 45 X s 421 927 m 37 X s 403 927 m23 509 221 m 92 Y s 509 350 m 770 Y s 458 332 m 33 X s 527 332 m 28 X s 509 332 m23 611
 488 m 397 Y s 611 921 m 397 Y s 555 903 m 37 X s 629 903 m 32 X s 611 903 m23 727 362 m 325 Y s 727 724 m 326 Y s 661 706 m 47 X s 745 706 m 39 X s 727 706 m23 842 617 m 221 Y s 842 875 m 220 Y s 784 856 m 40 X s 861 856 m 33 X s 842 856 m23 950 745
 m 171 Y s 950 952 m 171 Y s 894 934 m 38 X s 969 934 m 32 X s 950 934 m23 1067 1263 m 108 Y s 1067 1407 m 108 Y s 1001 1389 m 47 X s 1085 1389 m 39 X s 1067 1389 m23 1193 1366 m 127 Y s 1193 1530 m 1 Y s 1124 1512 m 50 X s 1211 1512 m 41 X s 1193
 1512 m23 1319 1168 m 210 Y s 1319 1415 m 116 Y s 1252 1396 m 49 X s 1338 1396 m 40 X s 1319 1396 m23 1444 705 m 181 Y s 1444 922 m 181 Y s 1378 904 m 47 X s 1462 904 m 39 X s 1444 904 m23 1563 1314 m 128 Y s 1563 1479 m 52 Y s 1501 1461 m 44 X s
 1581 1461 m 37 X s 1563 1461 m23 1693 1214 m 204 Y s 1693 1454 m 77 Y s 1618 1436 m 57 X s 1711 1436 m 47 X s 1693 1436 m23 1841 494 m 313 Y s 1841 843 m 313 Y s 1758 825 m 65 X s 1859 825 m 53 X s 1841 825 m23 1981 489 m 467 Y s 1981 992 m 468 Y s
 1912 974 m 51 X s 1999 974 m 42 X s 1981 974 m23 black 1 1 1 c 454 425 1247 289 bf black
 gsave  2268 1701 0 0 C 1357.89 667.513 t 0 r /Helvetica findfont 54.8641 sf 0 0 m (All) show NC gr  1304 679 m24
 gsave  2268 1701 0 0 C 1357.89 594.361 t 0 r /Helvetica findfont 54.8641 sf 0 0 m (b) show NC gr  0.8 0 0 c 1304 608 m20 black
 gsave  2268 1701 0 0 C 1357.89 525.781 t 0 r /Helvetica findfont 54.8641 sf 0 0 m (c) show NC gr  0 0.6 0 c 1304 537 m23 black
 gsave  2268 1701 0 0 C 1357.89 452.629 t 0 r /Helvetica findfont 54.8641 sf 0 0 m (s) show NC gr  1 0.6 0.2 c 1304 466 m22 black
 gsave  2268 1701 0 0 C 1357.89 384.049 t 0 r /Helvetica findfont 54.8641 sf 0 0 m (ud) show NC gr  0.6 0 0.6 c 1304 395 m33 black
 gsave  2268 1701 0 0 C 1357.89 310.897 t 0 r /Helvetica findfont 54.8641 sf 0 0 m (gluon) show NC gr  0 0 0.8 c 1304 325 m21
 gr  gr showpage
end
%%EOF
