%!PS-Adobe-2.0 EPSF-2.0
%%BoundingBox:  0 0 567 425
%%Title: ./plots/particleComposition/PC_jets.eps: 
%%Creator: ROOT Version 6.06/04
%%CreationDate: Fri Apr  3 19:18:37 2020
%%DocumentNeededResources: ProcSet (FontSetInit)
%%EndComments
%%BeginProlog
80 dict begin
/s {stroke} def /l {lineto} def /m {moveto} def /t {translate} def
/r {rotate} def /rl {roll}  def /R {repeat} def
/d {rlineto} def /rm {rmoveto} def /gr {grestore} def /f {eofill} def
/c {setrgbcolor} def /black {0 setgray} def /sd {setdash} def
/cl {closepath} def /sf {scalefont setfont} def /lw {setlinewidth} def
/box {m dup 0 exch d exch 0 d 0 exch neg d cl} def
/NC{systemdict begin initclip end}def/C{NC box clip newpath}def
/bl {box s} def /bf {gsave box gsave f grestore 1 lw [] 0 sd s grestore} def /Y { 0 exch d} def /X { 0 d} def 
/K {{pop pop 0 moveto} exch kshow} bind def
/ita {/ang 15 def gsave [1 0 ang dup sin exch cos div 1 0 0] concat} def 
/mp {newpath /y exch def /x exch def} def
/side {[w .77 mul w .23 mul] .385 w mul sd w 0 l currentpoint t -144 r} def
/mr {mp x y w2 0 360 arc} def /m24 {mr s} def /m20 {mr f} def
/mb {mp x y w2 add m w2 neg 0 d 0 w neg d w 0 d 0 w d cl} def
/mt {mp x y w2 add m w2 neg w neg d w 0 d cl} def
/m21 {mb f} def /m25 {mb s} def /m22 {mt f} def /m26{mt s} def
/m23 {mp x y w2 sub m w2 w d w neg 0 d cl f} def
/m27 {mp x y w2 add m w3 neg w2 neg d w3 w2 neg d w3 w2 d cl s} def
/m28 {mp x w2 sub y w2 sub w3 add m w3 0 d  0 w3 neg d w3 0 d 0 w3 d w3 0 d  0 w3 d w3 neg 0 d 0 w3 d w3 neg 0 d 0 w3 neg d w3 neg 0 d cl s } def
/m29 {mp gsave x w2 sub y w2 add w3 sub m currentpoint t 4 {side} repeat cl fill gr} def
/m30 {mp gsave x w2 sub y w2 add w3 sub m currentpoint t 4 {side} repeat cl s gr} def
/m31 {mp x y w2 sub m 0 w d x w2 sub y m w 0 d x w2 sub y w2 add m w w neg d x w2 sub y w2 sub m w w d s} def
/m32 {mp x y w2 sub m w2 w d w neg 0 d cl s} def
/m33 {mp x y w2 add m w3 neg w2 neg d w3 w2 neg d w3 w2 d cl f} def
/m34 {mp x w2 sub y w2 sub w3 add m w3 0 d  0 w3 neg d w3 0 d 0 w3 d w3 0 d  0 w3 d w3 neg 0 d 0 w3 d w3 neg 0 d 0 w3 neg d w3 neg 0 d cl f } def
/m2 {mp x y w2 sub m 0 w d x w2 sub y m w 0 d s} def
/m5 {mp x w2 sub y w2 sub m w w d x w2 sub y w2 add m w w neg d s} def
%%IncludeResource: ProcSet (FontSetInit)
%%IncludeResource: font Times-Roman
%%IncludeResource: font Times-Italic
%%IncludeResource: font Times-Bold
%%IncludeResource: font Times-BoldItalic
%%IncludeResource: font Helvetica
%%IncludeResource: font Helvetica-Oblique
%%IncludeResource: font Helvetica-Bold
%%IncludeResource: font Helvetica-BoldOblique
%%IncludeResource: font Courier
%%IncludeResource: font Courier-Oblique
%%IncludeResource: font Courier-Bold
%%IncludeResource: font Courier-BoldOblique
%%IncludeResource: font Symbol
%%IncludeResource: font ZapfDingbats
/reEncode {exch findfont dup length dict begin {1 index /FID eq  {pop pop} {def} ifelse } forall /Encoding exch def currentdict end dup /FontName get exch definefont pop } def [/Times-Bold /Times-Italic /Times-BoldItalic /Helvetica /Helvetica-Oblique
 /Helvetica-Bold /Helvetica-BoldOblique /Courier /Courier-Oblique /Courier-Bold /Courier-BoldOblique /Times-Roman /AvantGarde-Book /AvantGarde-BookOblique /AvantGarde-Demi /AvantGarde-DemiOblique /Bookman-Demi /Bookman-DemiItalic /Bookman-Light
 /Bookman-LightItalic /Helvetica-Narrow /Helvetica-Narrow-Bold /Helvetica-Narrow-BoldOblique /Helvetica-Narrow-Oblique /NewCenturySchlbk-Roman /NewCenturySchlbk-Bold /NewCenturySchlbk-BoldItalic /NewCenturySchlbk-Italic /Palatino-Bold
 /Palatino-BoldItalic /Palatino-Italic /Palatino-Roman ] {ISOLatin1Encoding reEncode } forall
%%EndProlog
%%BeginSetup
%%EndSetup
newpath  gsave  .25 .25 scale  gsave  0 0 t black[  ] 0 sd 3 lw 1 1 1 c 2268 1701 0 0 bf black 1 1 1 c 1814 1310 227 221 bf black 1814 1310 227 221 bl 1 1 1 c 1814 1310 227 221 bf black 1814 1310 227 221 bl 0 0 0.6 c 1 1 1 c black 0 0 0.6 c 227 221 m
 1814 X s black 227 221 m 1814 X s
 gsave  2268 1701 0 0 C 1815.09 68.5801 t 0 r /Helvetica findfont 77.7242 sf 0 0 m ( \(GeV\)) show NC gr 
 gsave  2268 1701 0 0 C 1691.64 100.584 t 0 r /Helvetica findfont 54.8641 sf 0 0 m (reco) show NC gr 
 gsave  2268 1701 0 0 C 1691.64 22.86 t 0 r /Helvetica findfont 54.8641 sf 0 0 m (T,tag) show NC gr 
 gsave  2268 1701 0 0 C 1650.5 68.5801 t 0 r /Helvetica findfont 77.7242 sf 0 0 m (p) show NC gr  321 242 m -21 Y s
 gsave  2268 1701 0 0 C 288.037 164.592 t 0 r /Helvetica findfont 54.8641 sf 0 0 m (20) show NC gr  454 242 m -21 Y s
 gsave  2268 1701 0 0 C 420.625 164.592 t 0 r /Helvetica findfont 54.8641 sf 0 0 m (30) show NC gr  548 242 m -21 Y s
 gsave  2268 1701 0 0 C 512.065 164.592 t 0 r /Helvetica findfont 54.8641 sf 0 0 m (40) show NC gr  621 242 m -21 Y s 680 242 m -21 Y s 731 242 m -21 Y s 775 242 m -21 Y s 813 242 m -21 Y s 848 262 m -41 Y s
 gsave  2268 1701 0 0 C 847.671 163.786 t 0 r  -46 0 t /Helvetica findfont 54.8641 sf 0 0 m (100) show NC gr  1075 242 m -21 Y s
 gsave  2268 1701 0 0 C 1028.7 164.592 t 0 r /Helvetica findfont 54.8641 sf 0 0 m (200) show NC gr  1207 242 m -21 Y s
 gsave  2268 1701 0 0 C 1161.29 164.592 t 0 r /Helvetica findfont 54.8641 sf 0 0 m (300) show NC gr  1301 242 m -21 Y s 1374 242 m -21 Y s 1434 242 m -21 Y s 1485 242 m -21 Y s 1528 242 m -21 Y s 1567 242 m -21 Y s 1601 262 m -41 Y s
 gsave  2268 1701 0 0 C 1601.27 163.786 t 0 r  -61 0 t /Helvetica findfont 54.8641 sf 0 0 m (1000) show NC gr  1828 242 m -21 Y s
 gsave  2268 1701 0 0 C 1760.22 164.592 t 0 r /Helvetica findfont 54.8641 sf 0 0 m (2000) show NC gr  1961 242 m -21 Y s 227 221 m 1310 Y s
 gsave  2268 1701 0 0 C 96.0122 932.69 t 90 r /Helvetica findfont 73.1521 sf 0 0 m (Jet energy fraction) show NC gr  279 221 m -52 X s 253 283 m -26 X s 253 346 m -26 X s 253 408 m -26 X s 279 471 m -52 X s 253 533 m -26 X s 253 595 m -26 X s 253 658
 m -26 X s 279 720 m -52 X s 253 782 m -26 X s 253 845 m -26 X s 253 907 m -26 X s 279 969 m -52 X s 253 1032 m -26 X s 253 1094 m -26 X s 253 1157 m -26 X s 279 1219 m -52 X s 253 1281 m -26 X s 253 1344 m -26 X s 253 1406 m -26 X s 279 1468 m -52 X
 s 279 1468 m -52 X s 253 1531 m -26 X s
 gsave  2268 1701 0 0 C 182.88 201.168 t 0 r /Helvetica findfont 54.8641 sf 0 0 m (0) show NC gr 
 gsave  2268 1701 0 0 C 137.16 448.057 t 0 r /Helvetica findfont 54.8641 sf 0 0 m (0.2) show NC gr 
 gsave  2268 1701 0 0 C 137.16 699.517 t 0 r /Helvetica findfont 54.8641 sf 0 0 m (0.4) show NC gr 
 gsave  2268 1701 0 0 C 137.16 950.978 t 0 r /Helvetica findfont 54.8641 sf 0 0 m (0.6) show NC gr 
 gsave  2268 1701 0 0 C 137.16 1197.87 t 0 r /Helvetica findfont 54.8641 sf 0 0 m (0.8) show NC gr 
 gsave  2268 1701 0 0 C 192.024 1449.33 t 0 r /Helvetica findfont 54.8641 sf 0 0 m (1) show NC gr  0 0.8 0.8 c black 0 0.8 0.8 c 227 221 m 1247 Y 1814 X -1247 Y f black 0 0.8 0.8 c black 227 221 m 1247 Y 1814 X s 0.999 0.999 0.999 c black 0.999 0.999
 0.999 c 227 221 m 1247 Y 110 X -37 Y 94 X 31 Y 91 X 5 Y 92 X -14 Y 88 X 9 Y 189 X 2 Y 96 X -6 Y 81 X 4 Y 107 X 2 Y 63 X -2 Y 115 X 3 Y 51 X -2 Y 74 X 3 Y 69 X -4 Y 65 X 3 Y 141 X -2 Y 75 X 1 Y 73 X 3 Y 71 X -13 Y 69 X -1233 Y f black 0.999 0.999
 0.999 c black 227 221 m 1247 Y 110 X -37 Y 94 X 31 Y 91 X 5 Y 92 X -14 Y 88 X 9 Y 189 X 2 Y 96 X -6 Y 81 X 4 Y 107 X 2 Y 63 X -2 Y 115 X 3 Y 51 X -2 Y 74 X 3 Y 69 X -4 Y 65 X 3 Y 141 X -2 Y 75 X 1 Y 73 X 3 Y 71 X -13 Y 69 X s 1 1 1 c black 227 221 m
 1247 Y 110 X -37 Y 94 X 31 Y 91 X 5 Y 92 X -14 Y 88 X 9 Y 189 X 2 Y 96 X -6 Y 81 X 4 Y 107 X 2 Y 63 X -2 Y 115 X 3 Y 51 X -2 Y 74 X 3 Y 69 X -4 Y 65 X 3 Y 141 X -2 Y 75 X 1 Y 73 X 3 Y 71 X -13 Y 69 X s 0.4 0.4 1 c black 0.4 0.4 1 c 227 221 m 1247 Y
 110 X -37 Y 94 X 31 Y 91 X 5 Y 92 X -14 Y 88 X 9 Y 189 X 2 Y 96 X -6 Y 81 X 4 Y 107 X 2 Y 63 X -2 Y 115 X 3 Y 51 X -2 Y 74 X 3 Y 69 X -4 Y 65 X 3 Y 141 X -2 Y 75 X 1 Y 73 X 3 Y 71 X -13 Y 69 X -1233 Y f black 0.4 0.4 1 c black 227 221 m 1247 Y 110 X
 -37 Y 94 X 31 Y 91 X 5 Y 92 X -14 Y 88 X 9 Y 189 X 2 Y 96 X -6 Y 81 X 4 Y 107 X 2 Y 63 X -2 Y 115 X 3 Y 51 X -2 Y 74 X 3 Y 69 X -4 Y 65 X 3 Y 141 X -2 Y 75 X 1 Y 73 X 3 Y 71 X -13 Y 69 X s 0.999 0.999 0.999 c black 0.999 0.999 0.999 c 227 221 m 819
 Y 110 X 167 Y 94 X -158 Y 91 X 93 Y 92 X -10 Y 88 X -8 Y 89 X -17 Y 100 X 9 Y 96 X 10 Y 81 X -24 Y 107 X 15 Y 63 X -36 Y 59 X 1 Y 56 X 24 Y 51 X -25 Y 74 X 3 Y 69 X 1 Y 65 X 22 Y 62 X -24 Y 79 X -13 Y 75 X -39 Y 73 X -219 Y 71 X 325 Y 69 X -916 Y f
 black 0.999 0.999 0.999 c black 227 221 m 819 Y 110 X 167 Y 94 X -158 Y 91 X 93 Y 92 X -10 Y 88 X -8 Y 89 X -17 Y 100 X 9 Y 96 X 10 Y 81 X -24 Y 107 X 15 Y 63 X -36 Y 59 X 1 Y 56 X 24 Y 51 X -25 Y 74 X 3 Y 69 X 1 Y 65 X 22 Y 62 X -24 Y 79 X -13 Y 75
 X -39 Y 73 X -219 Y 71 X 325 Y 69 X s 1 1 1 c black 227 221 m 819 Y 110 X 167 Y 94 X -158 Y 91 X 93 Y 92 X -10 Y 88 X -8 Y 89 X -17 Y 100 X 9 Y 96 X 10 Y 81 X -24 Y 107 X 15 Y 63 X -36 Y 59 X 1 Y 56 X 24 Y 51 X -25 Y 74 X 3 Y 69 X 1 Y 65 X 22 Y 62 X
 -24 Y 79 X -13 Y 75 X -39 Y 73 X -219 Y 71 X 325 Y 69 X s 0.4 0.8 0.4 c black 0.4 0.8 0.4 c 227 221 m 819 Y 110 X 167 Y 94 X -158 Y 91 X 93 Y 92 X -10 Y 88 X -8 Y 89 X -17 Y 100 X 9 Y 96 X 10 Y 81 X -24 Y 107 X 15 Y 63 X -36 Y 59 X 1 Y 56 X 24 Y 51
 X -25 Y 74 X 3 Y 69 X 1 Y 65 X 22 Y 62 X -24 Y 79 X -13 Y 75 X -39 Y 73 X -219 Y 71 X 325 Y 69 X -916 Y f black 0.4 0.8 0.4 c black 227 221 m 819 Y 110 X 167 Y 94 X -158 Y 91 X 93 Y 92 X -10 Y 88 X -8 Y 89 X -17 Y 100 X 9 Y 96 X 10 Y 81 X -24 Y 107
 X 15 Y 63 X -36 Y 59 X 1 Y 56 X 24 Y 51 X -25 Y 74 X 3 Y 69 X 1 Y 65 X 22 Y 62 X -24 Y 79 X -13 Y 75 X -39 Y 73 X -219 Y 71 X 325 Y 69 X s 0.999 0.999 0.999 c black 0.999 0.999 0.999 c 227 221 m 646 Y 110 X 204 Y 94 X -205 Y 91 X 110 Y 92 X -11 Y 88
 X 10 Y 89 X -26 Y 100 X -2 Y 96 X 13 Y 81 X -17 Y 107 X 7 Y 63 X -33 Y 59 X -21 Y 56 X 27 Y 51 X -40 Y 74 X 3 Y 69 X -12 Y 65 X -6 Y 62 X -85 Y 79 X 26 Y 75 X -170 Y 73 X -120 Y 71 X 356 Y 69 X -654 Y f black 0.999 0.999 0.999 c black 227 221 m 646
 Y 110 X 204 Y 94 X -205 Y 91 X 110 Y 92 X -11 Y 88 X 10 Y 89 X -26 Y 100 X -2 Y 96 X 13 Y 81 X -17 Y 107 X 7 Y 63 X -33 Y 59 X -21 Y 56 X 27 Y 51 X -40 Y 74 X 3 Y 69 X -12 Y 65 X -6 Y 62 X -85 Y 79 X 26 Y 75 X -170 Y 73 X -120 Y 71 X 356 Y 69 X s 1
 1 1 c black 227 221 m 646 Y 110 X 204 Y 94 X -205 Y 91 X 110 Y 92 X -11 Y 88 X 10 Y 89 X -26 Y 100 X -2 Y 96 X 13 Y 81 X -17 Y 107 X 7 Y 63 X -33 Y 59 X -21 Y 56 X 27 Y 51 X -40 Y 74 X 3 Y 69 X -12 Y 65 X -6 Y 62 X -85 Y 79 X 26 Y 75 X -170 Y 73 X
 -120 Y 71 X 356 Y 69 X s 1 0.4 0.4 c black 1 0.4 0.4 c 227 221 m 646 Y 110 X 204 Y 94 X -205 Y 91 X 110 Y 92 X -11 Y 88 X 10 Y 89 X -26 Y 100 X -2 Y 96 X 13 Y 81 X -17 Y 107 X 7 Y 63 X -33 Y 59 X -21 Y 56 X 27 Y 51 X -40 Y 74 X 3 Y 69 X -12 Y 65 X
 -6 Y 62 X -85 Y 79 X 26 Y 75 X -170 Y 73 X -120 Y 71 X 356 Y 69 X -654 Y f black 1 0.4 0.4 c black 227 221 m 646 Y 110 X 204 Y 94 X -205 Y 91 X 110 Y 92 X -11 Y 88 X 10 Y 89 X -26 Y 100 X -2 Y 96 X 13 Y 81 X -17 Y 107 X 7 Y 63 X -33 Y 59 X -21 Y 56
 X 27 Y 51 X -40 Y 74 X 3 Y 69 X -12 Y 65 X -6 Y 62 X -85 Y 79 X 26 Y 75 X -170 Y 73 X -120 Y 71 X 356 Y 69 X s 227 221 m 1814 X s 321 242 m -21 Y s 454 242 m -21 Y s 548 242 m -21 Y s 621 242 m -21 Y s 680 242 m -21 Y s 731 242 m -21 Y s 775 242 m
 -21 Y s 813 242 m -21 Y s 848 262 m -41 Y s 1075 242 m -21 Y s 1207 242 m -21 Y s 1301 242 m -21 Y s 1374 242 m -21 Y s 1434 242 m -21 Y s 1485 242 m -21 Y s 1528 242 m -21 Y s 1567 242 m -21 Y s 1601 262 m -41 Y s 1828 242 m -21 Y s 1961 242 m -21
 Y s 227 221 m 1310 Y s 279 221 m -52 X s 253 283 m -26 X s 253 346 m -26 X s 253 408 m -26 X s 279 471 m -52 X s 253 533 m -26 X s 253 595 m -26 X s 253 658 m -26 X s 279 720 m -52 X s 253 782 m -26 X s 253 845 m -26 X s 253 907 m -26 X s 279 969 m
 -52 X s 253 1032 m -26 X s 253 1094 m -26 X s 253 1157 m -26 X s 279 1219 m -52 X s 253 1281 m -26 X s 253 1344 m -26 X s 253 1406 m -26 X s 279 1468 m -52 X s 279 1468 m -52 X s 253 1531 m -26 X s
 gsave  2268 1701 0 0 C 2093.98 1348.74 t 0 r /Helvetica findfont 45.7201 sf 0 0 m (e) show NC gr  0 0.8 0.8 c 2049 1242 m 40 X 238 Y -40 X f black 2049 1480 m 40 X s 2049 1242 m 40 X s 2089 1242 m 238 Y s 2049 1242 m 238 Y s
 gsave  2268 1701 0 0 C 2093.98 1014.99 t 0 r /Symbol findfont 45.7201 sf 0 0 m (g) show NC gr  0.4 0.4 1 c 2049 901 m 40 X 239 Y -40 X f black 2049 1140 m 40 X s 2049 901 m 40 X s 2089 901 m 239 Y s 2049 901 m 239 Y s
 gsave  2268 1701 0 0 C 2093.98 658.369 t 0 r /Helvetica findfont 45.7201 sf 0 0 m (NH) show NC gr  0.4 0.8 0.4 c 2049 561 m 40 X 238 Y -40 X f black 2049 799 m 40 X s 2049 561 m 40 X s 2089 561 m 238 Y s 2049 561 m 238 Y s
 gsave  2268 1701 0 0 C 2093.98 324.613 t 0 r /Helvetica findfont 45.7201 sf 0 0 m (CH) show NC gr  1 0.4 0.4 c 2049 221 m 40 X 238 Y -40 X f black 2049 459 m 40 X s 2049 221 m 40 X s 2089 221 m 238 Y s 2049 221 m 238 Y s
 gsave  2268 1701 0 0 C 480.061 621.793 t 0 r /Helvetica-Bold findfont 54.8641 sf 0 0 m (NH Run2016GH) show NC gr  /w 26 def /w2 {w 2 div} def /w3 {w 3 div} def 411 638 m25
 gsave  2268 1701 0 0 C 480.061 534.925 t 0 r /Helvetica-Bold findfont 54.8641 sf 0 0 m (CH Run2016GH) show NC gr  /w 37 def /w2 {w 2 div} def /w3 {w 3 div} def 411 553 m33 284 975 386 983 480 993 568 996 659 995 748 985 843 980 943 977 1030 979 1125
 978 1207 977 1269 969 1326 959 1379 946 1443 925 1515 897 1582 864 1645 828 1716 787 1793 733 1867 677 1939 628 2009 569 23 { m33} R /w 26 def /w2 {w 2 div} def /w3 {w 3 div} def 283 1153 385 1139 479 1132 570 1119 661 1108 747 1096 843 1088 941
 1078 1030 1072 1125 1069 1207 1059 1269 1051 1326 1041 1380 1031 1444 1016 1515 1000 1581 982 1645 966 1717 951 1793 938 1868 927 1941 919 2009 912 23 { m25} R
 gsave  2268 1701 0 0 C 640.081 717.805 t 0 r /Helvetica-Bold findfont 64.0081 sf 0 0 m (|<1.3) show NC gr 
 gsave  2268 1701 0 0 C 525.781 749.81 t 0 r /Helvetica-Bold findfont 41.1481 sf 0 0 m (probe) show NC gr 
 gsave  2268 1701 0 0 C 489.205 717.805 t 0 r /Symbol findfont 64.0081 sf 0 0 m (h) show NC gr 
 gsave  2268 1701 0 0 C 475.489 717.805 t 0 r /Helvetica-Bold findfont 64.0081 sf 0 0 m (|) show NC gr 
 gr  gr showpage
end
%%EOF
