%!PS-Adobe-2.0 EPSF-2.0
%%BoundingBox:  0 0 567 425
%%Title: ./plots/F/F.eps: 
%%Creator: ROOT Version 6.06/04
%%CreationDate: Fri Apr  3 19:18:39 2020
%%DocumentNeededResources: ProcSet (FontSetInit)
%%EndComments
%%BeginProlog
80 dict begin
/s {stroke} def /l {lineto} def /m {moveto} def /t {translate} def
/r {rotate} def /rl {roll}  def /R {repeat} def
/d {rlineto} def /rm {rmoveto} def /gr {grestore} def /f {eofill} def
/c {setrgbcolor} def /black {0 setgray} def /sd {setdash} def
/cl {closepath} def /sf {scalefont setfont} def /lw {setlinewidth} def
/box {m dup 0 exch d exch 0 d 0 exch neg d cl} def
/NC{systemdict begin initclip end}def/C{NC box clip newpath}def
/bl {box s} def /bf {gsave box gsave f grestore 1 lw [] 0 sd s grestore} def /Y { 0 exch d} def /X { 0 d} def 
/K {{pop pop 0 moveto} exch kshow} bind def
/ita {/ang 15 def gsave [1 0 ang dup sin exch cos div 1 0 0] concat} def 
/mp {newpath /y exch def /x exch def} def
/side {[w .77 mul w .23 mul] .385 w mul sd w 0 l currentpoint t -144 r} def
/mr {mp x y w2 0 360 arc} def /m24 {mr s} def /m20 {mr f} def
/mb {mp x y w2 add m w2 neg 0 d 0 w neg d w 0 d 0 w d cl} def
/mt {mp x y w2 add m w2 neg w neg d w 0 d cl} def
/m21 {mb f} def /m25 {mb s} def /m22 {mt f} def /m26{mt s} def
/m23 {mp x y w2 sub m w2 w d w neg 0 d cl f} def
/m27 {mp x y w2 add m w3 neg w2 neg d w3 w2 neg d w3 w2 d cl s} def
/m28 {mp x w2 sub y w2 sub w3 add m w3 0 d  0 w3 neg d w3 0 d 0 w3 d w3 0 d  0 w3 d w3 neg 0 d 0 w3 d w3 neg 0 d 0 w3 neg d w3 neg 0 d cl s } def
/m29 {mp gsave x w2 sub y w2 add w3 sub m currentpoint t 4 {side} repeat cl fill gr} def
/m30 {mp gsave x w2 sub y w2 add w3 sub m currentpoint t 4 {side} repeat cl s gr} def
/m31 {mp x y w2 sub m 0 w d x w2 sub y m w 0 d x w2 sub y w2 add m w w neg d x w2 sub y w2 sub m w w d s} def
/m32 {mp x y w2 sub m w2 w d w neg 0 d cl s} def
/m33 {mp x y w2 add m w3 neg w2 neg d w3 w2 neg d w3 w2 d cl f} def
/m34 {mp x w2 sub y w2 sub w3 add m w3 0 d  0 w3 neg d w3 0 d 0 w3 d w3 0 d  0 w3 d w3 neg 0 d 0 w3 d w3 neg 0 d 0 w3 neg d w3 neg 0 d cl f } def
/m2 {mp x y w2 sub m 0 w d x w2 sub y m w 0 d s} def
/m5 {mp x w2 sub y w2 sub m w w d x w2 sub y w2 add m w w neg d s} def
%%IncludeResource: ProcSet (FontSetInit)
%%IncludeResource: font Times-Roman
%%IncludeResource: font Times-Italic
%%IncludeResource: font Times-Bold
%%IncludeResource: font Times-BoldItalic
%%IncludeResource: font Helvetica
%%IncludeResource: font Helvetica-Oblique
%%IncludeResource: font Helvetica-Bold
%%IncludeResource: font Helvetica-BoldOblique
%%IncludeResource: font Courier
%%IncludeResource: font Courier-Oblique
%%IncludeResource: font Courier-Bold
%%IncludeResource: font Courier-BoldOblique
%%IncludeResource: font Symbol
%%IncludeResource: font ZapfDingbats
/reEncode {exch findfont dup length dict begin {1 index /FID eq  {pop pop} {def} ifelse } forall /Encoding exch def currentdict end dup /FontName get exch definefont pop } def [/Times-Bold /Times-Italic /Times-BoldItalic /Helvetica /Helvetica-Oblique
 /Helvetica-Bold /Helvetica-BoldOblique /Courier /Courier-Oblique /Courier-Bold /Courier-BoldOblique /Times-Roman /AvantGarde-Book /AvantGarde-BookOblique /AvantGarde-Demi /AvantGarde-DemiOblique /Bookman-Demi /Bookman-DemiItalic /Bookman-Light
 /Bookman-LightItalic /Helvetica-Narrow /Helvetica-Narrow-Bold /Helvetica-Narrow-BoldOblique /Helvetica-Narrow-Oblique /NewCenturySchlbk-Roman /NewCenturySchlbk-Bold /NewCenturySchlbk-BoldItalic /NewCenturySchlbk-Italic /Palatino-Bold
 /Palatino-BoldItalic /Palatino-Italic /Palatino-Roman ] {ISOLatin1Encoding reEncode } forall
%%EndProlog
%%BeginSetup
%%EndSetup
newpath  gsave  .25 .25 scale  gsave  0 0 t black[  ] 0 sd 3 lw 1 1 1 c 2268 1701 0 0 bf black 1 1 1 c 1701 1310 340 221 bf black 1701 1310 340 221 bl 0.8 0 0 c 1 1 1 c 0.8 0 0 c 509 221 m 155 Y s 509 403 m 664 Y s 458 390 m 37 X s 523 390 m 32 X s
 /w 29 def /w2 {w 2 div} def /w3 {w 3 div} def 509 390 m20 611 780 m 356 Y s 611 1164 m 356 Y s 555 1150 m 42 X s 624 1150 m 37 X s 611 1150 m20 727 221 m 286 Y s 727 535 m 346 Y s 661 521 m 52 X s 740 521 m 44 X s 727 521 m20 842 971 m 251 Y s 842
 1250 m 251 Y s 784 1236 m 45 X s 856 1236 m 38 X s 842 1236 m20 950 363 m 250 Y s 950 640 m 251 Y s 894 627 m 43 X s 964 627 m 37 X s 950 627 m20 1067 278 m 219 Y s 1067 524 m 219 Y s 1001 511 m 52 X s 1080 511 m 44 X s 1067 511 m20 1193 571 m 216 Y
 s 1193 814 m 216 Y s 1124 801 m 55 X s 1206 801 m 46 X s 1193 801 m20 1319 642 m 207 Y s 1319 877 m 207 Y s 1252 863 m 54 X s 1333 863 m 45 X s 1319 863 m20 1444 221 m 41 Y s 1444 289 m 236 Y s 1378 275 m 52 X s 1457 275 m 44 X s 1444 275 m20 1563
 221 m 200 Y s 1563 449 m 463 Y s 1501 435 m 48 X s 1577 435 m 41 X s 1563 435 m20 1693 400 m 383 Y s 1693 810 m 383 Y s 1618 797 m 61 X s 1707 797 m 51 X s 1693 797 m20 1981 914 m 87 Y s 1981 1028 m 87 Y s 1912 1015 m 55 X s 1995 1015 m 46 X s 1981
 1015 m20 black 340 221 m 1701 X s
 gsave  2268 1701 0 0 C 1815.09 64.0081 t 0 r /Helvetica findfont 77.7242 sf 0 0 m ( \(GeV\)) show NC gr 
 gsave  2268 1701 0 0 C 1705.36 105.156 t 0 r /Helvetica findfont 54.8641 sf 0 0 m (gen) show NC gr 
 gsave  2268 1701 0 0 C 1705.36 18.288 t 0 r /Helvetica findfont 54.8641 sf 0 0 m (T,jet) show NC gr 
 gsave  2268 1701 0 0 C 1664.21 64.0081 t 0 r /Helvetica findfont 77.7242 sf 0 0 m (p) show NC gr  447 240 m -19 Y s
 gsave  2268 1701 0 0 C 411.481 164.592 t 0 r /Helvetica findfont 54.8641 sf 0 0 m (40) show NC gr  550 240 m -19 Y s
 gsave  2268 1701 0 0 C 516.637 164.592 t 0 r /Helvetica findfont 54.8641 sf 0 0 m (50) show NC gr  634 240 m -19 Y s
 gsave  2268 1701 0 0 C 598.933 164.592 t 0 r /Helvetica findfont 54.8641 sf 0 0 m (60) show NC gr  706 240 m -19 Y s 767 240 m -19 Y s 822 240 m -19 Y s 870 259 m -38 Y s
 gsave  2268 1701 0 0 C 870.454 163.786 t 0 r  -46 0 t /Helvetica findfont 54.8641 sf 0 0 m (100) show NC gr  1191 240 m -19 Y s
 gsave  2268 1701 0 0 C 1143 164.592 t 0 r /Helvetica findfont 54.8641 sf 0 0 m (200) show NC gr  1378 240 m -19 Y s
 gsave  2268 1701 0 0 C 1330.45 164.592 t 0 r /Helvetica findfont 54.8641 sf 0 0 m (300) show NC gr  1511 240 m -19 Y s
 gsave  2268 1701 0 0 C 1463.04 164.592 t 0 r /Helvetica findfont 54.8641 sf 0 0 m (400) show NC gr  1614 240 m -19 Y s 1699 240 m -19 Y s 1770 240 m -19 Y s 1832 240 m -19 Y s 1886 240 m -19 Y s 1935 259 m -38 Y s
 gsave  2268 1701 0 0 C 1934.76 163.786 t 0 r  -61 0 t /Helvetica findfont 54.8641 sf 0 0 m (1000) show NC gr  340 1531 m 1701 X s 447 1512 m 19 Y s 550 1512 m 19 Y s 634 1512 m 19 Y s 706 1512 m 19 Y s 767 1512 m 19 Y s 822 1512 m 19 Y s 870 1492 m
 39 Y s 1191 1512 m 19 Y s 1378 1512 m 19 Y s 1511 1512 m 19 Y s 1614 1512 m 19 Y s 1699 1512 m 19 Y s 1770 1512 m 19 Y s 1832 1512 m 19 Y s 1886 1512 m 19 Y s 1935 1492 m 39 Y s 340 221 m 1310 Y s
 gsave  2268 1701 0 0 C 169.164 1485.9 t 90 r /Helvetica findfont 77.7242 sf 0 0 m (F) show NC gr  393 221 m -53 X s 366 254 m -26 X s 366 287 m -26 X s 366 319 m -26 X s 366 352 m -26 X s 393 385 m -53 X s 366 418 m -26 X s 366 450 m -26 X s 366 483
 m -26 X s 366 516 m -26 X s 393 549 m -53 X s 366 581 m -26 X s 366 614 m -26 X s 366 647 m -26 X s 366 679 m -26 X s 393 712 m -53 X s 366 745 m -26 X s 366 778 m -26 X s 366 810 m -26 X s 366 843 m -26 X s 393 876 m -53 X s 366 909 m -26 X s 366
 941 m -26 X s 366 974 m -26 X s 366 1007 m -26 X s 393 1040 m -53 X s 366 1072 m -26 X s 366 1105 m -26 X s 366 1138 m -26 X s 366 1171 m -26 X s 393 1203 m -53 X s 366 1236 m -26 X s 366 1269 m -26 X s 366 1302 m -26 X s 366 1334 m -26 X s 393 1367
 m -53 X s 366 1400 m -26 X s 366 1432 m -26 X s 366 1465 m -26 X s 366 1498 m -26 X s 393 1531 m -53 X s
 gsave  2268 1701 0 0 C 219.456 201.168 t 0 r /Helvetica findfont 54.8641 sf 0 0 m (0.98) show NC gr 
 gsave  2268 1701 0 0 C 187.452 365.761 t 0 r /Helvetica findfont 54.8641 sf 0 0 m (0.985) show NC gr 
 gsave  2268 1701 0 0 C 219.456 525.781 t 0 r /Helvetica findfont 54.8641 sf 0 0 m (0.99) show NC gr 
 gsave  2268 1701 0 0 C 187.452 690.373 t 0 r /Helvetica findfont 54.8641 sf 0 0 m (0.995) show NC gr 
 gsave  2268 1701 0 0 C 301.753 854.966 t 0 r /Helvetica findfont 54.8641 sf 0 0 m (1) show NC gr 
 gsave  2268 1701 0 0 C 187.452 1019.56 t 0 r /Helvetica findfont 54.8641 sf 0 0 m (1.005) show NC gr 
 gsave  2268 1701 0 0 C 228.6 1184.15 t 0 r /Helvetica findfont 54.8641 sf 0 0 m (1.01) show NC gr 
 gsave  2268 1701 0 0 C 187.452 1344.17 t 0 r /Helvetica findfont 54.8641 sf 0 0 m (1.015) show NC gr 
 gsave  2268 1701 0 0 C 219.456 1508.76 t 0 r /Helvetica findfont 54.8641 sf 0 0 m (1.02) show NC gr  2041 221 m 1310 Y s 1989 221 m 52 X s 2015 254 m 26 X s 2015 287 m 26 X s 2015 319 m 26 X s 2015 352 m 26 X s 1989 385 m 52 X s 2015 418 m 26 X s
 2015 450 m 26 X s 2015 483 m 26 X s 2015 516 m 26 X s 1989 549 m 52 X s 2015 581 m 26 X s 2015 614 m 26 X s 2015 647 m 26 X s 2015 679 m 26 X s 1989 712 m 52 X s 2015 745 m 26 X s 2015 778 m 26 X s 2015 810 m 26 X s 2015 843 m 26 X s 1989 876 m 52 X
 s 2015 909 m 26 X s 2015 941 m 26 X s 2015 974 m 26 X s 2015 1007 m 26 X s 1989 1040 m 52 X s 2015 1072 m 26 X s 2015 1105 m 26 X s 2015 1138 m 26 X s 2015 1171 m 26 X s 1989 1203 m 52 X s 2015 1236 m 26 X s 2015 1269 m 26 X s 2015 1302 m 26 X s
 2015 1334 m 26 X s 1989 1367 m 52 X s 2015 1400 m 26 X s 2015 1432 m 26 X s 2015 1465 m 26 X s 2015 1498 m 26 X s 1989 1531 m 52 X s 340 876 m 1701 X s 0 0 0.8 c 1 1 1 c 0 0 0.8 c 403 782 m 547 Y s 403 1357 m 174 Y s 340 1343 m 49 X s 417 1343 m 41
 X s 403 1343 m21 509 221 m 278 Y s 509 526 m 437 Y s 458 513 m 37 X s 523 513 m 32 X s 509 513 m21 611 221 m 136 Y s 611 385 m 310 Y s 555 371 m 42 X s 624 371 m 37 X s 611 371 m21 727 221 m 62 Y s 727 310 m 266 Y s 661 297 m 52 X s 740 297 m 44 X s
 727 297 m21 842 242 m 201 Y s 842 470 m 201 Y s 784 457 m 45 X s 856 457 m 38 X s 842 457 m21 950 221 m 12 Y s 950 261 m 179 Y s 894 247 m 43 X s 964 247 m 37 X s 950 247 m21 1067 528 m 133 Y s 1067 689 m 133 Y s 1001 675 m 52 X s 1080 675 m 44 X s
 1067 675 m21 1193 511 m 109 Y s 1193 647 m 109 Y s 1124 633 m 55 X s 1206 633 m 46 X s 1193 633 m21 1319 541 m 112 Y s 1319 681 m 112 Y s 1252 667 m 54 X s 1333 667 m 45 X s 1319 667 m21 1444 490 m 97 Y s 1444 615 m 97 Y s 1378 601 m 52 X s 1457 601
 m 44 X s 1444 601 m21 1563 731 m 95 Y s 1563 854 m 95 Y s 1501 840 m 48 X s 1577 840 m 41 X s 1563 840 m21 1693 652 m 85 Y s 1693 764 m 85 Y s 1618 751 m 61 X s 1707 751 m 51 X s 1693 751 m21 1841 633 m 113 Y s 1841 774 m 113 Y s 1758 760 m 69 X s
 1855 760 m 57 X s 1841 760 m21 1981 674 m 122 Y s 1981 823 m 122 Y s 1912 810 m 55 X s 1995 810 m 46 X s 1981 810 m21 0.6 0 0.6 c 1 1 1 c 0.6 0 0.6 c 403 607 m 539 Y s 403 1173 m 358 Y s 340 1159 m 49 X s 417 1159 m 41 X s 403 1159 m33 509 791 m 332
 Y s 509 1151 m 332 Y s 458 1137 m 37 X s 523 1137 m 32 X s 509 1137 m33 611 934 m 244 Y s 611 1205 m 244 Y s 555 1192 m 42 X s 624 1192 m 37 X s 611 1192 m33 727 1101 m 162 Y s 727 1290 m 163 Y s 661 1277 m 52 X s 740 1277 m 44 X s 727 1277 m33 842
 999 m 126 Y s 842 1153 m 126 Y s 784 1139 m 45 X s 856 1139 m 38 X s 842 1139 m33 950 1009 m 99 Y s 950 1136 m 99 Y s 894 1122 m 43 X s 964 1122 m 37 X s 950 1122 m33 1067 980 m 76 Y s 1067 1084 m 76 Y s 1001 1070 m 52 X s 1080 1070 m 44 X s 1067
 1070 m33 1193 891 m 69 Y s 1193 987 m 69 Y s 1124 974 m 55 X s 1206 974 m 46 X s 1193 974 m33 1319 897 m 63 Y s 1319 987 m 63 Y s 1252 973 m 54 X s 1333 973 m 45 X s 1319 973 m33 1444 964 m 67 Y s 1444 1058 m 66 Y s 1378 1044 m 52 X s 1457 1044 m 44
 X s 1444 1044 m33 1563 814 m 79 Y s 1563 920 m 79 Y s 1501 907 m 48 X s 1577 907 m 41 X s 1563 907 m33 1693 840 m 86 Y s 1693 953 m 87 Y s 1618 940 m 61 X s 1707 940 m 51 X s 1693 940 m33 1841 816 m 139 Y s 1841 983 m 139 Y s 1758 969 m 69 X s 1855
 969 m 57 X s 1841 969 m33 1981 870 m 202 Y s 1981 1099 m 202 Y s 1912 1086 m 55 X s 1995 1086 m 46 X s 1981 1086 m33 1 0.6 0.2 c 1 1 1 c 1 0.6 0.2 c 509 221 m 492 Y s 509 741 m 790 Y s 458 727 m 37 X s 523 727 m 32 X s 509 727 m22 727 221 m 93 Y s
 727 342 m 313 Y s 661 328 m 52 X s 740 328 m 44 X s 727 328 m22 842 221 m 183 Y s 842 431 m 269 Y s 784 418 m 45 X s 856 418 m 38 X s 842 418 m22 950 566 m 189 Y s 950 782 m 189 Y s 894 768 m 43 X s 964 768 m 37 X s 950 768 m22 1067 221 m 25 Y s
 1067 273 m 181 Y s 1001 260 m 52 X s 1080 260 m 44 X s 1067 260 m22 1193 316 m 162 Y s 1193 505 m 162 Y s 1124 491 m 55 X s 1206 491 m 46 X s 1193 491 m22 1319 221 m 158 Y s 1319 407 m 226 Y s 1252 393 m 54 X s 1333 393 m 45 X s 1319 393 m22 1444
 396 m 184 Y s 1444 607 m 184 Y s 1378 594 m 52 X s 1457 594 m 44 X s 1444 594 m22 1563 351 m 249 Y s 1563 627 m 248 Y s 1501 613 m 48 X s 1577 613 m 41 X s 1563 613 m22 1693 359 m 225 Y s 1693 612 m 224 Y s 1618 598 m 61 X s 1707 598 m 51 X s 1693
 598 m22 1841 557 m 402 Y s 1841 987 m 402 Y s 1758 973 m 69 X s 1855 973 m 57 X s 1841 973 m22 0 0.6 0 c 1 1 1 c 0 0.6 0 c 403 221 m 649 Y s 403 897 m 634 Y s 340 883 m 49 X s 417 883 m 41 X s 403 883 m23 509 221 m 63 Y s 509 311 m 1077 Y s 458 298
 m 37 X s 523 298 m 32 X s 509 298 m23 611 221 m 557 Y s 611 805 m 565 Y s 555 792 m 42 X s 624 792 m 37 X s 611 792 m23 727 221 m 321 Y s 727 569 m 462 Y s 661 555 m 52 X s 740 555 m 44 X s 727 555 m23 842 277 m 317 Y s 842 621 m 317 Y s 784 608 m
 45 X s 856 608 m 38 X s 842 608 m23 950 221 m 228 Y s 950 476 m 247 Y s 894 463 m 43 X s 964 463 m 37 X s 950 463 m23 1067 887 m 163 Y s 1067 1078 m 164 Y s 1001 1064 m 52 X s 1080 1064 m 44 X s 1067 1064 m23 1193 973 m 186 Y s 1193 1186 m 186 Y s
 1124 1172 m 55 X s 1206 1172 m 46 X s 1193 1172 m23 1319 659 m 293 Y s 1319 979 m 293 Y s 1252 965 m 54 X s 1333 965 m 45 X s 1319 965 m23 1444 221 m 135 Y s 1444 384 m 255 Y s 1378 370 m 52 X s 1457 370 m 44 X s 1444 370 m23 1563 990 m 190 Y s 1563
 1207 m 190 Y s 1501 1193 m 48 X s 1577 1193 m 41 X s 1563 1193 m23 1693 1032 m 291 Y s 1693 1350 m 181 Y s 1618 1336 m 61 X s 1707 1336 m 51 X s 1693 1336 m23 1841 238 m 439 Y s 1841 705 m 439 Y s 1758 691 m 69 X s 1855 691 m 57 X s 1841 691 m23
 1981 444 m 652 Y s 1981 1124 m 407 Y s 1912 1110 m 55 X s 1995 1110 m 46 X s 1981 1110 m23 black 1 1 1 c 612 391 1406 1106 bf black
 gsave  2268 1701 0 0 C 1559.06 1440.18 t 0 r /Helvetica findfont 64.0081 sf 0 0 m (b) show NC gr  0.8 0 0 c 1483 1458 m20 black
 gsave  2268 1701 0 0 C 1559.06 1362.46 t 0 r /Helvetica findfont 64.0081 sf 0 0 m (c) show NC gr  0 0.6 0 c 1483 1379 m23 black
 gsave  2268 1701 0 0 C 1559.06 1284.73 t 0 r /Helvetica findfont 64.0081 sf 0 0 m (s) show NC gr  1 0.6 0.2 c 1483 1301 m22 black
 gsave  2268 1701 0 0 C 1559.06 1207.01 t 0 r /Helvetica findfont 64.0081 sf 0 0 m (ud) show NC gr  0.6 0 0.6 c 1483 1223 m33 black
 gsave  2268 1701 0 0 C 1559.06 1129.29 t 0 r /Helvetica findfont 64.0081 sf 0 0 m (gluon) show NC gr  0 0 0.8 c 1483 1145 m21
 gr  gr showpage
end
%%EOF
