%!PS-Adobe-2.0 EPSF-2.0
%%BoundingBox:  0 0 567 547
%%Title: ./plots/F/ratio_F.eps: canvas
%%Creator: ROOT Version 6.06/04
%%CreationDate: Fri Apr 10 20:13:12 2020
%%DocumentNeededResources: ProcSet (FontSetInit)
%%EndComments
%%BeginProlog
80 dict begin
/s {stroke} def /l {lineto} def /m {moveto} def /t {translate} def
/r {rotate} def /rl {roll}  def /R {repeat} def
/d {rlineto} def /rm {rmoveto} def /gr {grestore} def /f {eofill} def
/c {setrgbcolor} def /black {0 setgray} def /sd {setdash} def
/cl {closepath} def /sf {scalefont setfont} def /lw {setlinewidth} def
/box {m dup 0 exch d exch 0 d 0 exch neg d cl} def
/NC{systemdict begin initclip end}def/C{NC box clip newpath}def
/bl {box s} def /bf {gsave box gsave f grestore 1 lw [] 0 sd s grestore} def /Y { 0 exch d} def /X { 0 d} def 
/K {{pop pop 0 moveto} exch kshow} bind def
/ita {/ang 15 def gsave [1 0 ang dup sin exch cos div 1 0 0] concat} def 
/mp {newpath /y exch def /x exch def} def
/side {[w .77 mul w .23 mul] .385 w mul sd w 0 l currentpoint t -144 r} def
/mr {mp x y w2 0 360 arc} def /m24 {mr s} def /m20 {mr f} def
/mb {mp x y w2 add m w2 neg 0 d 0 w neg d w 0 d 0 w d cl} def
/mt {mp x y w2 add m w2 neg w neg d w 0 d cl} def
/m21 {mb f} def /m25 {mb s} def /m22 {mt f} def /m26{mt s} def
/m23 {mp x y w2 sub m w2 w d w neg 0 d cl f} def
/m27 {mp x y w2 add m w3 neg w2 neg d w3 w2 neg d w3 w2 d cl s} def
/m28 {mp x w2 sub y w2 sub w3 add m w3 0 d  0 w3 neg d w3 0 d 0 w3 d w3 0 d  0 w3 d w3 neg 0 d 0 w3 d w3 neg 0 d 0 w3 neg d w3 neg 0 d cl s } def
/m29 {mp gsave x w2 sub y w2 add w3 sub m currentpoint t 4 {side} repeat cl fill gr} def
/m30 {mp gsave x w2 sub y w2 add w3 sub m currentpoint t 4 {side} repeat cl s gr} def
/m31 {mp x y w2 sub m 0 w d x w2 sub y m w 0 d x w2 sub y w2 add m w w neg d x w2 sub y w2 sub m w w d s} def
/m32 {mp x y w2 sub m w2 w d w neg 0 d cl s} def
/m33 {mp x y w2 add m w3 neg w2 neg d w3 w2 neg d w3 w2 d cl f} def
/m34 {mp x w2 sub y w2 sub w3 add m w3 0 d  0 w3 neg d w3 0 d 0 w3 d w3 0 d  0 w3 d w3 neg 0 d 0 w3 d w3 neg 0 d 0 w3 neg d w3 neg 0 d cl f } def
/m2 {mp x y w2 sub m 0 w d x w2 sub y m w 0 d s} def
/m5 {mp x w2 sub y w2 sub m w w d x w2 sub y w2 add m w w neg d s} def
%%IncludeResource: ProcSet (FontSetInit)
%%IncludeResource: font Times-Roman
%%IncludeResource: font Times-Italic
%%IncludeResource: font Times-Bold
%%IncludeResource: font Times-BoldItalic
%%IncludeResource: font Helvetica
%%IncludeResource: font Helvetica-Oblique
%%IncludeResource: font Helvetica-Bold
%%IncludeResource: font Helvetica-BoldOblique
%%IncludeResource: font Courier
%%IncludeResource: font Courier-Oblique
%%IncludeResource: font Courier-Bold
%%IncludeResource: font Courier-BoldOblique
%%IncludeResource: font Symbol
%%IncludeResource: font ZapfDingbats
/reEncode {exch findfont dup length dict begin {1 index /FID eq  {pop pop} {def} ifelse } forall /Encoding exch def currentdict end dup /FontName get exch definefont pop } def [/Times-Bold /Times-Italic /Times-BoldItalic /Helvetica /Helvetica-Oblique
 /Helvetica-Bold /Helvetica-BoldOblique /Courier /Courier-Oblique /Courier-Bold /Courier-BoldOblique /Times-Roman /AvantGarde-Book /AvantGarde-BookOblique /AvantGarde-Demi /AvantGarde-DemiOblique /Bookman-Demi /Bookman-DemiItalic /Bookman-Light
 /Bookman-LightItalic /Helvetica-Narrow /Helvetica-Narrow-Bold /Helvetica-Narrow-BoldOblique /Helvetica-Narrow-Oblique /NewCenturySchlbk-Roman /NewCenturySchlbk-Bold /NewCenturySchlbk-BoldItalic /NewCenturySchlbk-Italic /Palatino-Bold
 /Palatino-BoldItalic /Palatino-Italic /Palatino-Roman ] {ISOLatin1Encoding reEncode } forall
%%EndProlog
%%BeginSetup
%%EndSetup
newpath  gsave  .25 .25 scale  gsave  0 0 t black[  ] 0 sd 3 lw 1 1 1 c 2268 2190 0 0 bf black 1 1 1 c 2268 1533 0 657 bf black 1 1 1 c 1814 1303 227 733 bf black 1814 1303 227 733 bl 0.8 0 0 c 1 1 1 c 0.8 0 0 c 294 1168 m 194 Y s 294 1381 m 194 Y s
 227 1372 m 57 X s 304 1372 m 49 X s /w 21 def /w2 {w 2 div} def /w3 {w 3 div} def 294 1372 m20 407 1013 m 122 Y s 407 1154 m 123 Y s 353 1145 m 44 X s 417 1145 m 39 X s 407 1145 m20 515 1152 m 86 Y s 515 1258 m 85 Y s 456 1248 m 50 X s 525 1248 m 44
 X s 515 1248 m20 639 1240 m 57 Y s 639 1317 m 57 Y s 569 1307 m 60 X s 649 1307 m 52 X s 639 1307 m20 763 1190 m 46 Y s 763 1256 m 46 Y s 701 1246 m 52 X s 772 1246 m 46 X s 763 1246 m20 878 1277 m 38 Y s 878 1334 m 38 Y s 818 1324 m 50 X s 887 1324
 m 44 X s 878 1324 m20 1002 1317 m 32 Y s 1002 1368 m 31 Y s 931 1358 m 61 X s 1011 1358 m 52 X s 1002 1358 m20 1136 1397 m 28 Y s 1136 1445 m 29 Y s 1063 1435 m 63 X s 1146 1435 m 53 X s 1136 1435 m20 1271 1434 m 31 Y s 1271 1485 m 31 Y s 1199 1475
 m 63 X s 1281 1475 m 53 X s 1271 1475 m20 1404 1444 m 37 Y s 1404 1500 m 37 Y s 1334 1491 m 60 X s 1414 1491 m 51 X s 1404 1491 m20 1531 1322 m 49 Y s 1531 1391 m 49 Y s 1465 1381 m 56 X s 1541 1381 m 49 X s 1531 1381 m20 1670 1276 m 67 Y s 1670
 1363 m 67 Y s 1590 1353 m 70 X s 1680 1353 m 59 X s 1670 1353 m20 1828 1526 m 89 Y s 1828 1634 m 89 Y s 1739 1625 m 79 X s 1838 1625 m 65 X s 1828 1625 m20 1977 1278 m 149 Y s 1977 1447 m 149 Y s 1903 1437 m 64 X s 1987 1437 m 54 X s 1977 1437 m20
 black 227 733 m 1814 X s 341 752 m -19 Y s 451 752 m -19 Y s 541 752 m -19 Y s 617 752 m -19 Y s 682 752 m -19 Y s 740 752 m -19 Y s 792 770 m -37 Y s 1134 752 m -19 Y s 1334 752 m -19 Y s 1476 752 m -19 Y s 1586 752 m -19 Y s 1676 752 m -19 Y s
 1752 752 m -19 Y s 1818 752 m -19 Y s 1876 752 m -19 Y s 1928 770 m -37 Y s 227 2036 m 1814 X s 341 2018 m 18 Y s 451 2018 m 18 Y s 541 2018 m 18 Y s 617 2018 m 18 Y s 682 2018 m 18 Y s 740 2018 m 18 Y s 792 1999 m 37 Y s 1134 2018 m 18 Y s 1334
 2018 m 18 Y s 1476 2018 m 18 Y s 1586 2018 m 18 Y s 1676 2018 m 18 Y s 1752 2018 m 18 Y s 1818 2018 m 18 Y s 1876 2018 m 18 Y s 1928 1999 m 37 Y s 227 733 m 1303 Y s
 gsave  2268 1533 0 657 C 81.4553 1994.03 t 90 r /Helvetica findfont 71.7417 sf 0 0 m (F) show NC gr  285 733 m -58 X s 256 766 m -29 X s 256 799 m -29 X s 256 831 m -29 X s 256 864 m -29 X s 285 896 m -58 X s 256 929 m -29 X s 256 961 m -29 X s 256
 994 m -29 X s 256 1027 m -29 X s 285 1059 m -58 X s 256 1092 m -29 X s 256 1124 m -29 X s 256 1157 m -29 X s 256 1189 m -29 X s 285 1222 m -58 X s 256 1255 m -29 X s 256 1287 m -29 X s 256 1320 m -29 X s 256 1352 m -29 X s 285 1385 m -58 X s 256
 1417 m -29 X s 256 1450 m -29 X s 256 1483 m -29 X s 256 1515 m -29 X s 285 1548 m -58 X s 256 1580 m -29 X s 256 1613 m -29 X s 256 1645 m -29 X s 256 1678 m -29 X s 285 1711 m -58 X s 256 1743 m -29 X s 256 1776 m -29 X s 256 1808 m -29 X s 256
 1841 m -29 X s 285 1873 m -58 X s 256 1906 m -29 X s 256 1939 m -29 X s 256 1971 m -29 X s 256 2004 m -29 X s 285 2036 m -58 X s
 gsave  2268 1533 0 657 C 120.554 716.807 t 0 r /Helvetica findfont 48.9148 sf 0 0 m (0.98) show NC gr 
 gsave  2268 1533 0 657 C 94.4882 879.718 t 0 r /Helvetica findfont 48.9148 sf 0 0 m (0.985) show NC gr 
 gsave  2268 1533 0 657 C 120.554 1042.63 t 0 r /Helvetica findfont 48.9148 sf 0 0 m (0.99) show NC gr 
 gsave  2268 1533 0 657 C 94.4882 1205.54 t 0 r /Helvetica findfont 48.9148 sf 0 0 m (0.995) show NC gr 
 gsave  2268 1533 0 657 C 195.493 1368.45 t 0 r /Helvetica findfont 48.9148 sf 0 0 m (1) show NC gr 
 gsave  2268 1533 0 657 C 94.4882 1531.36 t 0 r /Helvetica findfont 48.9148 sf 0 0 m (1.005) show NC gr 
 gsave  2268 1533 0 657 C 127.07 1691.01 t 0 r /Helvetica findfont 48.9148 sf 0 0 m (1.01) show NC gr 
 gsave  2268 1533 0 657 C 94.4882 1853.92 t 0 r /Helvetica findfont 48.9148 sf 0 0 m (1.015) show NC gr 
 gsave  2268 1533 0 657 C 120.554 2016.83 t 0 r /Helvetica findfont 48.9148 sf 0 0 m (1.02) show NC gr  2041 733 m 1303 Y s 1983 733 m 58 X s 2012 766 m 29 X s 2012 799 m 29 X s 2012 831 m 29 X s 2012 864 m 29 X s 1983 896 m 58 X s 2012 929 m 29 X s
 2012 961 m 29 X s 2012 994 m 29 X s 2012 1027 m 29 X s 1983 1059 m 58 X s 2012 1092 m 29 X s 2012 1124 m 29 X s 2012 1157 m 29 X s 2012 1189 m 29 X s 1983 1222 m 58 X s 2012 1255 m 29 X s 2012 1287 m 29 X s 2012 1320 m 29 X s 2012 1352 m 29 X s 1983
 1385 m 58 X s 2012 1417 m 29 X s 2012 1450 m 29 X s 2012 1483 m 29 X s 2012 1515 m 29 X s 1983 1548 m 58 X s 2012 1580 m 29 X s 2012 1613 m 29 X s 2012 1645 m 29 X s 2012 1678 m 29 X s 1983 1711 m 58 X s 2012 1743 m 29 X s 2012 1776 m 29 X s 2012
 1808 m 29 X s 2012 1841 m 29 X s 1983 1873 m 58 X s 2012 1906 m 29 X s 2012 1939 m 29 X s 2012 1971 m 29 X s 2012 2004 m 29 X s 1983 2036 m 58 X s 0 0.6 0 c 1 1 1 c 0 0.6 0 c 294 1133 m 195 Y s 294 1348 m 195 Y s 227 1338 m 57 X s 304 1338 m 49 X s
 294 1338 m23 407 987 m 125 Y s 407 1132 m 126 Y s 353 1122 m 44 X s 417 1122 m 39 X s 407 1122 m23 515 1132 m 88 Y s 515 1239 m 88 Y s 456 1229 m 50 X s 525 1229 m 44 X s 515 1229 m23 639 1197 m 60 Y s 639 1276 m 60 Y s 569 1266 m 60 X s 649 1266 m
 52 X s 639 1266 m23 763 1155 m 48 Y s 763 1223 m 48 Y s 701 1213 m 52 X s 772 1213 m 46 X s 763 1213 m23 878 1229 m 40 Y s 878 1289 m 40 Y s 818 1279 m 50 X s 887 1279 m 44 X s 878 1279 m23 1002 1281 m 33 Y s 1002 1333 m 33 Y s 931 1323 m 61 X s
 1011 1323 m 52 X s 1002 1323 m23 1136 1371 m 30 Y s 1136 1421 m 30 Y s 1063 1411 m 63 X s 1146 1411 m 53 X s 1136 1411 m23 1271 1402 m 33 Y s 1271 1454 m 33 Y s 1199 1444 m 63 X s 1281 1444 m 53 X s 1271 1444 m23 1404 1400 m 39 Y s 1404 1459 m 39 Y
 s 1334 1449 m 60 X s 1414 1449 m 51 X s 1404 1449 m23 1531 1302 m 51 Y s 1531 1372 m 51 Y s 1465 1363 m 56 X s 1541 1363 m 49 X s 1531 1363 m23 1670 1263 m 72 Y s 1670 1354 m 72 Y s 1590 1344 m 70 X s 1680 1344 m 59 X s 1670 1344 m23 1828 1515 m 89
 Y s 1828 1623 m 88 Y s 1739 1613 m 79 X s 1838 1613 m 65 X s 1828 1613 m23 1977 1265 m 157 Y s 1977 1441 m 157 Y s 1903 1431 m 64 X s 1987 1431 m 54 X s 1977 1431 m23 black 1 1 1 c 567 200 1406 1806 bf black
 gsave  2268 1533 0 657 C 1547.65 1935.38 t 0 r /Helvetica findfont 58.6978 sf 0 0 m (b\255jet original) show NC gr  0.8 0 0 c 1477 1956 m20 black
 gsave  2268 1533 0 657 C 1547.65 1834.37 t 0 r /Helvetica findfont 58.6978 sf 0 0 m (b\255jet with scaling) show NC gr  0 0.6 0 c 1477 1856 m23 black
 gsave  2268 1533 0 657 C 609.286 1883.25 t 0 r /Helvetica-Bold findfont 58.6978 sf 0 0 m (|<1.3) show NC gr 
 gsave  2268 1533 0 657 C 498.507 1912.57 t 0 r /Helvetica-Bold findfont 39.1318 sf 0 0 m (probe) show NC gr 
 gsave  2268 1533 0 657 C 465.925 1883.25 t 0 r /Symbol findfont 58.6978 sf 0 0 m (h) show NC gr 
 gsave  2268 1533 0 657 C 452.892 1883.25 t 0 r /Helvetica-Bold findfont 58.6978 sf 0 0 m (|) show NC gr  1 1 1 c 2268 548 0 109 bf black 1 1 1 c 1814 274 227 383 bf black 1814 274 227 383 bl 1 1 1 c black 294 437 m 84 Y s 294 541 m 84 Y s 227 531 m
 57 X s 304 531 m 49 X s 294 531 m20 407 466 m 52 Y s 407 537 m 52 Y s 353 527 m 44 X s 417 527 m 39 X s 407 527 m20 515 482 m 34 Y s 515 536 m 34 Y s 456 526 m 50 X s 525 526 m 44 X s 515 526 m20 639 502 m 21 Y s 639 543 m 21 Y s 569 533 m 60 X s
 649 533 m 52 X s 639 533 m20 763 504 m 17 Y s 763 540 m 17 Y s 701 531 m 52 X s 772 531 m 46 X s 763 531 m20 878 512 m 13 Y s 878 544 m 13 Y s 818 535 m 50 X s 887 535 m 44 X s 878 535 m20 1002 512 m 10 Y s 1002 541 m 9 Y s 931 531 m 61 X s 1011 531
 m 52 X s 1002 531 m20 1136 510 m 8 Y s 1136 538 m 8 Y s 1063 528 m 63 X s 1146 528 m 53 X s 1136 528 m20 1271 511 m 9 Y s 1271 540 m 9 Y s 1199 530 m 63 X s 1281 530 m 53 X s 1271 530 m20 1404 512 m 12 Y s 1404 543 m 12 Y s 1334 533 m 60 X s 1414
 533 m 51 X s 1404 533 m20 1531 499 m 17 Y s 1531 536 m 17 Y s 1465 526 m 56 X s 1541 526 m 49 X s 1531 526 m20 1670 487 m 26 Y s 1670 533 m 26 Y s 1590 523 m 70 X s 1680 523 m 59 X s 1670 523 m20 1828 479 m 35 Y s 1828 533 m 35 Y s 1739 524 m 79 X s
 1838 524 m 65 X s 1828 524 m20 1977 447 m 65 Y s 1977 532 m 64 Y s 1903 522 m 64 X s 1987 522 m 54 X s 1977 522 m20 227 383 m 1814 X s
 gsave  2268 548 0 109 C 1831.12 257.399 t 0 r /Helvetica findfont 71.6807 sf 0 0 m ( \(GeV\)) show NC gr 
 gsave  2268 548 0 109 C 1736.63 293.239 t 0 r /Helvetica findfont 48.8732 sf 0 0 m (gen) show NC gr 
 gsave  2268 548 0 109 C 1736.63 221.559 t 0 r /Helvetica findfont 48.8732 sf 0 0 m (T,jet) show NC gr 
 gsave  2268 548 0 109 C 1697.53 257.399 t 0 r /Helvetica findfont 71.6807 sf 0 0 m (p) show NC gr  341 390 m -7 Y s
 gsave  2268 548 0 109 C 309.53 335.596 t 0 r /Helvetica findfont 52.1314 sf 0 0 m (40) show NC gr  451 390 m -7 Y s 541 390 m -7 Y s 617 390 m -7 Y s 682 390 m -7 Y s 740 390 m -7 Y s 792 396 m -13 Y s
 gsave  2268 548 0 109 C 792.422 335.009 t 0 r  -43 0 t /Helvetica findfont 52.1314 sf 0 0 m (100) show NC gr  1134 390 m -7 Y s
 gsave  2268 548 0 109 C 1091.5 335.596 t 0 r /Helvetica findfont 52.1314 sf 0 0 m (200) show NC gr  1334 390 m -7 Y s 1476 390 m -7 Y s 1586 390 m -7 Y s 1676 390 m -7 Y s 1752 390 m -7 Y s 1818 390 m -7 Y s 1876 390 m -7 Y s 1928 396 m -13 Y s
 gsave  2268 548 0 109 C 1927.68 335.009 t 0 r  -57 0 t /Helvetica findfont 52.1314 sf 0 0 m (1000) show NC gr  227 383 m 274 Y s
 gsave  2268 548 0 109 C 58.6478 531.089 t 90 r /Helvetica findfont 65.1643 sf 0 0 m (ratio) show NC gr  261 415 m -34 X s 244 425 m -17 X s 244 436 m -17 X s 244 446 m -17 X s 244 457 m -17 X s 261 467 m -34 X s 244 478 m -17 X s 244 488 m -17 X s
 244 499 m -17 X s 244 509 m -17 X s 261 520 m -34 X s 244 531 m -17 X s 244 541 m -17 X s 244 552 m -17 X s 244 562 m -17 X s 261 573 m -34 X s 244 583 m -17 X s 244 594 m -17 X s 244 604 m -17 X s 244 615 m -17 X s 261 625 m -34 X s 261 415 m -34 X
 s 244 404 m -17 X s 244 394 m -17 X s 261 625 m -34 X s 244 636 m -17 X s 244 646 m -17 X s
 gsave  2268 548 0 109 C 127.07 400.76 t 0 r /Helvetica findfont 45.615 sf 0 0 m (0.99) show NC gr 
 gsave  2268 548 0 109 C 101.005 452.892 t 0 r /Helvetica findfont 45.615 sf 0 0 m (0.995) show NC gr 
 gsave  2268 548 0 109 C 198.751 501.765 t 0 r /Helvetica findfont 45.615 sf 0 0 m (1) show NC gr 
 gsave  2268 548 0 109 C 101.005 557.154 t 0 r /Helvetica findfont 45.615 sf 0 0 m (1.005) show NC gr 
 gsave  2268 548 0 109 C 133.587 609.286 t 0 r /Helvetica findfont 45.615 sf 0 0 m (1.01) show NC gr  2041 383 m 274 Y s 2007 415 m 34 X s 2024 425 m 17 X s 2024 436 m 17 X s 2024 446 m 17 X s 2024 457 m 17 X s 2007 467 m 34 X s 2024 478 m 17 X s
 2024 488 m 17 X s 2024 499 m 17 X s 2024 509 m 17 X s 2007 520 m 34 X s 2024 531 m 17 X s 2024 541 m 17 X s 2024 552 m 17 X s 2024 562 m 17 X s 2007 573 m 34 X s 2024 583 m 17 X s 2024 594 m 17 X s 2024 604 m 17 X s 2024 615 m 17 X s 2007 625 m 34 X
 s 2007 415 m 34 X s 2024 404 m 17 X s 2024 394 m 17 X s 2007 625 m 34 X s 2024 636 m 17 X s 2024 646 m 17 X s
 gr  gr showpage
end
%%EOF
