%!PS-Adobe-2.0 EPSF-2.0
%%BoundingBox:  0 0 567 425
%%Title: ./plots/F/var_F_1000000.eps: 
%%Creator: ROOT Version 6.06/04
%%CreationDate: Mon Apr  6 16:59:41 2020
%%DocumentNeededResources: ProcSet (FontSetInit)
%%EndComments
%%BeginProlog
80 dict begin
/s {stroke} def /l {lineto} def /m {moveto} def /t {translate} def
/r {rotate} def /rl {roll}  def /R {repeat} def
/d {rlineto} def /rm {rmoveto} def /gr {grestore} def /f {eofill} def
/c {setrgbcolor} def /black {0 setgray} def /sd {setdash} def
/cl {closepath} def /sf {scalefont setfont} def /lw {setlinewidth} def
/box {m dup 0 exch d exch 0 d 0 exch neg d cl} def
/NC{systemdict begin initclip end}def/C{NC box clip newpath}def
/bl {box s} def /bf {gsave box gsave f grestore 1 lw [] 0 sd s grestore} def /Y { 0 exch d} def /X { 0 d} def 
/K {{pop pop 0 moveto} exch kshow} bind def
/ita {/ang 15 def gsave [1 0 ang dup sin exch cos div 1 0 0] concat} def 
/mp {newpath /y exch def /x exch def} def
/side {[w .77 mul w .23 mul] .385 w mul sd w 0 l currentpoint t -144 r} def
/mr {mp x y w2 0 360 arc} def /m24 {mr s} def /m20 {mr f} def
/mb {mp x y w2 add m w2 neg 0 d 0 w neg d w 0 d 0 w d cl} def
/mt {mp x y w2 add m w2 neg w neg d w 0 d cl} def
/m21 {mb f} def /m25 {mb s} def /m22 {mt f} def /m26{mt s} def
/m23 {mp x y w2 sub m w2 w d w neg 0 d cl f} def
/m27 {mp x y w2 add m w3 neg w2 neg d w3 w2 neg d w3 w2 d cl s} def
/m28 {mp x w2 sub y w2 sub w3 add m w3 0 d  0 w3 neg d w3 0 d 0 w3 d w3 0 d  0 w3 d w3 neg 0 d 0 w3 d w3 neg 0 d 0 w3 neg d w3 neg 0 d cl s } def
/m29 {mp gsave x w2 sub y w2 add w3 sub m currentpoint t 4 {side} repeat cl fill gr} def
/m30 {mp gsave x w2 sub y w2 add w3 sub m currentpoint t 4 {side} repeat cl s gr} def
/m31 {mp x y w2 sub m 0 w d x w2 sub y m w 0 d x w2 sub y w2 add m w w neg d x w2 sub y w2 sub m w w d s} def
/m32 {mp x y w2 sub m w2 w d w neg 0 d cl s} def
/m33 {mp x y w2 add m w3 neg w2 neg d w3 w2 neg d w3 w2 d cl f} def
/m34 {mp x w2 sub y w2 sub w3 add m w3 0 d  0 w3 neg d w3 0 d 0 w3 d w3 0 d  0 w3 d w3 neg 0 d 0 w3 d w3 neg 0 d 0 w3 neg d w3 neg 0 d cl f } def
/m2 {mp x y w2 sub m 0 w d x w2 sub y m w 0 d s} def
/m5 {mp x w2 sub y w2 sub m w w d x w2 sub y w2 add m w w neg d s} def
%%IncludeResource: ProcSet (FontSetInit)
%%IncludeResource: font Times-Roman
%%IncludeResource: font Times-Italic
%%IncludeResource: font Times-Bold
%%IncludeResource: font Times-BoldItalic
%%IncludeResource: font Helvetica
%%IncludeResource: font Helvetica-Oblique
%%IncludeResource: font Helvetica-Bold
%%IncludeResource: font Helvetica-BoldOblique
%%IncludeResource: font Courier
%%IncludeResource: font Courier-Oblique
%%IncludeResource: font Courier-Bold
%%IncludeResource: font Courier-BoldOblique
%%IncludeResource: font Symbol
%%IncludeResource: font ZapfDingbats
/reEncode {exch findfont dup length dict begin {1 index /FID eq  {pop pop} {def} ifelse } forall /Encoding exch def currentdict end dup /FontName get exch definefont pop } def [/Times-Bold /Times-Italic /Times-BoldItalic /Helvetica /Helvetica-Oblique
 /Helvetica-Bold /Helvetica-BoldOblique /Courier /Courier-Oblique /Courier-Bold /Courier-BoldOblique /Times-Roman /AvantGarde-Book /AvantGarde-BookOblique /AvantGarde-Demi /AvantGarde-DemiOblique /Bookman-Demi /Bookman-DemiItalic /Bookman-Light
 /Bookman-LightItalic /Helvetica-Narrow /Helvetica-Narrow-Bold /Helvetica-Narrow-BoldOblique /Helvetica-Narrow-Oblique /NewCenturySchlbk-Roman /NewCenturySchlbk-Bold /NewCenturySchlbk-BoldItalic /NewCenturySchlbk-Italic /Palatino-Bold
 /Palatino-BoldItalic /Palatino-Italic /Palatino-Roman ] {ISOLatin1Encoding reEncode } forall
%%EndProlog
%%BeginSetup
%%EndSetup
newpath  gsave  .25 .25 scale  gsave  0 0 t black[  ] 0 sd 3 lw 1 1 1 c 2268 1701 0 0 bf black 1 1 1 c 1701 1310 340 221 bf black 1701 1310 340 221 bl 0.8 0 0 c 1 1 1 c 0.8 0 0 c 403 658 m 191 Y s 403 876 m 191 Y s 340 862 m 49 X s 417 862 m 41 X s
 /w 29 def /w2 {w 2 div} def /w3 {w 3 div} def 403 862 m20 509 502 m 119 Y s 509 648 m 119 Y s 458 634 m 37 X s 523 634 m 32 X s 509 634 m20 611 642 m 82 Y s 611 752 m 82 Y s 555 738 m 42 X s 624 738 m 37 X s 611 738 m20 727 730 m 54 Y s 727 811 m 54
 Y s 661 798 m 52 X s 740 798 m 44 X s 727 798 m20 842 680 m 42 Y s 842 750 m 43 Y s 784 736 m 45 X s 856 736 m 38 X s 842 736 m20 950 767 m 34 Y s 950 829 m 34 Y s 894 815 m 43 X s 964 815 m 37 X s 950 815 m20 1067 808 m 27 Y s 1067 863 m 27 Y s
 1001 849 m 52 X s 1080 849 m 44 X s 1067 849 m20 1193 888 m 25 Y s 1193 940 m 25 Y s 1124 927 m 55 X s 1206 927 m 46 X s 1193 927 m20 1319 925 m 28 Y s 1319 980 m 28 Y s 1252 967 m 54 X s 1333 967 m 45 X s 1319 967 m20 1444 935 m 33 Y s 1444 996 m
 33 Y s 1378 982 m 52 X s 1457 982 m 44 X s 1444 982 m20 1563 813 m 45 Y s 1563 886 m 45 Y s 1501 872 m 48 X s 1577 872 m 41 X s 1563 872 m20 1693 766 m 64 Y s 1693 858 m 63 Y s 1618 844 m 61 X s 1707 844 m 51 X s 1693 844 m20 1841 1018 m 85 Y s 1841
 1131 m 85 Y s 1758 1117 m 69 X s 1855 1117 m 57 X s 1841 1117 m20 1981 769 m 146 Y s 1981 942 m 146 Y s 1912 928 m 55 X s 1995 928 m 46 X s 1981 928 m20 black 340 221 m 1701 X s
 gsave  2268 1701 0 0 C 1815.09 64.0081 t 0 r /Helvetica findfont 77.7242 sf 0 0 m ( \(GeV\)) show NC gr 
 gsave  2268 1701 0 0 C 1705.36 105.156 t 0 r /Helvetica findfont 54.8641 sf 0 0 m (gen) show NC gr 
 gsave  2268 1701 0 0 C 1705.36 18.288 t 0 r /Helvetica findfont 54.8641 sf 0 0 m (T,jet) show NC gr 
 gsave  2268 1701 0 0 C 1664.21 64.0081 t 0 r /Helvetica findfont 77.7242 sf 0 0 m (p) show NC gr  447 240 m -19 Y s
 gsave  2268 1701 0 0 C 411.481 164.592 t 0 r /Helvetica findfont 54.8641 sf 0 0 m (40) show NC gr  550 240 m -19 Y s
 gsave  2268 1701 0 0 C 516.637 164.592 t 0 r /Helvetica findfont 54.8641 sf 0 0 m (50) show NC gr  634 240 m -19 Y s
 gsave  2268 1701 0 0 C 598.933 164.592 t 0 r /Helvetica findfont 54.8641 sf 0 0 m (60) show NC gr  706 240 m -19 Y s 767 240 m -19 Y s 822 240 m -19 Y s 870 259 m -38 Y s
 gsave  2268 1701 0 0 C 870.454 163.786 t 0 r  -46 0 t /Helvetica findfont 54.8641 sf 0 0 m (100) show NC gr  1191 240 m -19 Y s
 gsave  2268 1701 0 0 C 1143 164.592 t 0 r /Helvetica findfont 54.8641 sf 0 0 m (200) show NC gr  1378 240 m -19 Y s
 gsave  2268 1701 0 0 C 1330.45 164.592 t 0 r /Helvetica findfont 54.8641 sf 0 0 m (300) show NC gr  1511 240 m -19 Y s
 gsave  2268 1701 0 0 C 1463.04 164.592 t 0 r /Helvetica findfont 54.8641 sf 0 0 m (400) show NC gr  1614 240 m -19 Y s 1699 240 m -19 Y s 1770 240 m -19 Y s 1832 240 m -19 Y s 1886 240 m -19 Y s 1935 259 m -38 Y s
 gsave  2268 1701 0 0 C 1934.76 163.786 t 0 r  -61 0 t /Helvetica findfont 54.8641 sf 0 0 m (1000) show NC gr  340 1531 m 1701 X s 447 1512 m 19 Y s 550 1512 m 19 Y s 634 1512 m 19 Y s 706 1512 m 19 Y s 767 1512 m 19 Y s 822 1512 m 19 Y s 870 1492 m
 39 Y s 1191 1512 m 19 Y s 1378 1512 m 19 Y s 1511 1512 m 19 Y s 1614 1512 m 19 Y s 1699 1512 m 19 Y s 1770 1512 m 19 Y s 1832 1512 m 19 Y s 1886 1512 m 19 Y s 1935 1492 m 39 Y s 340 221 m 1310 Y s
 gsave  2268 1701 0 0 C 169.164 1485.9 t 90 r /Helvetica findfont 77.7242 sf 0 0 m (F) show NC gr  393 221 m -53 X s 366 254 m -26 X s 366 287 m -26 X s 366 319 m -26 X s 366 352 m -26 X s 393 385 m -53 X s 366 418 m -26 X s 366 450 m -26 X s 366 483
 m -26 X s 366 516 m -26 X s 393 549 m -53 X s 366 581 m -26 X s 366 614 m -26 X s 366 647 m -26 X s 366 679 m -26 X s 393 712 m -53 X s 366 745 m -26 X s 366 778 m -26 X s 366 810 m -26 X s 366 843 m -26 X s 393 876 m -53 X s 366 909 m -26 X s 366
 941 m -26 X s 366 974 m -26 X s 366 1007 m -26 X s 393 1040 m -53 X s 366 1072 m -26 X s 366 1105 m -26 X s 366 1138 m -26 X s 366 1171 m -26 X s 393 1203 m -53 X s 366 1236 m -26 X s 366 1269 m -26 X s 366 1302 m -26 X s 366 1334 m -26 X s 393 1367
 m -53 X s 366 1400 m -26 X s 366 1432 m -26 X s 366 1465 m -26 X s 366 1498 m -26 X s 393 1531 m -53 X s
 gsave  2268 1701 0 0 C 219.456 201.168 t 0 r /Helvetica findfont 54.8641 sf 0 0 m (0.98) show NC gr 
 gsave  2268 1701 0 0 C 187.452 365.761 t 0 r /Helvetica findfont 54.8641 sf 0 0 m (0.985) show NC gr 
 gsave  2268 1701 0 0 C 219.456 525.781 t 0 r /Helvetica findfont 54.8641 sf 0 0 m (0.99) show NC gr 
 gsave  2268 1701 0 0 C 187.452 690.373 t 0 r /Helvetica findfont 54.8641 sf 0 0 m (0.995) show NC gr 
 gsave  2268 1701 0 0 C 301.753 854.966 t 0 r /Helvetica findfont 54.8641 sf 0 0 m (1) show NC gr 
 gsave  2268 1701 0 0 C 187.452 1019.56 t 0 r /Helvetica findfont 54.8641 sf 0 0 m (1.005) show NC gr 
 gsave  2268 1701 0 0 C 228.6 1184.15 t 0 r /Helvetica findfont 54.8641 sf 0 0 m (1.01) show NC gr 
 gsave  2268 1701 0 0 C 187.452 1344.17 t 0 r /Helvetica findfont 54.8641 sf 0 0 m (1.015) show NC gr 
 gsave  2268 1701 0 0 C 219.456 1508.76 t 0 r /Helvetica findfont 54.8641 sf 0 0 m (1.02) show NC gr  2041 221 m 1310 Y s 1989 221 m 52 X s 2015 254 m 26 X s 2015 287 m 26 X s 2015 319 m 26 X s 2015 352 m 26 X s 1989 385 m 52 X s 2015 418 m 26 X s
 2015 450 m 26 X s 2015 483 m 26 X s 2015 516 m 26 X s 1989 549 m 52 X s 2015 581 m 26 X s 2015 614 m 26 X s 2015 647 m 26 X s 2015 679 m 26 X s 1989 712 m 52 X s 2015 745 m 26 X s 2015 778 m 26 X s 2015 810 m 26 X s 2015 843 m 26 X s 1989 876 m 52 X
 s 2015 909 m 26 X s 2015 941 m 26 X s 2015 974 m 26 X s 2015 1007 m 26 X s 1989 1040 m 52 X s 2015 1072 m 26 X s 2015 1105 m 26 X s 2015 1138 m 26 X s 2015 1171 m 26 X s 1989 1203 m 52 X s 2015 1236 m 26 X s 2015 1269 m 26 X s 2015 1302 m 26 X s
 2015 1334 m 26 X s 1989 1367 m 52 X s 2015 1400 m 26 X s 2015 1432 m 26 X s 2015 1465 m 26 X s 2015 1498 m 26 X s 1989 1531 m 52 X s 0 0.6 0 c 1 1 1 c 0 0.6 0 c 403 622 m 193 Y s 403 842 m 193 Y s 340 829 m 49 X s 417 829 m 41 X s 403 829 m23 509
 476 m 122 Y s 509 626 m 122 Y s 458 612 m 37 X s 523 612 m 32 X s 509 612 m23 611 622 m 84 Y s 611 733 m 85 Y s 555 720 m 42 X s 624 720 m 37 X s 611 720 m23 727 687 m 56 Y s 727 771 m 55 Y s 661 757 m 52 X s 740 757 m 44 X s 727 757 m23 842 645 m
 45 Y s 842 717 m 45 Y s 784 703 m 45 X s 856 703 m 38 X s 842 703 m23 950 719 m 37 Y s 950 783 m 37 Y s 894 770 m 43 X s 964 770 m 37 X s 950 770 m23 1067 771 m 29 Y s 1067 828 m 29 Y s 1001 814 m 52 X s 1080 814 m 44 X s 1067 814 m23 1193 862 m 26
 Y s 1193 916 m 26 Y s 1124 902 m 55 X s 1206 902 m 46 X s 1193 902 m23 1319 893 m 29 Y s 1319 950 m 29 Y s 1252 936 m 54 X s 1333 936 m 45 X s 1319 936 m23 1444 892 m 35 Y s 1444 954 m 36 Y s 1378 941 m 52 X s 1457 941 m 44 X s 1444 941 m23 1563 793
 m 47 Y s 1563 867 m 47 Y s 1501 854 m 48 X s 1577 854 m 41 X s 1563 854 m23 1693 754 m 68 Y s 1693 849 m 68 Y s 1618 835 m 61 X s 1707 835 m 51 X s 1693 835 m23 1841 1007 m 85 Y s 1841 1119 m 85 Y s 1758 1106 m 69 X s 1855 1106 m 57 X s 1841 1106
 m23 1981 755 m 154 Y s 1981 936 m 154 Y s 1912 923 m 55 X s 1995 923 m 46 X s 1981 923 m23 black 1 1 1 c 476 221 1497 1276 bf black
 gsave  2268 1701 0 0 C 1613.92 1431.04 t 0 r /Helvetica findfont 45.7201 sf 0 0 m (b\255jet original) show NC gr  0.8 0 0 c 1556 1441 m20 black
 gsave  2268 1701 0 0 C 1613.92 1321.31 t 0 r /Helvetica findfont 45.7201 sf 0 0 m (b\255jet with scaling) show NC gr  0 0.6 0 c 1556 1331 m23
 gr  gr showpage
end
%%EOF
