%!PS-Adobe-2.0 EPSF-2.0
%%BoundingBox:  0 0 567 368
%%Title: ./plots/pT-bal/MC_P8_Zjet.eps: canvas
%%Creator: ROOT Version 6.06/04
%%CreationDate: Thu Jun 18 09:56:00 2020
%%DocumentNeededResources: ProcSet (FontSetInit)
%%EndComments
%%BeginProlog
80 dict begin
/s {stroke} def /l {lineto} def /m {moveto} def /t {translate} def
/r {rotate} def /rl {roll}  def /R {repeat} def
/d {rlineto} def /rm {rmoveto} def /gr {grestore} def /f {eofill} def
/c {setrgbcolor} def /black {0 setgray} def /sd {setdash} def
/cl {closepath} def /sf {scalefont setfont} def /lw {setlinewidth} def
/box {m dup 0 exch d exch 0 d 0 exch neg d cl} def
/NC{systemdict begin initclip end}def/C{NC box clip newpath}def
/bl {box s} def /bf {gsave box gsave f grestore 1 lw [] 0 sd s grestore} def /Y { 0 exch d} def /X { 0 d} def 
/K {{pop pop 0 moveto} exch kshow} bind def
/ita {/ang 15 def gsave [1 0 ang dup sin exch cos div 1 0 0] concat} def 
/mp {newpath /y exch def /x exch def} def
/side {[w .77 mul w .23 mul] .385 w mul sd w 0 l currentpoint t -144 r} def
/mr {mp x y w2 0 360 arc} def /m24 {mr s} def /m20 {mr f} def
/mb {mp x y w2 add m w2 neg 0 d 0 w neg d w 0 d 0 w d cl} def
/mt {mp x y w2 add m w2 neg w neg d w 0 d cl} def
/m21 {mb f} def /m25 {mb s} def /m22 {mt f} def /m26{mt s} def
/m23 {mp x y w2 sub m w2 w d w neg 0 d cl f} def
/m27 {mp x y w2 add m w3 neg w2 neg d w3 w2 neg d w3 w2 d cl s} def
/m28 {mp x w2 sub y w2 sub w3 add m w3 0 d  0 w3 neg d w3 0 d 0 w3 d w3 0 d  0 w3 d w3 neg 0 d 0 w3 d w3 neg 0 d 0 w3 neg d w3 neg 0 d cl s } def
/m29 {mp gsave x w2 sub y w2 add w3 sub m currentpoint t 4 {side} repeat cl fill gr} def
/m30 {mp gsave x w2 sub y w2 add w3 sub m currentpoint t 4 {side} repeat cl s gr} def
/m31 {mp x y w2 sub m 0 w d x w2 sub y m w 0 d x w2 sub y w2 add m w w neg d x w2 sub y w2 sub m w w d s} def
/m32 {mp x y w2 sub m w2 w d w neg 0 d cl s} def
/m33 {mp x y w2 add m w3 neg w2 neg d w3 w2 neg d w3 w2 d cl f} def
/m34 {mp x w2 sub y w2 sub w3 add m w3 0 d  0 w3 neg d w3 0 d 0 w3 d w3 0 d  0 w3 d w3 neg 0 d 0 w3 d w3 neg 0 d 0 w3 neg d w3 neg 0 d cl f } def
/m2 {mp x y w2 sub m 0 w d x w2 sub y m w 0 d s} def
/m5 {mp x w2 sub y w2 sub m w w d x w2 sub y w2 add m w w neg d s} def
%%IncludeResource: ProcSet (FontSetInit)
%%IncludeResource: font Times-Roman
%%IncludeResource: font Times-Italic
%%IncludeResource: font Times-Bold
%%IncludeResource: font Times-BoldItalic
%%IncludeResource: font Helvetica
%%IncludeResource: font Helvetica-Oblique
%%IncludeResource: font Helvetica-Bold
%%IncludeResource: font Helvetica-BoldOblique
%%IncludeResource: font Courier
%%IncludeResource: font Courier-Oblique
%%IncludeResource: font Courier-Bold
%%IncludeResource: font Courier-BoldOblique
%%IncludeResource: font Symbol
%%IncludeResource: font ZapfDingbats
/reEncode {exch findfont dup length dict begin {1 index /FID eq  {pop pop} {def} ifelse } forall /Encoding exch def currentdict end dup /FontName get exch definefont pop } def [/Times-Bold /Times-Italic /Times-BoldItalic /Helvetica /Helvetica-Oblique
 /Helvetica-Bold /Helvetica-BoldOblique /Courier /Courier-Oblique /Courier-Bold /Courier-BoldOblique /Times-Roman /AvantGarde-Book /AvantGarde-BookOblique /AvantGarde-Demi /AvantGarde-DemiOblique /Bookman-Demi /Bookman-DemiItalic /Bookman-Light
 /Bookman-LightItalic /Helvetica-Narrow /Helvetica-Narrow-Bold /Helvetica-Narrow-BoldOblique /Helvetica-Narrow-Oblique /NewCenturySchlbk-Roman /NewCenturySchlbk-Bold /NewCenturySchlbk-BoldItalic /NewCenturySchlbk-Italic /Palatino-Bold
 /Palatino-BoldItalic /Palatino-Italic /Palatino-Roman ] {ISOLatin1Encoding reEncode } forall
%%EndProlog
%%BeginSetup
%%EndSetup
newpath  gsave  .25 .25 scale  gsave  0 0 t black[  ] 0 sd 3 lw 1 1 1 c 2268 1472 0 0 bf black 1 1 1 c 2268 1472 0 0 bf black 1 1 1 c 1769 1156 272 169 bf black 1769 1156 272 169 bl 0 0 0.6 c 1 1 1 c black 0 0 0.6 c 272 169 m 1769 X s black 272 169 m
 1769 X s
 gsave  2268 1472 0 0 C 1824.23 45.7201 t 0 r /Times-Roman findfont 77.7242 sf 0 0 m ( [GeV]) show NC gr 
 gsave  2268 1472 0 0 C 1719.08 73.1521 t 0 r /Times-Roman findfont 50.2921 sf 0 0 m (MC) show NC gr 
 gsave  2268 1472 0 0 C 1719.08 9.14402 t 0 r /Times-Roman findfont 50.2921 sf 0 0 m (T,tag) show NC gr 
 gsave  2268 1472 0 0 C 1668.78 45.7201 t 0 r /Times-Italic findfont 77.7242 sf 0 0 m (p) show NC gr  383 187 m -18 Y s
 gsave  2268 1472 0 0 C 352.045 123.444 t 0 r /Helvetica findfont 50.2921 sf 0 0 m (40) show NC gr  490 187 m -18 Y s
 gsave  2268 1472 0 0 C 461.773 123.444 t 0 r /Helvetica findfont 50.2921 sf 0 0 m (50) show NC gr  578 187 m -18 Y s
 gsave  2268 1472 0 0 C 548.641 123.444 t 0 r /Helvetica findfont 50.2921 sf 0 0 m (60) show NC gr  652 187 m -18 Y s
 gsave  2268 1472 0 0 C 621.793 123.444 t 0 r /Helvetica findfont 50.2921 sf 0 0 m (70) show NC gr  716 187 m -18 Y s 773 187 m -18 Y s 824 204 m -35 Y s
 gsave  2268 1472 0 0 C 823.635 119.689 t 0 r  -40 0 t /Helvetica findfont 50.2921 sf 0 0 m (100) show NC gr  1157 187 m -18 Y s
 gsave  2268 1472 0 0 C 1115.57 123.444 t 0 r /Helvetica findfont 50.2921 sf 0 0 m (200) show NC gr  1352 187 m -18 Y s
 gsave  2268 1472 0 0 C 1307.59 123.444 t 0 r /Helvetica findfont 50.2921 sf 0 0 m (300) show NC gr  1490 187 m -18 Y s
 gsave  2268 1472 0 0 C 1444.75 123.444 t 0 r /Helvetica findfont 50.2921 sf 0 0 m (400) show NC gr  1597 187 m -18 Y s
 gsave  2268 1472 0 0 C 1554.48 123.444 t 0 r /Helvetica findfont 50.2921 sf 0 0 m (500) show NC gr  1685 187 m -18 Y s 1759 187 m -18 Y s 1823 187 m -18 Y s 1880 187 m -18 Y s 1931 204 m -35 Y s
 gsave  2268 1472 0 0 C 1930.51 119.689 t 0 r  -53 0 t /Helvetica findfont 50.2921 sf 0 0 m (1000) show NC gr  272 169 m 1156 Y s
 gsave  2268 1472 0 0 C 64.0081 1261.87 t 90 r /Times-Roman findfont 50.2921 sf 0 0 m (tag) show NC gr 
 gsave  2268 1472 0 0 C 150.876 1261.87 t 90 r /Times-Roman findfont 50.2921 sf 0 0 m (T) show NC gr 
 gsave  2268 1472 0 0 C 109.728 1197.87 t 90 r /Times-Roman findfont 77.7242 sf 0 0 m (/p) show NC gr 
 gsave  2268 1472 0 0 C 73.1521 1083.57 t 90 r /Times-Roman findfont 50.2921 sf 0 0 m (probe) show NC gr 
 gsave  2268 1472 0 0 C 150.876 1083.57 t 90 r /Times-Roman findfont 50.2921 sf 0 0 m (T) show NC gr 
 gsave  2268 1472 0 0 C 109.728 1024.13 t 90 r /Times-Roman findfont 77.7242 sf 0 0 m ( p) show NC gr  326 169 m -54 X s 299 198 m -27 X s 299 227 m -27 X s 299 256 m -27 X s 299 285 m -27 X s 326 314 m -54 X s 299 343 m -27 X s 299 372 m -27 X s 299
 400 m -27 X s 299 429 m -27 X s 326 458 m -54 X s 299 487 m -27 X s 299 516 m -27 X s 299 545 m -27 X s 299 574 m -27 X s 326 603 m -54 X s 299 632 m -27 X s 299 660 m -27 X s 299 689 m -27 X s 299 718 m -27 X s 326 747 m -54 X s 299 776 m -27 X s
 299 805 m -27 X s 299 834 m -27 X s 299 863 m -27 X s 326 892 m -54 X s 299 920 m -27 X s 299 949 m -27 X s 299 978 m -27 X s 299 1007 m -27 X s 326 1036 m -54 X s 299 1065 m -27 X s 299 1094 m -27 X s 299 1123 m -27 X s 299 1152 m -27 X s 326 1181
 m -54 X s 299 1209 m -27 X s 299 1238 m -27 X s 299 1267 m -27 X s 299 1296 m -27 X s 326 1325 m -54 X s 326 169 m -54 X s
 gsave  2268 1472 0 0 C 192.024 155.448 t 0 r /Helvetica findfont 50.2921 sf 0 0 m (0.6) show NC gr 
 gsave  2268 1472 0 0 C 164.592 297.181 t 0 r /Helvetica findfont 50.2921 sf 0 0 m (0.65) show NC gr 
 gsave  2268 1472 0 0 C 192.024 443.485 t 0 r /Helvetica findfont 50.2921 sf 0 0 m (0.7) show NC gr 
 gsave  2268 1472 0 0 C 164.592 585.217 t 0 r /Helvetica findfont 50.2921 sf 0 0 m (0.75) show NC gr 
 gsave  2268 1472 0 0 C 192.024 731.521 t 0 r /Helvetica findfont 50.2921 sf 0 0 m (0.8) show NC gr 
 gsave  2268 1472 0 0 C 164.592 877.826 t 0 r /Helvetica findfont 50.2921 sf 0 0 m (0.85) show NC gr 
 gsave  2268 1472 0 0 C 192.024 1019.56 t 0 r /Helvetica findfont 50.2921 sf 0 0 m (0.9) show NC gr 
 gsave  2268 1472 0 0 C 164.592 1165.86 t 0 r /Helvetica findfont 50.2921 sf 0 0 m (0.95) show NC gr 
 gsave  2268 1472 0 0 C 242.316 1303.02 t 0 r /Helvetica findfont 50.2921 sf 0 0 m (1) show NC gr  1 1 1 c black 337 753 m 14 Y s 337 767 m 15 Y s 272 767 m 65 X s 337 767 m 58 X s /w 2 def /w2 {w 2 div} def /w3 {w 3 div} def 337 767 m20 448 721 m 10
 Y s 448 731 m 11 Y s 395 731 m 53 X s 448 731 m 47 X s 448 731 m20 553 745 m 7 Y s 553 752 m 7 Y s 495 752 m 58 X s 553 752 m 52 X s 553 752 m20 674 760 m 5 Y s 674 765 m 5 Y s 605 765 m 69 X s 674 765 m 60 X s 674 765 m20 795 777 m 4 Y s 795 781 m
 4 Y s 734 781 m 61 X s 795 781 m 53 X s 795 781 m20 907 805 m 4 Y s 907 809 m 3 Y s 848 809 m 59 X s 907 809 m 52 X s 907 809 m20 1028 830 m 3 Y s 1028 833 m 2 Y s 959 833 m 69 X s 1028 833 m 60 X s 1028 833 m20 1159 855 m 3 Y s 1159 858 m 2 Y s
 1088 858 m 71 X s 1159 858 m 61 X s 1159 858 m20 1291 875 m 3 Y s 1291 878 m 2 Y s 1220 878 m 71 X s 1291 878 m 61 X s 1291 878 m20 1420 888 m 3 Y s 1420 891 m 3 Y s 1352 891 m 68 X s 1420 891 m 59 X s 1420 891 m20 1544 896 m 3 Y s 1544 899 m 3 Y s
 1479 899 m 65 X s 1544 899 m 57 X s 1544 899 m20 1679 907 m 3 Y s 1679 910 m 3 Y s 1601 910 m 78 X s 1679 910 m 67 X s 1679 910 m20 1833 895 m 4 Y s 1833 899 m 3 Y s 1746 899 m 87 X s 1833 899 m 74 X s 1833 899 m20 1978 885 m 5 Y s 1978 890 m 4 Y s
 1907 890 m 71 X s 1978 890 m 63 X s 1978 890 m20 1817 1153 m 12 Y s 1807 1165 m 19 X s 1817 1116 m -12 Y s 1807 1104 m 19 X s 1992 1087 m 79 Y s 1983 1166 m 18 X s 1992 1050 m -78 Y s 1983 972 m 18 X s 0 0.6 0 c /w 37 def /w2 {w 2 div} def /w3 {w 3
 div} def 343 1007 450 1021 539 1045 666 1079 795 1103 896 1108 1015 1115 1152 1131 1281 1144 1411 1140 1538 1150 1659 1135 1817 1135 1992 1069 14 { m24} R black
 gsave  2268 1472 0 0 C 1641.35 338.329 t 0 r /Times-Roman findfont 32.0041 sf 0 0 m (CMS Z+jet MC) show NC gr  0 0.6 0 c 1582 346 m24 black
 gsave  2268 1472 0 0 C 1641.35 292.609 t 0 r /Times-Roman findfont 32.0041 sf 0 0 m (Our Z+jet MC pTp\255bins) show NC gr  1538 302 m 87 X s
 gr  gr showpage
end
%%EOF
