%!PS-Adobe-2.0 EPSF-2.0
%%BoundingBox:  0 0 567 425
%%Title: ./plots/Rjet/diff_Rjet.eps: 
%%Creator: ROOT Version 6.06/04
%%CreationDate: Thu Apr 23 12:05:11 2020
%%DocumentNeededResources: ProcSet (FontSetInit)
%%EndComments
%%BeginProlog
80 dict begin
/s {stroke} def /l {lineto} def /m {moveto} def /t {translate} def
/r {rotate} def /rl {roll}  def /R {repeat} def
/d {rlineto} def /rm {rmoveto} def /gr {grestore} def /f {eofill} def
/c {setrgbcolor} def /black {0 setgray} def /sd {setdash} def
/cl {closepath} def /sf {scalefont setfont} def /lw {setlinewidth} def
/box {m dup 0 exch d exch 0 d 0 exch neg d cl} def
/NC{systemdict begin initclip end}def/C{NC box clip newpath}def
/bl {box s} def /bf {gsave box gsave f grestore 1 lw [] 0 sd s grestore} def /Y { 0 exch d} def /X { 0 d} def 
/K {{pop pop 0 moveto} exch kshow} bind def
/ita {/ang 15 def gsave [1 0 ang dup sin exch cos div 1 0 0] concat} def 
/mp {newpath /y exch def /x exch def} def
/side {[w .77 mul w .23 mul] .385 w mul sd w 0 l currentpoint t -144 r} def
/mr {mp x y w2 0 360 arc} def /m24 {mr s} def /m20 {mr f} def
/mb {mp x y w2 add m w2 neg 0 d 0 w neg d w 0 d 0 w d cl} def
/mt {mp x y w2 add m w2 neg w neg d w 0 d cl} def
/m21 {mb f} def /m25 {mb s} def /m22 {mt f} def /m26{mt s} def
/m23 {mp x y w2 sub m w2 w d w neg 0 d cl f} def
/m27 {mp x y w2 add m w3 neg w2 neg d w3 w2 neg d w3 w2 d cl s} def
/m28 {mp x w2 sub y w2 sub w3 add m w3 0 d  0 w3 neg d w3 0 d 0 w3 d w3 0 d  0 w3 d w3 neg 0 d 0 w3 d w3 neg 0 d 0 w3 neg d w3 neg 0 d cl s } def
/m29 {mp gsave x w2 sub y w2 add w3 sub m currentpoint t 4 {side} repeat cl fill gr} def
/m30 {mp gsave x w2 sub y w2 add w3 sub m currentpoint t 4 {side} repeat cl s gr} def
/m31 {mp x y w2 sub m 0 w d x w2 sub y m w 0 d x w2 sub y w2 add m w w neg d x w2 sub y w2 sub m w w d s} def
/m32 {mp x y w2 sub m w2 w d w neg 0 d cl s} def
/m33 {mp x y w2 add m w3 neg w2 neg d w3 w2 neg d w3 w2 d cl f} def
/m34 {mp x w2 sub y w2 sub w3 add m w3 0 d  0 w3 neg d w3 0 d 0 w3 d w3 0 d  0 w3 d w3 neg 0 d 0 w3 d w3 neg 0 d 0 w3 neg d w3 neg 0 d cl f } def
/m2 {mp x y w2 sub m 0 w d x w2 sub y m w 0 d s} def
/m5 {mp x w2 sub y w2 sub m w w d x w2 sub y w2 add m w w neg d s} def
%%IncludeResource: ProcSet (FontSetInit)
%%IncludeResource: font Times-Roman
%%IncludeResource: font Times-Italic
%%IncludeResource: font Times-Bold
%%IncludeResource: font Times-BoldItalic
%%IncludeResource: font Helvetica
%%IncludeResource: font Helvetica-Oblique
%%IncludeResource: font Helvetica-Bold
%%IncludeResource: font Helvetica-BoldOblique
%%IncludeResource: font Courier
%%IncludeResource: font Courier-Oblique
%%IncludeResource: font Courier-Bold
%%IncludeResource: font Courier-BoldOblique
%%IncludeResource: font Symbol
%%IncludeResource: font ZapfDingbats
/reEncode {exch findfont dup length dict begin {1 index /FID eq  {pop pop} {def} ifelse } forall /Encoding exch def currentdict end dup /FontName get exch definefont pop } def [/Times-Bold /Times-Italic /Times-BoldItalic /Helvetica /Helvetica-Oblique
 /Helvetica-Bold /Helvetica-BoldOblique /Courier /Courier-Oblique /Courier-Bold /Courier-BoldOblique /Times-Roman /AvantGarde-Book /AvantGarde-BookOblique /AvantGarde-Demi /AvantGarde-DemiOblique /Bookman-Demi /Bookman-DemiItalic /Bookman-Light
 /Bookman-LightItalic /Helvetica-Narrow /Helvetica-Narrow-Bold /Helvetica-Narrow-BoldOblique /Helvetica-Narrow-Oblique /NewCenturySchlbk-Roman /NewCenturySchlbk-Bold /NewCenturySchlbk-BoldItalic /NewCenturySchlbk-Italic /Palatino-Bold
 /Palatino-BoldItalic /Palatino-Italic /Palatino-Roman ] {ISOLatin1Encoding reEncode } forall
%%EndProlog
%%BeginSetup
%%EndSetup
newpath  gsave  .25 .25 scale  gsave  0 0 t black[  ] 0 sd 3 lw 1 1 1 c 2268 1701 0 0 bf black 1 1 1 c 1701 1310 340 221 bf black 1701 1310 340 221 bl 1 1 1 c black 403 280 m 576 Y s 403 893 m 575 Y s 340 874 m 45 X s 421 874 m 37 X s /w 37 def /w2
 {w 2 div} def /w3 {w 3 div} def 403 874 m24 509 492 m 365 Y s 509 893 m 365 Y s 458 875 m 33 X s 527 875 m 28 X s 509 875 m24 611 596 m 254 Y s 611 887 m 254 Y s 555 868 m 37 X s 629 868 m 32 X s 611 868 m24 727 689 m 172 Y s 727 898 m 172 Y s 661
 879 m 47 X s 745 879 m 39 X s 727 879 m24 842 722 m 134 Y s 842 892 m 135 Y s 784 874 m 40 X s 861 874 m 33 X s 842 874 m24 950 746 m 113 Y s 950 896 m 113 Y s 894 878 m 38 X s 969 878 m 32 X s 950 878 m24 1067 766 m 87 Y s 1067 890 m 87 Y s 1001
 871 m 47 X s 1085 871 m 39 X s 1067 871 m24 1193 774 m 75 Y s 1193 886 m 75 Y s 1124 868 m 50 X s 1211 868 m 41 X s 1193 868 m24 1319 778 m 71 Y s 1319 885 m 71 Y s 1252 867 m 49 X s 1338 867 m 40 X s 1319 867 m24 1444 779 m 71 Y s 1444 887 m 71 Y s
 1378 868 m 47 X s 1462 868 m 39 X s 1444 868 m24 1563 765 m 78 Y s 1563 879 m 78 Y s 1501 861 m 44 X s 1581 861 m 37 X s 1563 861 m24 1693 764 m 81 Y s 1693 882 m 81 Y s 1618 864 m 57 X s 1711 864 m 47 X s 1693 864 m24 1841 747 m 94 Y s 1841 878 m
 94 Y s 1758 860 m 65 X s 1859 860 m 53 X s 1841 860 m24 1981 696 m 150 Y s 1981 882 m 150 Y s 1912 864 m 51 X s 1999 864 m 42 X s 1981 864 m24 340 221 m 1701 X s
 gsave  2268 1701 0 0 C 1815.09 64.0081 t 0 r /Helvetica findfont 77.7242 sf 0 0 m ( \(GeV\)) show NC gr 
 gsave  2268 1701 0 0 C 1705.36 105.156 t 0 r /Helvetica findfont 54.8641 sf 0 0 m (gen) show NC gr 
 gsave  2268 1701 0 0 C 1705.36 18.288 t 0 r /Helvetica findfont 54.8641 sf 0 0 m (T,jet) show NC gr 
 gsave  2268 1701 0 0 C 1664.21 64.0081 t 0 r /Helvetica findfont 77.7242 sf 0 0 m (p) show NC gr  447 240 m -19 Y s
 gsave  2268 1701 0 0 C 411.481 164.592 t 0 r /Helvetica findfont 54.8641 sf 0 0 m (40) show NC gr  550 240 m -19 Y s
 gsave  2268 1701 0 0 C 516.637 164.592 t 0 r /Helvetica findfont 54.8641 sf 0 0 m (50) show NC gr  634 240 m -19 Y s
 gsave  2268 1701 0 0 C 598.933 164.592 t 0 r /Helvetica findfont 54.8641 sf 0 0 m (60) show NC gr  706 240 m -19 Y s 767 240 m -19 Y s 822 240 m -19 Y s 870 259 m -38 Y s
 gsave  2268 1701 0 0 C 870.454 163.786 t 0 r  -46 0 t /Helvetica findfont 54.8641 sf 0 0 m (100) show NC gr  1191 240 m -19 Y s
 gsave  2268 1701 0 0 C 1143 164.592 t 0 r /Helvetica findfont 54.8641 sf 0 0 m (200) show NC gr  1378 240 m -19 Y s
 gsave  2268 1701 0 0 C 1330.45 164.592 t 0 r /Helvetica findfont 54.8641 sf 0 0 m (300) show NC gr  1511 240 m -19 Y s
 gsave  2268 1701 0 0 C 1463.04 164.592 t 0 r /Helvetica findfont 54.8641 sf 0 0 m (400) show NC gr  1614 240 m -19 Y s 1699 240 m -19 Y s 1770 240 m -19 Y s 1832 240 m -19 Y s 1886 240 m -19 Y s 1935 259 m -38 Y s
 gsave  2268 1701 0 0 C 1934.76 163.786 t 0 r  -61 0 t /Helvetica findfont 54.8641 sf 0 0 m (1000) show NC gr  340 1531 m 1701 X s 447 1512 m 19 Y s 550 1512 m 19 Y s 634 1512 m 19 Y s 706 1512 m 19 Y s 767 1512 m 19 Y s 822 1512 m 19 Y s 870 1492 m
 39 Y s 1191 1512 m 19 Y s 1378 1512 m 19 Y s 1511 1512 m 19 Y s 1614 1512 m 19 Y s 1699 1512 m 19 Y s 1770 1512 m 19 Y s 1832 1512 m 19 Y s 1886 1512 m 19 Y s 1935 1492 m 39 Y s 340 221 m 1310 Y s
 gsave  2268 1701 0 0 C 173.736 1298.45 t 90 r /Helvetica findfont 54.8641 sf 0 0 m (jet,scaled) show NC gr 
 gsave  2268 1701 0 0 C 150.876 1175.01 t 90 r /Helvetica findfont 77.7242 sf 0 0 m ( \255 R) show NC gr 
 gsave  2268 1701 0 0 C 173.736 1111 t 90 r /Helvetica findfont 54.8641 sf 0 0 m (jet) show NC gr 
 gsave  2268 1701 0 0 C 150.876 1056.13 t 90 r /Helvetica findfont 77.7242 sf 0 0 m (R) show NC gr  393 339 m -53 X s 366 391 m -26 X s 366 443 m -26 X s 366 494 m -26 X s 366 546 m -26 X s 393 598 m -53 X s 366 650 m -26 X s 366 701 m -26 X s 366
 753 m -26 X s 366 805 m -26 X s 393 857 m -53 X s 366 909 m -26 X s 366 960 m -26 X s 366 1012 m -26 X s 366 1064 m -26 X s 393 1116 m -53 X s 366 1168 m -26 X s 366 1219 m -26 X s 366 1271 m -26 X s 366 1323 m -26 X s 393 1375 m -53 X s 393 339 m
 -53 X s 366 287 m -26 X s 366 235 m -26 X s 393 1375 m -53 X s 366 1427 m -26 X s 366 1478 m -26 X s 366 1530 m -26 X s
 gsave  2268 1701 0 0 C 187.452 320.041 t 0 r /Helvetica findfont 54.8641 sf 0 0 m (0.002) show NC gr 
 gsave  2268 1701 0 0 C 155.448 320.041 t 0 r /Symbol findfont 54.8641 sf 0 0 m (-) show NC gr 
 gsave  2268 1701 0 0 C 196.596 576.073 t 0 r /Helvetica findfont 54.8641 sf 0 0 m (0.001) show NC gr 
 gsave  2268 1701 0 0 C 164.592 576.073 t 0 r /Symbol findfont 54.8641 sf 0 0 m (-) show NC gr 
 gsave  2268 1701 0 0 C 292.609 836.678 t 0 r /Helvetica findfont 54.8641 sf 0 0 m (0) show NC gr 
 gsave  2268 1701 0 0 C 196.596 1097.28 t 0 r /Helvetica findfont 54.8641 sf 0 0 m (0.001) show NC gr 
 gsave  2268 1701 0 0 C 187.452 1353.31 t 0 r /Helvetica findfont 54.8641 sf 0 0 m (0.002) show NC gr  2041 221 m 1310 Y s 1989 339 m 52 X s 2015 391 m 26 X s 2015 443 m 26 X s 2015 494 m 26 X s 2015 546 m 26 X s 1989 598 m 52 X s 2015 650 m 26 X s
 2015 701 m 26 X s 2015 753 m 26 X s 2015 805 m 26 X s 1989 857 m 52 X s 2015 909 m 26 X s 2015 960 m 26 X s 2015 1012 m 26 X s 2015 1064 m 26 X s 1989 1116 m 52 X s 2015 1168 m 26 X s 2015 1219 m 26 X s 2015 1271 m 26 X s 2015 1323 m 26 X s 1989
 1375 m 52 X s 1989 339 m 52 X s 2015 287 m 26 X s 2015 235 m 26 X s 1989 1375 m 52 X s 2015 1427 m 26 X s 2015 1478 m 26 X s 2015 1530 m 26 X s 0.8 0 0 c 1 1 1 c 0.8 0 0 c 403 221 m 883 Y s 403 1141 m 390 Y s 340 1122 m 45 X s 421 1122 m 37 X s 403
 1122 m20 509 221 m 800 Y s 509 1058 m 473 Y s 458 1040 m 33 X s 527 1040 m 28 X s 509 1040 m20 611 221 m 765 Y s 611 1022 m 509 Y s 555 1004 m 37 X s 629 1004 m 32 X s 611 1004 m20 727 492 m 669 Y s 727 1198 m 333 Y s 661 1179 m 47 X s 745 1179 m 39
 X s 727 1179 m20 842 536 m 563 Y s 842 1135 m 396 Y s 784 1117 m 40 X s 861 1117 m 33 X s 842 1117 m20 950 717 m 481 Y s 950 1234 m 297 Y s 894 1216 m 38 X s 969 1216 m 32 X s 950 1216 m20 1067 704 m 411 Y s 1067 1151 m 380 Y s 1001 1133 m 47 X s
 1085 1133 m 39 X s 1067 1133 m20 1193 644 m 387 Y s 1193 1068 m 386 Y s 1124 1049 m 50 X s 1211 1049 m 41 X s 1193 1049 m20 1319 663 m 415 Y s 1319 1115 m 415 Y s 1252 1096 m 49 X s 1338 1096 m 40 X s 1319 1096 m20 1444 680 m 479 Y s 1444 1196 m 335
 Y s 1378 1177 m 47 X s 1462 1177 m 39 X s 1444 1177 m20 1563 375 m 603 Y s 1563 1015 m 516 Y s 1501 996 m 44 X s 1581 996 m 37 X s 1563 996 m20 1693 221 m 687 Y s 1693 945 m 586 Y s 1618 927 m 57 X s 1711 927 m 47 X s 1693 927 m20 1841 221 m 703 Y s
 1841 961 m 570 Y s 1758 942 m 65 X s 1859 942 m 53 X s 1841 942 m20 1981 221 m 666 Y s 1981 924 m 607 Y s 1912 906 m 51 X s 1999 906 m 42 X s 1981 906 m20 0 0 0.8 c 1 1 1 c 0 0 0.8 c 403 221 m 622 Y s 403 880 m 651 Y s 340 861 m 45 X s 421 861 m 37
 X s 403 861 m21 509 221 m 643 Y s 509 901 m 630 Y s 458 882 m 33 X s 527 882 m 28 X s 509 882 m21 611 285 m 563 Y s 611 885 m 562 Y s 555 866 m 37 X s 629 866 m 32 X s 611 866 m21 727 435 m 406 Y s 727 877 m 406 Y s 661 859 m 47 X s 745 859 m 39 X s
 727 859 m21 842 490 m 347 Y s 842 874 m 347 Y s 784 856 m 40 X s 861 856 m 33 X s 842 856 m21 950 523 m 312 Y s 950 872 m 312 Y s 894 854 m 38 X s 969 854 m 32 X s 950 854 m21 1067 600 m 245 Y s 1067 882 m 244 Y s 1001 863 m 47 X s 1085 863 m 39 X s
 1067 863 m21 1193 650 m 194 Y s 1193 880 m 194 Y s 1124 862 m 50 X s 1211 862 m 41 X s 1193 862 m21 1319 683 m 164 Y s 1319 884 m 163 Y s 1252 865 m 49 X s 1338 865 m 40 X s 1319 865 m21 1444 702 m 148 Y s 1444 887 m 148 Y s 1378 868 m 47 X s 1462
 868 m 39 X s 1444 868 m21 1563 691 m 155 Y s 1563 883 m 155 Y s 1501 864 m 44 X s 1581 864 m 37 X s 1563 864 m21 1693 716 m 135 Y s 1693 888 m 135 Y s 1618 870 m 57 X s 1711 870 m 47 X s 1693 870 m21 1841 715 m 129 Y s 1841 881 m 129 Y s 1758 863 m
 65 X s 1859 863 m 53 X s 1841 863 m21 1981 687 m 167 Y s 1981 890 m 166 Y s 1912 872 m 51 X s 1999 872 m 42 X s 1981 872 m21 0.6 0 0.6 c 1 1 1 c 0.6 0 0.6 c 403 221 m 618 Y s 403 875 m 656 Y s 340 857 m 45 X s 421 857 m 37 X s 403 857 m33 509 325 m
 515 Y s 509 876 m 515 Y s 458 858 m 33 X s 527 858 m 28 X s 509 858 m33 611 477 m 362 Y s 611 876 m 362 Y s 555 857 m 37 X s 629 857 m 32 X s 611 857 m33 727 605 m 238 Y s 727 879 m 238 Y s 661 861 m 47 X s 745 861 m 39 X s 727 861 m33 842 662 m 180
 Y s 842 879 m 180 Y s 784 860 m 40 X s 861 860 m 33 X s 842 860 m33 950 693 m 148 Y s 950 877 m 148 Y s 894 859 m 38 X s 969 859 m 32 X s 950 859 m33 1067 722 m 115 Y s 1067 874 m 114 Y s 1001 855 m 47 X s 1085 855 m 39 X s 1067 855 m33 1193 740 m
 100 Y s 1193 876 m 100 Y s 1124 858 m 50 X s 1211 858 m 41 X s 1193 858 m33 1319 744 m 95 Y s 1319 875 m 95 Y s 1252 857 m 49 X s 1338 857 m 40 X s 1319 857 m33 1444 740 m 98 Y s 1444 874 m 97 Y s 1378 856 m 47 X s 1462 856 m 39 X s 1444 856 m33
 1563 733 m 105 Y s 1563 875 m 104 Y s 1501 856 m 44 X s 1581 856 m 37 X s 1563 856 m33 1693 723 m 118 Y s 1693 878 m 118 Y s 1618 860 m 57 X s 1711 860 m 47 X s 1693 860 m33 1841 677 m 158 Y s 1841 872 m 158 Y s 1758 853 m 65 X s 1859 853 m 53 X s
 1841 853 m33 1981 545 m 291 Y s 1981 873 m 291 Y s 1912 854 m 51 X s 1999 854 m 42 X s 1981 854 m33 1 0.6 0.2 c 1 1 1 c 1 0.6 0.2 c 403 221 m 616 Y s 403 874 m 657 Y s 340 856 m 45 X s 421 856 m 37 X s 403 856 m22 509 221 m 620 Y s 509 877 m 654 Y s
 458 859 m 33 X s 527 859 m 28 X s 509 859 m22 611 221 m 619 Y s 611 877 m 654 Y s 555 858 m 37 X s 629 858 m 32 X s 611 858 m22 727 292 m 547 Y s 727 876 m 548 Y s 661 858 m 47 X s 745 858 m 39 X s 727 858 m22 842 395 m 447 Y s 842 879 m 447 Y s 784
 860 m 40 X s 861 860 m 33 X s 842 860 m22 950 437 m 403 Y s 950 876 m 402 Y s 894 858 m 38 X s 969 858 m 32 X s 950 858 m22 1067 515 m 323 Y s 1067 874 m 323 Y s 1001 856 m 47 X s 1085 856 m 39 X s 1067 856 m22 1193 541 m 304 Y s 1193 881 m 304 Y s
 1124 863 m 50 X s 1211 863 m 41 X s 1193 863 m22 1319 533 m 306 Y s 1319 875 m 306 Y s 1252 857 m 49 X s 1338 857 m 40 X s 1319 857 m22 1444 502 m 335 Y s 1444 874 m 335 Y s 1378 855 m 47 X s 1462 855 m 39 X s 1444 855 m22 1563 444 m 387 Y s 1563
 868 m 388 Y s 1501 850 m 44 X s 1581 850 m 37 X s 1563 850 m22 1693 343 m 493 Y s 1693 872 m 493 Y s 1618 854 m 57 X s 1711 854 m 47 X s 1693 854 m22 1841 250 m 614 Y s 1841 900 m 614 Y s 1758 882 m 65 X s 1859 882 m 53 X s 1841 882 m22 1981 221 m
 618 Y s 1981 875 m 656 Y s 1912 857 m 51 X s 1999 857 m 42 X s 1981 857 m22 0 0.6 0 c 1 1 1 c 0 0.6 0 c 403 221 m 616 Y s 403 874 m 657 Y s 340 855 m 45 X s 421 855 m 37 X s 403 855 m23 509 221 m 618 Y s 509 875 m 656 Y s 458 857 m 33 X s 527 857 m
 28 X s 509 857 m23 611 221 m 618 Y s 611 875 m 656 Y s 555 857 m 37 X s 629 857 m 32 X s 611 857 m23 727 221 m 618 Y s 727 875 m 656 Y s 661 857 m 47 X s 745 857 m 39 X s 727 857 m23 842 330 m 507 Y s 842 874 m 507 Y s 784 855 m 40 X s 861 855 m 33
 X s 842 855 m23 950 395 m 446 Y s 950 878 m 447 Y s 894 860 m 38 X s 969 860 m 32 X s 950 860 m23 1067 462 m 378 Y s 1067 877 m 378 Y s 1001 858 m 47 X s 1085 858 m 39 X s 1067 858 m23 1193 489 m 351 Y s 1193 877 m 351 Y s 1124 858 m 50 X s 1211 858
 m 41 X s 1193 858 m23 1319 479 m 360 Y s 1319 876 m 360 Y s 1252 857 m 49 X s 1338 857 m 40 X s 1319 857 m23 1444 424 m 421 Y s 1444 882 m 421 Y s 1378 864 m 47 X s 1462 864 m 39 X s 1444 864 m23 1563 262 m 575 Y s 1563 874 m 576 Y s 1501 856 m 44 X
 s 1581 856 m 37 X s 1563 856 m23 1693 221 m 607 Y s 1693 865 m 618 Y s 1618 846 m 57 X s 1711 846 m 47 X s 1693 846 m23 1841 221 m 621 Y s 1841 879 m 652 Y s 1758 860 m 65 X s 1859 860 m 53 X s 1841 860 m23 1981 221 m 620 Y s 1981 878 m 653 Y s 1912
 860 m 51 X s 1999 860 m 42 X s 1981 860 m23 black 1 1 1 c 454 425 1247 289 bf black
 gsave  2268 1701 0 0 C 1357.89 667.513 t 0 r /Helvetica findfont 54.8641 sf 0 0 m (All) show NC gr  1304 679 m24
 gsave  2268 1701 0 0 C 1357.89 594.361 t 0 r /Helvetica findfont 54.8641 sf 0 0 m (b) show NC gr  0.8 0 0 c 1304 608 m20 black
 gsave  2268 1701 0 0 C 1357.89 525.781 t 0 r /Helvetica findfont 54.8641 sf 0 0 m (c) show NC gr  0 0.6 0 c 1304 537 m23 black
 gsave  2268 1701 0 0 C 1357.89 452.629 t 0 r /Helvetica findfont 54.8641 sf 0 0 m (s) show NC gr  1 0.6 0.2 c 1304 466 m22 black
 gsave  2268 1701 0 0 C 1357.89 384.049 t 0 r /Helvetica findfont 54.8641 sf 0 0 m (ud) show NC gr  0.6 0 0.6 c 1304 395 m33 black
 gsave  2268 1701 0 0 C 1357.89 310.897 t 0 r /Helvetica findfont 54.8641 sf 0 0 m (gluon) show NC gr  0 0 0.8 c 1304 325 m21
 gr  gr showpage
end
%%EOF
