%!PS-Adobe-2.0 EPSF-2.0
%%BoundingBox:  0 0 567 425
%%Title: ./plots/Rjet/gluonDiff.eps: 
%%Creator: ROOT Version 6.06/04
%%CreationDate: Fri Apr  3 19:18:39 2020
%%DocumentNeededResources: ProcSet (FontSetInit)
%%EndComments
%%BeginProlog
80 dict begin
/s {stroke} def /l {lineto} def /m {moveto} def /t {translate} def
/r {rotate} def /rl {roll}  def /R {repeat} def
/d {rlineto} def /rm {rmoveto} def /gr {grestore} def /f {eofill} def
/c {setrgbcolor} def /black {0 setgray} def /sd {setdash} def
/cl {closepath} def /sf {scalefont setfont} def /lw {setlinewidth} def
/box {m dup 0 exch d exch 0 d 0 exch neg d cl} def
/NC{systemdict begin initclip end}def/C{NC box clip newpath}def
/bl {box s} def /bf {gsave box gsave f grestore 1 lw [] 0 sd s grestore} def /Y { 0 exch d} def /X { 0 d} def 
/K {{pop pop 0 moveto} exch kshow} bind def
/ita {/ang 15 def gsave [1 0 ang dup sin exch cos div 1 0 0] concat} def 
/mp {newpath /y exch def /x exch def} def
/side {[w .77 mul w .23 mul] .385 w mul sd w 0 l currentpoint t -144 r} def
/mr {mp x y w2 0 360 arc} def /m24 {mr s} def /m20 {mr f} def
/mb {mp x y w2 add m w2 neg 0 d 0 w neg d w 0 d 0 w d cl} def
/mt {mp x y w2 add m w2 neg w neg d w 0 d cl} def
/m21 {mb f} def /m25 {mb s} def /m22 {mt f} def /m26{mt s} def
/m23 {mp x y w2 sub m w2 w d w neg 0 d cl f} def
/m27 {mp x y w2 add m w3 neg w2 neg d w3 w2 neg d w3 w2 d cl s} def
/m28 {mp x w2 sub y w2 sub w3 add m w3 0 d  0 w3 neg d w3 0 d 0 w3 d w3 0 d  0 w3 d w3 neg 0 d 0 w3 d w3 neg 0 d 0 w3 neg d w3 neg 0 d cl s } def
/m29 {mp gsave x w2 sub y w2 add w3 sub m currentpoint t 4 {side} repeat cl fill gr} def
/m30 {mp gsave x w2 sub y w2 add w3 sub m currentpoint t 4 {side} repeat cl s gr} def
/m31 {mp x y w2 sub m 0 w d x w2 sub y m w 0 d x w2 sub y w2 add m w w neg d x w2 sub y w2 sub m w w d s} def
/m32 {mp x y w2 sub m w2 w d w neg 0 d cl s} def
/m33 {mp x y w2 add m w3 neg w2 neg d w3 w2 neg d w3 w2 d cl f} def
/m34 {mp x w2 sub y w2 sub w3 add m w3 0 d  0 w3 neg d w3 0 d 0 w3 d w3 0 d  0 w3 d w3 neg 0 d 0 w3 d w3 neg 0 d 0 w3 neg d w3 neg 0 d cl f } def
/m2 {mp x y w2 sub m 0 w d x w2 sub y m w 0 d s} def
/m5 {mp x w2 sub y w2 sub m w w d x w2 sub y w2 add m w w neg d s} def
%%IncludeResource: ProcSet (FontSetInit)
%%IncludeResource: font Times-Roman
%%IncludeResource: font Times-Italic
%%IncludeResource: font Times-Bold
%%IncludeResource: font Times-BoldItalic
%%IncludeResource: font Helvetica
%%IncludeResource: font Helvetica-Oblique
%%IncludeResource: font Helvetica-Bold
%%IncludeResource: font Helvetica-BoldOblique
%%IncludeResource: font Courier
%%IncludeResource: font Courier-Oblique
%%IncludeResource: font Courier-Bold
%%IncludeResource: font Courier-BoldOblique
%%IncludeResource: font Symbol
%%IncludeResource: font ZapfDingbats
/reEncode {exch findfont dup length dict begin {1 index /FID eq  {pop pop} {def} ifelse } forall /Encoding exch def currentdict end dup /FontName get exch definefont pop } def [/Times-Bold /Times-Italic /Times-BoldItalic /Helvetica /Helvetica-Oblique
 /Helvetica-Bold /Helvetica-BoldOblique /Courier /Courier-Oblique /Courier-Bold /Courier-BoldOblique /Times-Roman /AvantGarde-Book /AvantGarde-BookOblique /AvantGarde-Demi /AvantGarde-DemiOblique /Bookman-Demi /Bookman-DemiItalic /Bookman-Light
 /Bookman-LightItalic /Helvetica-Narrow /Helvetica-Narrow-Bold /Helvetica-Narrow-BoldOblique /Helvetica-Narrow-Oblique /NewCenturySchlbk-Roman /NewCenturySchlbk-Bold /NewCenturySchlbk-BoldItalic /NewCenturySchlbk-Italic /Palatino-Bold
 /Palatino-BoldItalic /Palatino-Italic /Palatino-Roman ] {ISOLatin1Encoding reEncode } forall
%%EndProlog
%%BeginSetup
%%EndSetup
newpath  gsave  .25 .25 scale  gsave  0 0 t black[  ] 0 sd 3 lw 1 1 1 c 2268 1701 0 0 bf black 1 1 1 c 1701 1310 340 221 bf black 1701 1310 340 221 bl 0.8 0 0 c 1 1 1 c 0.8 0 0 c 611 509 m 374 Y s 611 920 m 375 Y s 555 902 m 37 X s 629 902 m 32 X s
 /w 37 def /w2 {w 2 div} def /w3 {w 3 div} def 611 902 m20 727 221 m 195 Y s 727 453 m 363 Y s 661 435 m 47 X s 745 435 m 39 X s 727 435 m20 842 628 m 264 Y s 842 928 m 263 Y s 784 910 m 40 X s 861 910 m 33 X s 842 910 m20 950 342 m 255 Y s 950 633 m
 256 Y s 894 615 m 38 X s 969 615 m 32 X s 950 615 m20 1193 221 m 143 Y s 1193 400 m 207 Y s 1124 382 m 50 X s 1211 382 m 41 X s 1193 382 m20 1319 221 m 192 Y s 1319 450 m 198 Y s 1252 431 m 49 X s 1338 431 m 40 X s 1319 431 m20 1693 221 m 31 Y s
 1693 289 m 344 Y s 1618 271 m 57 X s 1711 271 m 47 X s 1693 271 m20 1841 331 m 586 Y s 1841 954 m 577 Y s 1758 935 m 65 X s 1859 935 m 53 X s 1841 935 m20 1981 323 m 62 Y s 1981 422 m 61 Y s 1912 403 m 51 X s 1999 403 m 42 X s 1981 403 m20 black 340
 221 m 1701 X s
 gsave  2268 1701 0 0 C 1815.09 64.0081 t 0 r /Helvetica findfont 77.7242 sf 0 0 m ( \(GeV\)) show NC gr 
 gsave  2268 1701 0 0 C 1705.36 105.156 t 0 r /Helvetica findfont 54.8641 sf 0 0 m (gen) show NC gr 
 gsave  2268 1701 0 0 C 1705.36 18.288 t 0 r /Helvetica findfont 54.8641 sf 0 0 m (T,jet) show NC gr 
 gsave  2268 1701 0 0 C 1664.21 64.0081 t 0 r /Helvetica findfont 77.7242 sf 0 0 m (p) show NC gr  447 240 m -19 Y s
 gsave  2268 1701 0 0 C 411.481 164.592 t 0 r /Helvetica findfont 54.8641 sf 0 0 m (40) show NC gr  550 240 m -19 Y s
 gsave  2268 1701 0 0 C 516.637 164.592 t 0 r /Helvetica findfont 54.8641 sf 0 0 m (50) show NC gr  634 240 m -19 Y s
 gsave  2268 1701 0 0 C 598.933 164.592 t 0 r /Helvetica findfont 54.8641 sf 0 0 m (60) show NC gr  706 240 m -19 Y s 767 240 m -19 Y s 822 240 m -19 Y s 870 259 m -38 Y s
 gsave  2268 1701 0 0 C 870.454 163.786 t 0 r  -46 0 t /Helvetica findfont 54.8641 sf 0 0 m (100) show NC gr  1191 240 m -19 Y s
 gsave  2268 1701 0 0 C 1143 164.592 t 0 r /Helvetica findfont 54.8641 sf 0 0 m (200) show NC gr  1378 240 m -19 Y s
 gsave  2268 1701 0 0 C 1330.45 164.592 t 0 r /Helvetica findfont 54.8641 sf 0 0 m (300) show NC gr  1511 240 m -19 Y s
 gsave  2268 1701 0 0 C 1463.04 164.592 t 0 r /Helvetica findfont 54.8641 sf 0 0 m (400) show NC gr  1614 240 m -19 Y s 1699 240 m -19 Y s 1770 240 m -19 Y s 1832 240 m -19 Y s 1886 240 m -19 Y s 1935 259 m -38 Y s
 gsave  2268 1701 0 0 C 1934.76 163.786 t 0 r  -61 0 t /Helvetica findfont 54.8641 sf 0 0 m (1000) show NC gr  340 221 m 1310 Y s
 gsave  2268 1701 0 0 C 128.016 653.797 t 90 r /Helvetica findfont 68.5801 sf 0 0 m (Difference to gluon response) show NC gr  393 221 m -53 X s 366 252 m -26 X s 366 283 m -26 X s 366 315 m -26 X s 366 346 m -26 X s 393 377 m -53 X s 366 408 m -26 X
 s 366 439 m -26 X s 366 471 m -26 X s 366 502 m -26 X s 393 533 m -53 X s 366 564 m -26 X s 366 595 m -26 X s 366 626 m -26 X s 366 658 m -26 X s 393 689 m -53 X s 366 720 m -26 X s 366 751 m -26 X s 366 782 m -26 X s 366 814 m -26 X s 393 845 m -53
 X s 366 876 m -26 X s 366 907 m -26 X s 366 938 m -26 X s 366 969 m -26 X s 393 1001 m -53 X s 366 1032 m -26 X s 366 1063 m -26 X s 366 1094 m -26 X s 366 1125 m -26 X s 393 1157 m -53 X s 366 1188 m -26 X s 366 1219 m -26 X s 366 1250 m -26 X s
 366 1281 m -26 X s 393 1312 m -53 X s 366 1344 m -26 X s 366 1375 m -26 X s 366 1406 m -26 X s 366 1437 m -26 X s 393 1468 m -53 X s 393 1468 m -53 X s 366 1500 m -26 X s 366 1531 m -26 X s
 gsave  2268 1701 0 0 C 292.609 201.168 t 0 r /Helvetica findfont 54.8641 sf 0 0 m (0) show NC gr 
 gsave  2268 1701 0 0 C 187.452 356.617 t 0 r /Helvetica findfont 54.8641 sf 0 0 m (0.005) show NC gr 
 gsave  2268 1701 0 0 C 228.6 512.065 t 0 r /Helvetica findfont 54.8641 sf 0 0 m (0.01) show NC gr 
 gsave  2268 1701 0 0 C 187.452 667.513 t 0 r /Helvetica findfont 54.8641 sf 0 0 m (0.015) show NC gr 
 gsave  2268 1701 0 0 C 219.456 822.962 t 0 r /Helvetica findfont 54.8641 sf 0 0 m (0.02) show NC gr 
 gsave  2268 1701 0 0 C 187.452 978.41 t 0 r /Helvetica findfont 54.8641 sf 0 0 m (0.025) show NC gr 
 gsave  2268 1701 0 0 C 219.456 1133.86 t 0 r /Helvetica findfont 54.8641 sf 0 0 m (0.03) show NC gr 
 gsave  2268 1701 0 0 C 187.452 1293.88 t 0 r /Helvetica findfont 54.8641 sf 0 0 m (0.035) show NC gr 
 gsave  2268 1701 0 0 C 219.456 1449.33 t 0 r /Helvetica findfont 54.8641 sf 0 0 m (0.04) show NC gr  0.6 0 0.6 c 413 1507 470 1409 548 1474 655 1286 763 1163 876 1024 999 876 1113 786 1262 745 1433 819 1570 885 1714 926 1851 942 1995 926 14 { m27} R
 black 0.8 0 0 c 344 434 413 622 473 369 548 524 655 565 763 516 876 401 999 344 1113 319 1259 262 1430 246 1567 360 1714 500 1851 598 1992 655 15 { m24} R black 1 0.6 0.2 c 344 786 413 844 470 794 548 696 655 688 763 516 876 426 999 287 1113 229
 1259 311 1430 483 1567 622 1714 794 1851 876 1992 901 15 { m26} R black 0 0.8 0 c 344 729 413 958 470 991 548 1065 655 835 763 835 876 696 999 582 1113 516 1259 442 1430 541 1567 663 1714 745 1851 811 1992 835 15 { m32} R 0.6 0 0.6 c 1 1 1 c 0.6 0
 0.6 c 509 350 m 406 Y s 509 793 m 406 Y s 458 774 m 33 X s 527 774 m 28 X s 509 774 m33 611 632 m 296 Y s 611 965 m 296 Y s 555 947 m 37 X s 629 947 m 32 X s 611 947 m33 727 820 m 241 Y s 727 1097 m 241 Y s 661 1079 m 47 X s 745 1079 m 39 X s 727
 1079 m33 842 626 m 182 Y s 842 844 m 182 Y s 784 826 m 40 X s 861 826 m 33 X s 842 826 m33 950 828 m 162 Y s 950 1027 m 162 Y s 894 1008 m 38 X s 969 1008 m 32 X s 950 1008 m33 1067 437 m 119 Y s 1067 593 m 119 Y s 1001 575 m 47 X s 1085 575 m 39 X
 s 1067 575 m33 1193 410 m 98 Y s 1193 544 m 98 Y s 1124 526 m 50 X s 1211 526 m 41 X s 1193 526 m33 1319 374 m 98 Y s 1319 509 m 97 Y s 1252 490 m 49 X s 1338 490 m 40 X s 1319 490 m33 1444 513 m 86 Y s 1444 636 m 87 Y s 1378 618 m 47 X s 1462 618 m
 39 X s 1444 618 m33 1563 221 m 39 Y s 1563 297 m 88 Y s 1501 278 m 44 X s 1581 278 m 37 X s 1563 278 m33 1693 286 m 85 Y s 1693 407 m 85 Y s 1618 389 m 57 X s 1711 389 m 47 X s 1693 389 m33 1841 260 m 126 Y s 1841 423 m 127 Y s 1758 405 m 65 X s
 1859 405 m 53 X s 1841 405 m33 1981 280 m 167 Y s 1981 484 m 167 Y s 1912 466 m 51 X s 1999 466 m 42 X s 1981 466 m33 1 0.6 0.2 c 1 1 1 c 1 0.6 0.2 c 509 221 m 176 Y s 509 433 m 758 Y s 458 415 m 33 X s 527 415 m 28 X s 509 415 m22 727 221 m 1 Y s
 727 259 m 338 Y s 661 241 m 47 X s 745 241 m 39 X s 727 241 m22 950 457 m 217 Y s 950 710 m 217 Y s 894 692 m 38 X s 969 692 m 32 X s 950 692 m22 1841 221 m 162 Y s 1841 420 m 352 Y s 1758 402 m 65 X s 1859 402 m 53 X s 1841 402 m22 0 0.8 0 c 1 1 1
 c 0 0.8 0 c 611 221 m 354 Y s 611 611 m 538 Y s 555 593 m 37 X s 629 593 m 32 X s 611 593 m23 727 221 m 202 Y s 727 460 m 451 Y s 661 442 m 47 X s 745 442 m 39 X s 727 442 m23 842 221 m 107 Y s 842 364 m 316 Y s 784 346 m 40 X s 861 346 m 33 X s 842
 346 m23 950 221 m 179 Y s 950 437 m 259 Y s 894 418 m 38 X s 969 418 m 32 X s 950 418 m23 1067 376 m 176 Y s 1067 588 m 175 Y s 1001 570 m 47 X s 1085 570 m 39 X s 1067 570 m23 1193 505 m 181 Y s 1193 723 m 181 Y s 1124 704 m 50 X s 1211 704 m 41 X
 s 1193 704 m23 1319 221 m 244 Y s 1319 501 m 272 Y s 1252 483 m 49 X s 1338 483 m 40 X s 1319 483 m23 1563 342 m 175 Y s 1563 554 m 175 Y s 1501 536 m 44 X s 1581 536 m 37 X s 1563 536 m23 1693 467 m 256 Y s 1693 760 m 256 Y s 1618 742 m 57 X s 1711
 742 m 47 X s 1693 742 m23 1981 221 m 248 Y s 1981 505 m 565 Y s 1912 487 m 51 X s 1999 487 m 42 X s 1981 487 m23 black 1 1 1 c 612 494 1406 1020 bf black
 gsave  2268 1701 0 0 C 1559.06 1472.19 t 0 r /Helvetica findfont 50.2921 sf 0 0 m (b) show NC gr  1 1 1 c 1429 1461 m 107 X 43 Y -107 X f 0.8 0 0 c 1429 1483 m 107 X s 1483 1483 m20 black
 gsave  2268 1701 0 0 C 1559.06 1408.18 t 0 r /Helvetica findfont 50.2921 sf 0 0 m (c) show NC gr  1 1 1 c 1429 1400 m 107 X 43 Y -107 X f 0 0.8 0 c 1429 1421 m 107 X s 1483 1421 m23 black
 gsave  2268 1701 0 0 C 1559.06 1348.74 t 0 r /Helvetica findfont 50.2921 sf 0 0 m (s) show NC gr  1 1 1 c 1429 1338 m 107 X 43 Y -107 X f 1 0.6 0.2 c 1429 1360 m 107 X s 1483 1360 m22 black
 gsave  2268 1701 0 0 C 1559.06 1284.73 t 0 r /Helvetica findfont 50.2921 sf 0 0 m (ud) show NC gr  1 1 1 c 1429 1276 m 107 X 43 Y -107 X f 0.6 0 0.6 c 1429 1298 m 107 X s 1483 1298 m33 black
 gsave  2268 1701 0 0 C 1559.06 1225.3 t 0 r /Helvetica findfont 50.2921 sf 0 0 m (b \(PF\)) show NC gr  0.8 0 0 c 1483 1236 m24 black
 gsave  2268 1701 0 0 C 1559.06 1161.29 t 0 r /Helvetica findfont 50.2921 sf 0 0 m (c \(PF\)) show NC gr  0 0.8 0 c 1483 1175 m32 black
 gsave  2268 1701 0 0 C 1559.06 1101.85 t 0 r /Helvetica findfont 50.2921 sf 0 0 m (s \(PF\)) show NC gr  1 0.6 0.2 c 1483 1113 m26 black
 gsave  2268 1701 0 0 C 1559.06 1037.85 t 0 r /Helvetica findfont 50.2921 sf 0 0 m (ud \(PF\)) show NC gr  0.6 0 0.6 c 1483 1051 m27
 gr  gr showpage
end
%%EOF
